<?xml version="1.0" encoding="UTF-8" standalone="no"?>
<svg
   xmlns:dc="http://purl.org/dc/elements/1.1/"
   xmlns:cc="http://creativecommons.org/ns#"
   xmlns:rdf="http://www.w3.org/1999/02/22-rdf-syntax-ns#"
   xmlns:svg="http://www.w3.org/2000/svg"
   xmlns="http://www.w3.org/2000/svg"
   xmlns:sodipodi="http://sodipodi.sourceforge.net/DTD/sodipodi-0.dtd"
   xmlns:inkscape="http://www.inkscape.org/namespaces/inkscape"
   width="128.10051"
   height="462.13577"
   style="overflow:visible"
   version="1.1"
   id="svg1552"
   sodipodi:docname="perso10.svg"
   inkscape:version="0.92.5 (2060ec1f9f, 2020-04-08)">
  <metadata
     id="metadata1558">
    <rdf:RDF>
      <cc:Work
         rdf:about="">
        <dc:format>image/svg+xml</dc:format>
        <dc:type
           rdf:resource="http://purl.org/dc/dcmitype/StillImage" />
      </cc:Work>
    </rdf:RDF>
  </metadata>
  <defs
     id="defs1556" />
  <sodipodi:namedview
     pagecolor="#ffffff"
     bordercolor="#666666"
     borderopacity="1"
     objecttolerance="10"
     gridtolerance="10"
     guidetolerance="10"
     inkscape:pageopacity="0"
     inkscape:pageshadow="2"
     inkscape:window-width="640"
     inkscape:window-height="480"
     id="namedview1554"
     showgrid="false"
     inkscape:zoom="0.39333333"
     inkscape:cx="-153.79171"
     inkscape:cy="415.21607"
     inkscape:window-x="42"
     inkscape:window-y="25"
     inkscape:window-maximized="0"
     inkscape:current-layer="svg1552" />
  <g
     id="g1548"
     transform="translate(-201.89586,-126.54015)">
    <svg
       id="svg1470"
       version="1.1"
       style="overflow:visible"
       height="600"
       width="500">
      <svg
         id="svg1468"
         version="1.1"
         style="overflow:visible"
         height="600"
         width="500"
         viewBox="0 0 500 600">
        <g
           id="g1466">
          <svg
             height="100%"
             width="100%"
             id="svg1464"
             version="1.1"
             viewBox="0 0 496.8 597.6">
            <path
               style="fill:#cdab8f;fill-rule:evenodd"
               inkscape:connector-curvature="0"
               id="path1420"
               d="m 217.5,175.2 c 10.9,-10.7 12.2,-12.1 15.6,-26.5 10.8,5.5 15.5,5.1 28.8,4.2 13.6,9 17.1,46.6 -1.4,55.8 -24.3,8.1 -43.3,-12.2 -43,-33.5 z" />
            <path
               inkscape:connector-curvature="0"
               id="path1422"
               d="m 247.8,192.3 a 1.2,1.2 0 0 0 0.7,1 44,44 0 0 0 8.5,-3.3 0.8,0.8 0 0 0 -0.3,-0.8 V 189 h -0.1 l -0.3,-0.2 c -1.4,0.8 -5.3,3.9 -6.7,2.3 -0.8,-0.1 -1.9,0.2 -1.7,1.2" />
            <path
               inkscape:connector-curvature="0"
               id="path1424"
               d="m 256.9,167.7 c -2.4,0.9 -3.9,3.4 -5.2,5.5 -1.3,2.1 -0.4,1.2 -0.7,2.1 -0.3,0.9 1.5,1.2 1.7,0.2 a 10.3,10.3 0 0 1 4,-5.4 9,9 0 0 1 7,-0.5 l 0.5,0.3 h 1.2 c 0.8,0 0.8,-1.3 0.1,-1.4 -0.7,-0.1 -2,-0.9 -2.8,-1.1 a 16.2,16.2 0 0 0 -5.8,0.2 z" />
            <path
               inkscape:connector-curvature="0"
               id="path1426"
               d="m 257,168.2 c -1.5,0.9 -3,2.7 -2.7,4.6 v -0.3 c 1.6,-1.9 4,-3.6 6.6,-3.4 -1.1,-1.1 -2.6,-1 -4,-0.8 z" />
            <path
               inkscape:connector-curvature="0"
               id="path1428"
               d="m 242.4,174.5 a 0.8,0.8 0 0 0 0.1,0.8 c 3.8,4.1 4.5,10.5 5.1,15.9 v 0 a 1.0124228,1.0124228 0 0 0 1.9,0.7 c 0.2,-1 -0.8,-2 -0.3,-3.1 0.5,-1.1 -3.5,-15.7 -6.8,-14.4" />
            <path
               inkscape:connector-curvature="0"
               id="path1430"
               d="m 269.5,203 1,-1.6 h 0.1 v -0.2 a 2.2,2.2 0 0 0 0.9,1 h 0.1 l -2.5,1.4 0.3,-0.5 m 1.7,-31.1 c -0.6,-1.6 -1,-4.1 -1.8,-5.5 a 7.5,7.5 0 0 0 -0.5,-1.6 h 0.7 c 2,2.3 1.6,6 1.7,8.9 v 0 c -0.1,-0.5 -0.3,-1.1 -0.4,-1.6 m -45.3,21.3 a 3.2,3.2 0 0 1 -2.3,-0.8 c -1.8,-2.4 -3.7,-6.5 -2.2,-9.4 h 0.3 c 1,3.5 3.1,6.9 4.4,10.3 h -0.2 M 222,172.4 h 0.2 a 35.9,35.9 0 0 0 3.9,-3.9 h 0.1 l 1.1,-1.3 h 0.1 c 1.3,-1.5 3.2,-3.8 4.4,-5.5 h 0.1 a 12.7,12.7 0 0 1 1.3,-1.9 v -0.2 h 0.1 l 0.5,-0.7 v 0 c 0.6,-1.1 1.1,-2.6 1.8,-3.7 v 0 a 3.4,3.4 0 0 1 0.6,-1.2 v -1.3 a 3.9,3.9 0 0 0 0.6,-1.8 v 0 -0.2 h 0.1 v -0.3 l 0.4,0.4 h 0.1 c 2.6,2.1 6.5,2.6 9.8,3.1 3.3,0.5 8.4,-0.1 11.8,0.5 3.4,0.6 5.4,6 7,9.5 a 1,1 0 0 0 0.6,1.3 v 0 c 0.6,1.6 1.6,3.5 1.5,5.3 a 39.7,39.7 0 0 1 1.8,8.3 v 0 c 0,2 0.3,5.4 0.2,7.6 v 0 c -0.1,4.6 -0.6,9.5 -2.8,13.5 h 0.2 v 0.2 c -0.6,0.8 -1.1,1.9 -1.7,2.7 h -0.2 l -0.3,0.4 v 0.2 a 20.6,20.6 0 0 1 -2.9,3 h -0.1 l -2.1,1.5 c -1.8,0 -4,0.9 -5.8,1.1 -1.8,0.2 -5.8,0.5 -7.7,0 a 47.3,47.3 0 0 1 -6.2,-2.5 c -2.2,-1.3 -5.2,-2.8 -6.7,-4.9 v 0 l -0.6,-0.7 H 233 a 34.3,34.3 0 0 1 -2.4,-3.3 v -0.2 l -0.7,-1.1 h -0.1 a 93.2,93.2 0 0 1 -8.7,-21.5 v 0 a 3.6,3.6 0 0 1 -0.2,-1 l -0.3,-0.5 h 0.1 l 1.5,-1.2 m 9.5,-44 c -1.4,0.9 -3.7,1.3 -5.2,2.1 -1.5,0.8 -6,2.8 -8.4,5 H 218 a 38.3,38.3 0 0 0 -8.1,10.6 h -0.3 c -9,17.9 -1.3,34.9 6.1,51.8 l 0.3,0.4 h 0.1 a 71.4,71.4 0 0 0 12.4,13.9 c 1.3,0 3.1,1.4 4.2,1.9 1.1,0.5 6,3.6 8.6,4.9 a 7.5,7.5 0 0 0 2.9,0.9 2.4,2.4 0 0 1 1.2,-0.7 c -0.1,-3 -0.3,-6.2 -1.8,-8.7 3.2,2.1 8.5,1.6 12.2,1.2 a 36.3,36.3 0 0 0 4.5,-1 13.9,13.9 0 0 0 3.8,-2.5 c 0.6,0.1 0.7,-0.5 1.2,-0.6 l 0.9,-0.9 a 1.6,1.6 0 0 0 1.5,1.3 c 5.7,6.5 11.2,0 13.8,9.2 h 0.1 c 0.8,2.2 1.8,4.8 2.8,7.2 h 0.1 a 11.1,11.1 0 0 0 8.7,7.2 c 3.3,0 7.9,-0.4 9.5,3.2 v 0 c 1.7,3 5.1,2.8 8,3.4 2.9,0.6 4.7,2.4 7.2,2.4 2.5,0 6.2,-1.7 9,-2.8 6,-1.5 1.8,-13.4 -0.3,-17 v -0.2 c -3.2,-5.4 -2.4,-12.3 -5.2,-18 l -0.5,-0.6 h -0.2 c -2.5,-2.4 -6,-3.8 -8.6,-6.1 h -0.2 c -3,-4.7 -2.3,-11.3 -6.3,-15.6 h -0.2 c -2.5,-3.1 -6.4,-5.3 -9.7,-7.4 h -0.2 l -5,-3.1 h -0.4 c -0.6,-0.3 -1.1,-0.8 -1.8,-1.1 -1.4,-3.1 -3,-7.6 -4.6,-10.3 -3.1,-7.7 -8.8,-13.9 -14.3,-20 h -0.1 c -0.7,-0.6 -2,-2 -2.7,-2.5 h -0.1 l -0.2,-0.2 h -0.1 a 41.2,41.2 0 0 0 -4.1,-3.2 H 262 l -2.9,-1.8 c -0.7,0.1 -2.3,-1 -3,-1.3 l -2.8,-0.9 c -7,-1.5 -15,-3 -21.7,0.4" />
            <path
               inkscape:connector-curvature="0"
               id="path1432"
               d="m 242,223.3 v -0.2 h -0.2 l 0.3,0.2" />
            <path
               inkscape:connector-curvature="0"
               id="path1434"
               d="m 264.6,139.8 c 1.1,0.9 3.1,2.8 4.1,3.8 h -0.1 c 3.6,4 7.2,8.3 10.8,12.4 4.1,5.7 7.7,11.8 13.2,16.3 1.7,1.7 4,3.5 5.7,5.1 5.5,5.3 6.4,13.8 7.8,19.6 0.6,1.8 -0.3,3.9 1.4,4.7 4.8,0.6 -2.9,-23.4 -5.8,-24.9 -0.6,-0.6 -1.6,-1.7 -2.2,-2.2 -3.7,-2.7 -7,-6.2 -10.4,-9.2 -3.4,-3 -5.4,-7.4 -8.2,-10.9 -5.1,-5.1 -10.4,-10.4 -15.9,-15.2 -0.3,-0.1 -0.8,0.3 -0.4,0.6" />
            <path
               inkscape:connector-curvature="0"
               id="path1436"
               d="m 283.5,166.8 c -0.5,0.5 1.2,1.4 1.5,1.7 l 4,3.7 h 0.1 c 0.5,0.4 1.4,1.5 1.8,1.9 h 0.7 l 0.2,-0.3 v 0 c 1.3,-0.7 0.1,-2.1 -0.5,-2.9 a 4.1,4.1 0 0 0 -1.7,-2 v 0 c -0.5,-0.7 -2.5,-2.9 -3,-1.2 h -0.1 v 0.5 a 4.1,4.1 0 0 0 0.5,0.9 32.2,32.2 0 0 1 -2.8,-2.4 h -0.7" />
            <path
               inkscape:connector-curvature="0"
               id="path1438"
               d="m 273.1,197.9 c -0.2,0.2 -0.6,0.5 -0.6,0.8 l -0.6,1 c -0.3,-0.2 -0.8,0.2 -1.1,0.2 -0.3,0 -3.3,2.7 -1.9,4.3 v 0.2 a 0.7,0.7 0 0 0 -0.1,1 0.8,0.8 0 0 0 0.8,0.2 c 1.3,-0.9 1.7,-2.9 2.5,-4.2 v -0.3 a 3.4,3.4 0 0 1 0.6,-1.2 c 0.1,0.6 -0.2,6.7 0.9,4.8 1.1,-1.9 0.6,-7.4 -0.7,-6.8 h -0.1" />
            <path
               inkscape:connector-curvature="0"
               id="path1440"
               d="m 287.8,175.7 c 2.5,6.9 7,14.1 10.2,20.7 -3.5,-4.8 -8.8,-12 -12.4,-16.7 h -0.1 c -2.4,-0.9 0.7,2.5 1.1,3 4.1,5.3 7.9,11.6 12.1,16.9 0,0.6 0.7,0.9 1.2,1 3.4,-0.9 -3.6,-10.8 -4.4,-13.1 a 116.1,116.1 0 0 0 -6.4,-12.7 1,1 0 0 0 -1.3,0.6 c 0,0.2 -0.1,0.4 0,0.6" />
            <path
               inkscape:connector-curvature="0"
               id="path1442"
               d="m 211.2,184.2 c 0.2,0.9 1.6,0.4 1.3,-0.4 -0.3,-0.8 -1.4,-0.3 -1.3,0.4" />
            <path
               inkscape:connector-curvature="0"
               id="path1444"
               d="m 213.1,189.4 c 4.7,11.5 12,23.2 23.8,28.6 3,1.4 6.5,2.5 9.3,4.3 0.6,0.5 2.8,2.5 3.4,2.9 h 0.1 c 2.3,1.5 3.3,-1.2 2.2,-3 v 0 c 0.9,-7.2 -2.5,-10.2 -8.6,-13 -3,-0.9 -2.9,3.1 -0.3,3.6 a 12.9,12.9 0 0 1 1.6,1.7 1.7,1.7 0 0 0 -1.4,2.1 43.1,43.1 0 0 1 -12.6,-8.5 l -2.6,-2.7 c -1.4,-1 -4,-6 -5.8,-3.2 h -0.1 a 83.1,83.1 0 0 1 -6.3,-9.2 c -0.6,-1.3 -1.2,-2.7 -1.7,-4 -0.5,-1.3 -0.3,-0.3 -0.7,-0.4 -0.4,-0.1 -0.4,0.6 -0.3,0.8 z" />
            <path
               inkscape:connector-curvature="0"
               id="path1446"
               d="m 268.1,206.8 v 0 m -1.6,-1 a 2.7,2.7 0 0 0 -0.1,2.3 c 0.6,2.5 2.7,4.7 4.8,6.1 2.1,1.4 3.7,0.1 5.4,-0.2 1.7,-0.3 1.6,1.7 2.4,2.2 a 4.4,4.4 0 0 0 3,-0.2 c 2.3,-0.7 1.1,-4 -1.2,-3.4 -2.5,-3.7 -5.3,-1.9 -8.8,-1.6 -1.5,-0.9 -3.8,-2.4 -3.8,-4.3 v 0 a 0.8,0.8 0 0 0 -0.3,-1.1 h -0.2 a 0.6,0.6 0 0 0 -0.7,-0.1 l -0.5,0.5" />
            <path
               inkscape:connector-curvature="0"
               id="path1448"
               d="m 248.1,188.3 0.6,2.2 v 0 a 2.2,2.2 0 0 1 0.1,0.8 v 0 c 0.1,0.1 0.3,0.3 0.5,0.2 H 249 l -0.7,0.7 c -0.7,3.6 9.3,-1.6 9,-3.4 0,-0.2 -0.3,-0.4 -0.5,-0.5 -0.2,-0.1 -3.1,1.3 -4.6,1.7 -1.5,0.4 -1.9,0.9 -2.3,0.5 -0.4,-0.4 -0.3,-2.1 -0.9,-2.8 -0.6,-0.7 -0.9,-0.1 -0.9,0.4" />
            <path
               inkscape:connector-curvature="0"
               id="path1450"
               d="m 228.3,178.9 v 0 m 0,-0.1 v 0 m 7.8,-8.6 c -1.7,0.1 -15.5,11.1 -8.6,9.4 a 43.7,43.7 0 0 1 8.2,-6.7 h -0.1 c 0.5,-0.4 1.6,-0.8 2.2,-1.2 0.6,-0.4 0.4,-0.1 0.6,-0.2 a 1.2,1.2 0 0 0 -0.2,-1.8 1.1,1.1 0 0 0 -1.1,-0.3 l -1,0.6" />
            <path
               inkscape:connector-curvature="0"
               id="path1452"
               d="m 248.4,165.7 a 0.7,0.7 0 0 0 -0.5,1 0.7,0.7 0 0 0 0.4,0.5 c 0.5,0.3 3,-1.2 3.5,-1.3 l 2.9,-1 c 1.7,-0.4 4.4,-0.3 6.1,-0.6 a 0.8,0.8 0 0 0 0.6,-1 l -0.2,-0.3 a 23.7,23.7 0 0 0 -12.8,2.7" />
            <path
               style="fill:#571010"
               inkscape:connector-curvature="0"
               id="path1454"
               d="m 253.9,197.7 a 7.6,7.6 0 0 0 3,-2.3 c 2.3,8 -1.3,10.3 -6.1,3 a 15.5,15.5 0 0 0 3.1,-0.7 m 0,-1.9 v 0 m 1.6,-1.2 v 0 m 0.9,-1.1 a 8.4,8.4 0 0 1 -4.5,3.1 c -1,0.3 -4.8,-0.1 -3,1.7 1.8,1.8 4.5,7.3 8.3,6 a 4.8,4.8 0 0 0 2.2,-4.1 c -0.2,-1.3 -0.7,-8.7 -3,-6.9" />
            <path
               style="fill:#571010"
               inkscape:connector-curvature="0"
               id="path1456"
               d="m 256,195.5 -0.2,0.2 c 0,0.2 0,0.3 -0.1,0.4 v 0.3 h -0.1 c -0.6,-0.6 -1.5,0.1 -1.4,0.8 0.1,0.7 -0.9,-0.1 -1,0.4 v 0 a 0.7,0.7 0 0 0 -0.9,-0.3 l -0.4,0.4 h -0.1 c -0.3,-0.5 -0.9,-0.3 -1.1,0.2 v 0 c 0,-0.6 -0.8,-0.4 -0.7,0 l 0.3,1.3 c 0.2,0.2 0.4,0.4 0.7,0.2 v 0 c 0.1,0.8 0.2,2.2 1.3,1.5 h 0.1 c 0,0.2 -0.1,0.5 0.1,0.6 a 0.9,0.9 0 0 0 0.8,0.8 h 0.1 l 0.4,-0.3 v 0.3 c 0.1,0.7 0.5,1.6 1.3,0.9 a 0.5,0.5 0 0 0 0.3,-0.5 h 0.1 c -0.1,0.4 0.3,0.5 0.6,0.6 l 0.5,-0.2 a 1.1,1.1 0 0 0 1.5,-0.3 c 0,-0.1 0.1,-0.1 0.1,-0.2 v -0.3 a 0.4,0.4 0 0 0 0.1,-0.3 c -0.1,-2.2 0,-4.8 -1.2,-6.7 -0.3,-0.2 -0.9,-0.5 -1.1,0.1" />
            <path
               inkscape:connector-curvature="0"
               id="path1458"
               d="m 235.9,178.3 a 10.8,10.8 0 0 0 -5.7,5.8 c -0.2,0.9 -1.2,2.1 -0.2,2.8 1,0.7 1.3,-2.3 2.1,-3.2 0.8,-0.9 3.6,-3.5 5.9,-4.3 h 3.9 c 0.8,-0.3 0.8,-1.7 -0.1,-1.7 -0.9,0 -4.4,-0.1 -5.9,0.6 z" />
            <path
               inkscape:connector-curvature="0"
               id="path1460"
               d="m 235,178.7 c -1.2,0.6 -6.6,7.5 -3.7,7.7 a 0.5,0.5 0 0 0 0.2,-0.4 c 0.1,-0.1 0.1,-0.2 0.1,-0.4 v 0 c 0.6,-2.5 2.5,-4.6 4.5,-6.2 a 6.8,6.8 0 0 1 2.8,-0.7 c 0.8,-0.1 4.6,0.4 3.5,-1.4 -2.3,0 -5.4,-0.2 -7.4,1.3" />
            <path
               inkscape:connector-curvature="0"
               id="path1462"
               d="m 263.3,208.8 c 3.1,10.6 6.6,17.1 10.2,19.6 5.6,3.7 6.6,13.1 15.8,10.3 A 62.8,62.8 0 0 1 308,235.9 L 291.2,205 275.4,199.4 Z" />
          </svg>
        </g>
      </svg>
    </svg>
    <svg
       id="svg1546"
       version="1.1"
       style="overflow:visible"
       height="600"
       width="500">
      <svg
         id="svg1544"
         version="1.1"
         style="overflow:visible"
         height="600"
         width="500"
         viewBox="0 0 500 600">
        <g
           id="g1542">
          <svg
             height="100%"
             width="100%"
             id="svg1540"
             version="1.1"
             viewBox="0 0 496.8 597.6">
            <path
               style="fill:#dc8add;fill-rule:evenodd"
               inkscape:connector-curvature="0"
               id="path1472"
               d="m 238.1,227.3 -31.2,23.4 c -4.3,11.4 -3.1,10.8 -3.4,18.7 -0.3,7.9 5.9,16.3 16.4,25.1 l 14.3,24 c 6.3,21 -3.2,41.3 -10.6,71.9 3.4,2.5 10.6,3.5 21.4,3.1 14.3,0.1 48,1.7 72,-6.7 6.2,-31.6 -18,-54.8 -11.1,-82.6 1,-18.7 3.3,-16.6 18.4,-24.6 -9.1,-35.9 -6.3,-37.1 -31.8,-47 -2.9,-1.6 -17.3,-1.2 -19.7,-8 -3.6,-1.4 -7,4.3 -10,4.7 -3,0.4 -10,-0.4 -24.7,-2 z" />
            <path
               style="fill:#ffffff;fill-rule:evenodd"
               inkscape:connector-curvature="0"
               id="path1474"
               d="m 250.3,273.1 c 42.4,-12.1 43.8,-25.2 49.9,20.6 -0.5,38.4 8.7,39.8 -40.7,49.9 z" />
            <path
               style="fill:#cdab8f;fill-rule:evenodd"
               inkscape:connector-curvature="0"
               id="path1476"
               d="m 247.7,546.2 14.6,1.4 v 24.1 c -6.1,13.2 -48.7,17.3 -14.6,-12.3 v 0 z m 37.5,-5 v 10.5 c 16.6,3.9 25.8,9.1 11.6,15.2 -10.3,0.4 -28.8,-6.2 -30.1,-8.5 -1.3,-2.3 3.6,-5.8 5.3,-5.9 1.7,-0.1 1.8,-3.8 1.7,-11.3 z m 39,-260.3 q 4.5,18.3 3,23.4 c -1.5,5.3 -10.8,4.4 -11.8,7.4 -1,3 -16.1,1.8 -31,6.1 -7.5,2.4 -18.1,13 -30.2,14.1 -22.1,-14.2 -18.3,-15.9 -2.3,-25.7 5.3,-3.6 0.5,3.7 5.7,2.8 7.6,-1.2 20,-6.5 27.6,-8.5 7.6,-2 8.7,0 8.7,-1.7 2.6,-8.7 22.2,-14.1 30.3,-17.9 z m -59.7,-70.2 c 1.3,7.7 2.2,7.5 6,13.7 -5.4,8.9 -15.2,3.6 -26.2,2.4 -6.5,-0.6 2.6,-4.8 1.8,-16.1 6.6,2.2 11.1,3.3 18.4,0 z" />
            <path
               style="fill-rule:evenodd"
               inkscape:connector-curvature="0"
               id="path1478"
               d="m 239,224.9 c -10.5,7.9 6.1,8 16.2,8.8 l 9.1,12.2 c 2,-7.8 3,-12 3,-12.7 0,-0.7 8.9,-8.3 7.4,-8.3 a 7.6,7.6 0 0 1 -3.8,-1.6 c -12.4,8.6 -15.8,5.9 -31.9,1.6 z" />
            <path
               style="fill:#3584e4;fill-rule:evenodd"
               inkscape:connector-curvature="0"
               id="path1480"
               d="m 239,224.9 c -10.5,7.9 6.1,8 16.2,8.8 l 9.1,12.2 c 2,-7.8 3,-12 3,-12.7 0,-0.7 8.9,-8.3 7.4,-8.3 a 7.6,7.6 0 0 1 -3.8,-1.6 c -12.4,8.6 -15.8,5.9 -31.9,1.6 z" />
            <path
               style="fill:#3584e4;fill-rule:evenodd"
               inkscape:connector-curvature="0"
               id="path1482"
               d="m 230,394.4 c 7.6,42.3 8.7,144.4 8.9,145.8 9.1,5.8 35.4,-1.4 49.9,0 13.2,-61.7 13.5,-78.1 23.6,-150.4 z" />
            <path
               inkscape:connector-curvature="0"
               id="path1484"
               d="m 239.7,369.4 c 0.1,-0.1 0.1,-0.2 0.2,-0.4 h -0.1 c 0,0.1 -0.1,0.3 -0.1,0.4" />
            <path
               inkscape:connector-curvature="0"
               id="path1486"
               d="m 239.7,369.4 c 0.1,-0.1 0.1,-0.2 0.2,-0.4 h -0.1 c 0,0.1 -0.1,0.3 -0.1,0.4" />
            <path
               inkscape:connector-curvature="0"
               id="path1488"
               d="m 314.6,379.4 -0.8,1.2 v 0 0.4 a 2.5,2.5 0 0 0 0.9,-1.9 z" />
            <path
               inkscape:connector-curvature="0"
               id="path1490"
               d="m 232.3,384.6 -0.3,0.5 h 0.7 l -0.4,-0.5 v 0" />
            <path
               inkscape:connector-curvature="0"
               id="path1492"
               d="m 314.6,379.4 a 3.8,3.8 0 0 1 -0.9,1.3 v 0 c 0.1,0 0.1,-0.1 0.2,-0.2 0.1,-0.1 -0.1,0.2 -0.2,0.2 v 0.4 a 2.6,2.6 0 0 0 1,-2 v 0.3" />
            <path
               inkscape:connector-curvature="0"
               id="path1494"
               d="m 239.8,577 -0.7,-0.2 c -1.5,-7.1 4.4,-13.7 10.1,-17 1.8,-3.8 -0.7,-9.2 0.8,-13.3 a 83.5,83.5 0 0 0 10,0.3 c 0,2 -0.5,4.6 -0.4,6.6 h -0.3 c 0.2,2.1 -1.2,5 0.3,6.8 a 2.6,2.6 0 0 1 -0.2,2.3 c -1.9,4 -4,8.1 -7.4,10.9 -3.4,2.8 -8,3.6 -12.2,3.1 z m 24.1,-19.6 c 0.1,-3.6 0.3,-7 0.6,-10.7 a 50.5,50.5 0 0 0 6.8,-0.8 33.1,33.1 0 0 1 -1.2,4.2 10.1,10.1 0 0 0 -6.2,8 z m 6.3,-0.9 c -2.8,-4.3 3,-2.2 2.8,-5.6 h 0.1 c 0.7,-2.7 0.7,-6 1.2,-8.7 v 0 c 0.3,-0.7 0.9,-0.7 1.2,-1.4 a 28.9,28.9 0 0 0 7.2,1.6 39,39 0 0 0 -0.4,5.9 h -0.1 a 4.9,4.9 0 0 0 0.1,1.7 v 0 c -1.1,4.5 4.9,2.5 7.4,3.7 a 42.3,42.3 0 0 1 10.1,4.2 c -2.3,1.6 -0.8,5.1 -5.3,5.5 -7.6,0.1 -16.1,-1.1 -22.7,-5.3 a 12.1,12.1 0 0 1 -1.6,-1.6 z m 13.2,-237.4 c 0.4,-1.1 5.3,-1.1 6.1,-1.3 4.6,-0.4 9.9,-1.1 14.4,-1.8 0.5,10.9 3.5,21.5 7.5,31.6 v 0 c 3.6,10.8 8,23.1 5.1,34.4 -2.2,3.3 -7,2.9 -10.5,3.5 -8.9,2.1 -18.5,2.4 -27.6,2.9 a 15.8,15.8 0 0 1 -8.7,-2.6 20.6,20.6 0 0 1 -7.2,2.5 c -7.2,5.2 -26.4,2.8 -34.7,0.2 -3.8,-1.4 1,-9.4 1.7,-12.2 0.7,-2.8 2.2,-5.6 2.7,-8.3 0.1,0 0.1,0 0.1,-0.1 v 0 -0.5 h 0.1 V 367 h 0.1 c 0.4,-1 1,-2.9 1.3,-3.9 v 0 c 1.2,-8.3 1.9,-17.6 3,-26 v 0 a 58.5,58.5 0 0 0 0.4,-5.9 h -0.1 v -0.2 0 a 1.7,1.7 0 0 1 -0.1,-0.7 v 0 a 14.8,14.8 0 0 1 0,-4.2 v 0 c 0,-1.1 -0.4,-3.6 1.5,-3.5 v -0.3 c 0,0.2 0.1,0.2 0.2,0.2 2.1,1.3 4.3,3.6 6.4,4.7 2.1,1.1 4.4,4.1 6.7,5.8 2.3,1.7 3.7,0.4 5.3,0.2 5.9,-0.9 11.4,-4.3 15.5,-8.5 a 2.8,2.8 0 0 1 1.8,-0.4 l 5.1,-3.8 c 1.2,-0.7 2.8,-0.4 3.9,-1.4 z m -29.3,-12.9 c -0.2,-0.4 -0.5,-0.7 -0.8,-0.7 -0.3,0 1.2,-0.5 1.7,-0.6 0.5,-0.1 -0.8,0.9 -0.9,1.3 z m -0.7,8.4 c 7.5,-4.7 16.4,-7.1 24.8,-9.8 3.9,-1.6 9.6,-2 13,-4.2 0.6,0.1 1.2,-0.4 1.6,-0.5 a 19.4,19.4 0 0 0 3.8,-3.6 l 5.4,-3.8 a 15.9,15.9 0 0 1 7.5,0 24.1,24.1 0 0 1 0.7,3.7 c -0.8,-0.1 -2.2,0.4 -3,0.3 a 4.9,4.9 0 0 0 -3.8,1.8 c -1.1,1.4 -0.4,0.8 -0.6,1 a 6,6 0 0 1 -2.1,1.8 28.8,28.8 0 0 1 -5.4,4.4 c -0.9,-0.2 -2.5,1.3 -3.3,1.7 -0.8,0.4 -4.5,3.3 -6.2,4.5 -4.2,3.1 -8.6,6.3 -13,9.1 -4.4,2.8 -7.8,5.2 -12.1,6.3 -1.6,0.5 -3.6,1.1 -5.1,1.7 a 1.3,1.3 0 0 1 -2,0 v 0 c -1.8,-0.5 -4,-3 -5.4,-4.1 a 101,101 0 0 0 -9.9,-7.3 96.2,96.2 0 0 1 13.2,-12.3 c 0.1,1.1 1.3,2.4 2,3.2 -1.5,1 -5,2.9 -1.9,4.7 0.7,-0.1 1.4,0.9 1.8,1.4 z m 59.8,-18.7 c -0.3,-2.3 -0.7,-4.2 -1.2,-6.5 h -0.1 c 0,-0.2 0,-0.3 -0.1,-0.4 a 6.6,6.6 0 0 0 2.8,-0.4 c 3,-1.4 6.2,-1.9 9.1,-3.5 a 8,8 0 0 0 0.9,3 32.3,32.3 0 0 1 2.1,10.7 v 0 c 0,0.4 0.1,0.7 0.1,1 v 0 c 0,4.9 -4.2,7.9 -8.3,9.9 -4.1,2 -5.5,2.1 -8.3,3 l -4.3,0.8 a 176.7,176.7 0 0 1 -19.1,3.1 c 1.8,-0.8 6,-4.4 7.8,-5.5 1.8,-1.1 4.1,-2.4 4.9,-4.5 a 12.4,12.4 0 0 0 5.3,-6.2 6.9,6.9 0 0 0 1.7,-1.7 c 1.6,0.1 3.8,-0.9 5.2,-0.1 1.4,0.8 0.7,-0.3 1,-0.6 h 1.1 c 1.3,-0.5 0.5,-2 -0.7,-1.6 z m -47.7,-47.3 c 0.7,-3.7 0.8,-7.7 1.6,-11.5 0.2,0.1 0.5,-1.1 0.7,-1 1.4,-3 5.4,-4.7 7.1,-7.4 6.7,3.3 15.1,3.7 22.1,6.1 4.7,2.1 9.8,4.7 12.9,9 7.3,10.2 10.8,23.6 12,36.3 -0.2,0.1 -0.7,0.3 -0.9,0.2 a 38,38 0 0 0 -4.9,3.1 c -2.1,1.5 -4.6,1 -6.6,2.7 a 33.2,33.2 0 0 0 0.6,-4.4 c 0.1,0.2 0.3,0.3 0.4,0.4 0,-1.4 0.4,-2.3 0,-4.2 -1.7,-3.5 -1.1,-8.9 -2,-13.1 -0.4,0.1 -0.5,-0.8 -0.7,-1.1 -2.2,1 0.2,9.3 -0.3,11.8 a 117.4,117.4 0 0 1 -1.3,13.3 c -3.7,-0.1 -6.8,2.3 -9.6,4.4 -2.8,2.1 -6,4.1 -8.1,5.7 -2.1,1.6 -7.8,1.5 -11.4,2.3 V 301 c -0.3,-0.2 -2.7,0.7 -3.1,0.8 h 0.3 c -1,0.6 -2.5,0.8 -3.5,1.4 a 5,5 0 0 1 -2.9,0.7 104.4,104.4 0 0 0 -12.1,4.7 6.4,6.4 0 0 1 -1,-1.3 c 2.4,-1.5 2.8,-5.2 -1,-4.5 a 3.3,3.3 0 0 0 -0.6,-1.9 c -2.6,-5.1 -7.1,-9 -10.7,-13.3 -1.2,-2.5 -2.7,-5.1 -3.7,-7.6 v 0 c -0.1,-0.1 -0.1,-0.3 -0.2,-0.5 v 0 c -1.5,-5.1 -2.6,-10.3 -4.2,-15.5 -0.8,-2.2 -2.4,-6.1 -3.2,-8.3 -0.8,-2.2 -2.2,-0.5 -1.6,0.7 a 178.3,178.3 0 0 1 6.4,19.1 c -0.5,-1 -12.9,-20 -12.3,-14.8 8.2,8.4 12.5,19.4 18,29.6 1.5,2.1 4.2,3.8 5.3,6 1.1,2.2 3.5,4.8 4.5,7.1 -6.6,3.8 -12.5,9.8 -17.3,15.7 a 258.2,258.2 0 0 0 -17.4,-28.5 c -4.2,-6.2 -9.2,-11.9 -11.8,-18.8 a 16.6,16.6 0 0 1 -1.6,-6.9 v 0 -3.1 h 0.1 c 0.8,-11.8 12.8,-17.7 21.6,-23.5 a 40.9,40.9 0 0 1 6.4,-4.5 31.4,31.4 0 0 1 4.8,-3.3 c 0.7,3.8 5.7,3.8 8.7,4.4 h 9.9 c 1.3,0.7 2,2.2 2.8,3.4 0.8,1.2 1.6,2.3 2.1,3.2 0.5,0.9 0.4,1 0.6,0.9 0.2,-0.1 0.3,0.8 0.3,1.2 v 0 l 0.2,0.5 v -0.4 c 0.8,1.1 1.9,4.1 3.3,4.5 a 0.8,0.8 0 0 0 1,0.6 z m -3.3,-18.1 c 2.6,-0.3 5.2,-2.2 7.4,-3.4 0.5,-0.2 1,-1.1 1.6,-0.9 0.6,0.2 1.3,0.5 1.1,1.1 v 0 c 0.5,1.4 -1.4,2.4 -2.3,3.1 -3.2,2.3 -6.3,4.3 -6.3,8.7 h -0.1 a 10.2,10.2 0 0 1 -0.6,2.5 c -1.7,-2.5 -3.1,-5.5 -5.2,-7.7 -4.3,-3.3 -15.8,1.1 -19.9,-3.3 -0.3,-1.1 0,-2.9 1.1,-3.5 1.1,-0.6 0.9,0.5 1.5,0.7 l 3.9,1.1 a 117.9,117.9 0 0 0 17.8,0.8 z m -16.5,-18.2 c 0,0.3 0.1,0.5 0.1,0.7 0,0.2 -0.5,0.3 -0.5,0.6 0.1,2.1 0,4.6 -0.9,6.3 a 7.9,7.9 0 0 1 -2.4,4.6 c -0.1,1 -1.4,-0.2 -1.8,-0.3 a 3.2,3.2 0 0 0 -2.7,0.7 4.5,4.5 0 0 0 -1.6,3.8 c -2.5,1.5 -5.3,3.9 -7.8,5.5 -10.2,7.5 -25.8,13.4 -26.1,28.2 v 0 a 20.9,20.9 0 0 0 -0.1,2.5 v 0 a 14.8,14.8 0 0 0 0.1,2.1 v 0 c 1.3,7.5 6.1,13.5 10.2,19.7 6.9,10.4 13.8,20.9 19.5,31.9 1.1,1.3 1.8,4.8 4.1,3.1 2.3,-1.7 0.1,1.2 0.2,2.4 l -0.6,12.2 v 0 c -0.1,17.1 -6.7,32.6 -11.2,48.7 v 0 c -2.3,10.2 18.5,9.1 24.7,8.7 3.8,-0.5 10,-1.1 13.5,-2.6 1,-0.1 2.4,-1 3.4,-0.9 1,0.1 2.6,-1.1 3.1,0.4 h 0.1 c 0,-0.4 -0.1,-0.8 -0.1,-1.1 13.3,5.1 29,1.7 42.8,0.3 -6,26.2 -7.3,54.1 -10.9,80.9 -2.9,21.4 -7.7,42.1 -11.2,63.3 0.2,3.2 -2.7,2.8 -5,2.8 a 76.7,76.7 0 0 0 -8.3,-0.2 c 0.5,-10.9 1.1,-22.4 1.7,-33.6 v 0 c 2.5,-29.9 0,-61.3 3.6,-91.1 -5.7,-10.4 -5.4,26.5 -5.5,28.9 -0.5,25.6 -2.1,52 -3.5,77.4 -1.2,7.3 1.3,15.7 -2.5,21.4 -2.5,0.2 -6.6,0.6 -9.1,0.6 -5.1,-0.5 -15.7,1.1 -20.4,-1.1 0.4,-1.2 1.5,-2.8 0.1,-3.7 v 0 c -1.3,-31.2 -1.6,-62 -3.2,-93.1 v 0.6 c -0.3,-4.2 -0.7,-8.6 -1.2,-12.7 v 0 c -1.1,-2.2 -2.9,-43 -6.2,-35 v 0 c 5.3,47.1 5.3,94.5 6.7,141.8 v 0 a 2.3,2.3 0 0 0 0.4,1.6 c -2.5,3.8 3,6.7 6.2,6.9 0.7,3.6 0.5,7.6 1.2,11 -7.8,6.5 -14.4,15.3 -15.9,25.6 0.4,9.2 13.4,6.9 19.1,4.1 8,-3.9 17,-9.7 19.7,-18.7 42.2,20.3 59.6,-10.1 18.7,-17.1 0.5,-2.5 0.6,-5.2 0.9,-7.8 4.8,0.1 5.5,-2.1 5.9,-6.1 h 0.1 c 0,-1.2 0.5,-3 0.5,-4.2 l -0.2,0.5 c 4.2,-24.1 9,-45.8 11.4,-69.9 h 0.1 c 3,-22.7 3.8,-46.3 8.2,-68.7 0.6,-2.6 0.1,-3.3 3.1,-3.9 10.4,-9.8 4,-29.5 0.4,-41.8 v 0 c -2.4,-9.6 -7.6,-17.9 -8.9,-27.5 -0.1,-1 -0.1,-3.6 -0.8,-4.3 v 0 -0.9 c 6.4,-1.8 23.7,-5.4 22.8,-13.9 v 0 c 0.7,-6.1 -1.6,-12.6 -4,-18.2 1.9,-1.4 0.3,-6.9 0,-9.1 h -0.1 c -1,-4.2 -2.4,-7.7 -3,-11.6 v 0 a 0.8,0.8 0 0 1 -0.4,-0.6 h -0.1 c -1,-4.1 -3.2,-8.2 -4.6,-12.2 a 54,54 0 0 1 -5.2,-8.2 v 0.3 c -3.9,-4.8 -9.7,-7.6 -15.3,-9.9 -7.3,-0.5 -15,-1.6 -21.7,-4.7 -0.1,-2.1 -2.1,-3.9 -4.1,-3 -0.3,-0.2 -0.7,-0.7 -1,-0.8 v -0.2 c -0.3,0 -0.5,-0.5 -0.7,-0.6 -0.2,-0.1 -0.6,-0.3 -0.5,-0.5 -1.8,-1.5 -1.5,-4.4 -1.7,-6.5 -2.7,-0.4 0.1,7.4 1.4,8.5 l 0.6,-0.3 a 0.6,0.6 0 0 0 -0.2,0.7 c -2.3,0.8 -4.5,2.8 -7.1,3.4 -6.2,0 -13.1,-0.3 -19.1,-2 1.9,-1.7 2.3,-4.3 2.7,-6.6 h 0.1 c 0,-0.2 0.2,-0.4 0.1,-0.6 h 0.1 c 0,-1.8 1.4,-4.9 0,-6.2 a 1.9,1.9 0 0 0 -0.2,-0.7 z" />
            <path
               inkscape:connector-curvature="0"
               id="path1496"
               d="m 265.3,250.7 c -0.4,0.1 -0.9,0.5 -0.7,0.9 v 0 c 0.8,6.2 3.3,11.8 5.5,17.6 l 2.7,-0.8 c -1.6,-4.1 -5,-8.1 -5.3,-12.7 -0.8,-1.5 0.1,-5.3 -2.2,-5.2" />
            <path
               inkscape:connector-curvature="0"
               id="path1498"
               d="m 276.6,282.7 0.7,-0.2 c 0,-0.1 0,-0.1 -0.1,-0.2 l -0.6,0.4" />
            <path
               inkscape:connector-curvature="0"
               id="path1500"
               d="m 312.8,265.1 c 0.4,-0.4 -0.2,-0.8 -0.2,-1.3 a 6.8,6.8 0 0 1 0.2,1.4" />
            <path
               inkscape:connector-curvature="0"
               id="path1502"
               d="m 293.2,248.3 0.2,0.5 h 0.4 a 2.2,2.2 0 0 0 -0.9,-1.2 c 0.1,0.3 0.3,0.5 0.3,0.7" />
            <path
               inkscape:connector-curvature="0"
               id="path1504"
               d="m 288.8,258 0.3,1.1 c -0.2,-1 -0.3,-2.1 -0.4,-3.1 a 6.7,6.7 0 0 0 0.1,2" />
            <path
               inkscape:connector-curvature="0"
               id="path1506"
               d="m 295.7,265.4 c 0.1,0.4 0.3,2.4 0.4,2.8 h 0.1 c -0.2,-1.1 -0.3,-2.3 -0.5,-3.4 v 0.5" />
            <path
               inkscape:connector-curvature="0"
               id="path1508"
               d="m 272.3,387.8 c -1.9,0.1 -4,0.6 -6,0.7 h -0.1 c -0.1,-1 -2.1,0.1 -2.5,0.1 -2.6,0.4 -8.1,0.7 -10.8,1.1 -6.2,0.9 -14.7,0.2 -20.8,0.9 -5.7,7.2 16.3,4.7 19.9,4.9 3.6,0.2 25.4,-0.1 22.4,-6.2 a 2.3,2.3 0 0 0 -2.1,-1.3" />
            <path
               inkscape:connector-curvature="0"
               id="path1510"
               d="m 277.5,320.9 a 2,2 0 0 0 -2,2.2 v 0.2 a 27.3,27.3 0 0 0 3,-2.1 1.7,1.7 0 0 0 -1,-0.3 z" />
            <path
               inkscape:connector-curvature="0"
               id="path1512"
               d="m 277.7,379.5 a 0.4,0.4 0 0 0 -0.1,0.3 0.4,0.4 0 0 1 0.1,-0.3 m 0.7,-42.1 -1.2,0.3 c -0.5,16.2 0.5,33.6 -6,48.4 -3.2,4.8 4.6,5.4 4.9,0.4 a 165.7,165.7 0 0 0 4.3,-50.1 l -2,0.8" />
            <path
               inkscape:connector-curvature="0"
               id="path1514"
               d="m 249.6,273.1 c -1.5,0.4 -1,2 -0.8,3.1 0.6,5.8 1.8,14.2 2.5,19.8 0.9,2.4 -1,17.4 3.8,11.8 h 0.1 c -0.3,-11.1 -2.6,-22.6 -3.9,-33.7 -0.1,-0.8 -1.1,-1 -1.7,-1" />
            <path
               inkscape:connector-curvature="0"
               id="path1516"
               d="m 282.6,263.8 c -10.5,1.8 -21.3,5.1 -31.4,8.6 -4.2,5.1 6.9,0.3 8.1,0 8.6,-2.4 17.5,-5.4 26.4,-5.5 1.9,1.1 2.5,3.9 3.2,5.9 2.8,4.4 -2.2,27.5 3.9,25.2 2.7,-4.7 0.4,-11.9 0.8,-17.3 0.4,-5.4 -2,-18.2 -11,-16.9" />
            <path
               inkscape:connector-curvature="0"
               id="path1518"
               d="m 292.7,315.7 c -1.9,5.4 1.1,14.4 -4.2,18.8 -4.1,1.1 -8.9,2.9 -13.1,3.8 -4.2,0.9 -10.5,2.7 -15.4,3.9 -0.2,-0.9 0.7,-16.8 -2.4,-12 0.3,4.3 0.4,8.9 0.5,13.2 0.5,1.9 3.3,1.1 4.6,0.7 5.6,-2.3 27.9,-5 29.6,-9.4 1.8,-2.2 5.6,-20.6 0.4,-18.9" />
            <path
               inkscape:connector-curvature="0"
               id="path1520"
               d="m 287.3,260.5 c -8.9,0.9 -18.1,4.5 -26.8,6.7 -1.5,0.7 -14.2,5.4 -9.5,6.7 a 46.3,46.3 0 0 1 14.8,-6.3 c 26.6,-7.5 29.8,-9.6 30.9,20.5 0.1,1.7 -0.9,7.5 2.4,5 3.3,-2.5 0.5,-8.1 0.6,-11.3 -0.7,-7.9 -1.6,-21.8 -12.4,-21.2" />
            <path
               inkscape:connector-curvature="0"
               id="path1522"
               d="m 297.1,317.4 c -0.6,11.6 3.8,12 -8.6,16.4 h 0.3 c -7.9,3.3 -16.7,5.3 -24.9,7.4 -4.5,7.1 24.8,-5.1 26.8,-5.8 2,-0.7 6.3,-2.3 8.1,-4.5 1.8,-2.2 1.3,-19.7 -1.7,-13.6" />
            <path
               inkscape:connector-curvature="0"
               id="path1524"
               d="m 298.2,315.9 c -1.1,0.9 -0.6,1.9 -0.4,3.1 a 51.6,51.6 0 0 1 -0.5,11.1 c -5.3,5.8 -14.9,6.9 -22.1,9.1 l -10.6,2.5 a 2,2 0 0 0 -2,0.1 c -2.9,0.9 -0.5,2.2 1.3,1.5 7,-1.2 15.2,-3 22.2,-4.8 a 31.7,31.7 0 0 0 12.1,-4.8 c 3.6,-0.8 5.3,-20.5 0,-17.8" />
            <path
               inkscape:connector-curvature="0"
               id="path1526"
               d="m 274.4,277.2 c -0.9,0.3 -19,5.1 -14,6.1 4.3,-1.4 10.4,-4.2 14.8,-4.7 0.1,2.7 3.7,-1.6 -0.8,-1.3" />
            <path
               inkscape:connector-curvature="0"
               id="path1528"
               d="m 276.2,281.7 a 32.9,32.9 0 0 0 -6,1.5 c -0.9,0.5 -9.7,2 -5.4,3.7 l 10.4,-3.2 c 1.5,1.2 4,-2.3 1,-2" />
            <path
               inkscape:connector-curvature="0"
               id="path1530"
               d="m 275,286.5 a 61.1,61.1 0 0 0 -8.5,1.8 v 0 c -1.2,-1.3 -2.9,1.8 0.3,1.2 l 8.6,-1.7 a 0.72801099,0.72801099 0 0 0 -0.4,-1.4 v 0" />
            <path
               inkscape:connector-curvature="0"
               id="path1532"
               d="m 284.3,326.2 a 26.7,26.7 0 0 0 -5.7,1.6 c -0.7,0.6 -6.6,1.2 -6,2.8 0.6,1.6 6,-1.1 7.2,-1.2 0,1.5 1.9,0.2 2.5,-0.1 0.6,-0.3 4.5,-2.2 2,-3.2" />
            <path
               inkscape:connector-curvature="0"
               id="path1534"
               d="m 283.3,330.1 c -2.8,0.8 -6.7,1.5 -9.4,2.4 -1.7,2.6 4.6,0.2 5.6,0.2 1,0 7.7,-1.3 3.8,-2.7" />
            <path
               inkscape:connector-curvature="0"
               id="path1536"
               d="m 292,276 v 0 m -2.9,-11.2 c -8.4,0.9 -17.1,3 -25.3,5.1 -0.9,0.6 -14.6,3.2 -11.3,4.6 a 205.9,205.9 0 0 1 31,-7.5 h -0.2 c 2.2,-0.2 4.6,-0.4 6.8,-0.4 a 76.7,76.7 0 0 1 2.4,15.1 c 0.5,28.6 5.1,9.9 2.1,-4.4 -1,-3.3 -0.8,-12.5 -5.5,-12.5" />
            <path
               inkscape:connector-curvature="0"
               id="path1538"
               d="m 293.6,316.5 c -0.9,4.5 1.1,10.1 0.3,14.8 l -0.3,0.2 c -0.5,-1.1 -2.2,-0.7 -2.5,0.4 -2.2,6.5 4.2,3.4 5.6,0 0.4,-1 0,-3 -0.1,-4.1 -0.1,-1.1 0.8,-12.6 -3,-11.3" />
          </svg>
        </g>
      </svg>
    </svg>
  </g>
</svg>
