<!DOCTYPE svg PUBLIC "-//W3C//DTD SVG 1.1//EN" "http://www.w3.org/Graphics/SVG/1.1/DTD/svg11.dtd">
<!-- Uploaded to: SVG Repo, www.svgrepo.com, Transformed by: SVG Repo Mixer Tools -->
<svg width="800px" height="800px" viewBox="0 0 24 24" fill="none" xmlns="http://www.w3.org/2000/svg">
<g id="SVGRepo_bgCarrier" stroke-width="0"/>
<g id="SVGRepo_tracerCarrier" stroke-linecap="round" stroke-linejoin="round"/>
<g id="SVGRepo_iconCarrier"> <path d="M4 10L3.29289 10.7071L2.58579 10L3.29289 9.29289L4 10ZM21 18C21 18.5523 20.5523 19 20 19C19.4477 19 19 18.5523 19 18L21 18ZM8.29289 15.7071L3.29289 10.7071L4.70711 9.29289L9.70711 14.2929L8.29289 15.7071ZM3.29289 9.29289L8.29289 4.29289L9.70711 5.70711L4.70711 10.7071L3.29289 9.29289ZM4 9L14 9L14 11L4 11L4 9ZM21 16L21 18L19 18L19 16L21 16ZM14 9C17.866 9 21 12.134 21 16L19 16C19 13.2386 16.7614 11 14 11L14 9Z" fill="#1a5fb4"/> </g>
</svg>