<?xml version="1.0" encoding="UTF-8" standalone="no"?>
<!-- Uploaded to: SVG Repo, www.svgrepo.com, Generator: SVG Repo Mixer Tools -->

<svg
   xmlns:dc="http://purl.org/dc/elements/1.1/"
   xmlns:cc="http://creativecommons.org/ns#"
   xmlns:rdf="http://www.w3.org/1999/02/22-rdf-syntax-ns#"
   xmlns:svg="http://www.w3.org/2000/svg"
   xmlns="http://www.w3.org/2000/svg"
   xmlns:sodipodi="http://sodipodi.sourceforge.net/DTD/sodipodi-0.dtd"
   xmlns:inkscape="http://www.inkscape.org/namespaces/inkscape"
   fill="#000000"
   height="800px"
   width="800px"
   version="1.1"
   id="Capa_1"
   viewBox="0 0 489.8 489.8"
   xml:space="preserve"
   sodipodi:docname="bulle01.svg"
   inkscape:version="0.92.5 (2060ec1f9f, 2020-04-08)"><metadata
   id="metadata15"><rdf:RDF><cc:Work
       rdf:about=""><dc:format>image/svg+xml</dc:format><dc:type
         rdf:resource="http://purl.org/dc/dcmitype/StillImage" /></cc:Work></rdf:RDF></metadata><defs
   id="defs13" /><sodipodi:namedview
   pagecolor="#ffffff"
   bordercolor="#666666"
   borderopacity="1"
   objecttolerance="10"
   gridtolerance="10"
   guidetolerance="10"
   inkscape:pageopacity="0"
   inkscape:pageshadow="2"
   inkscape:window-width="1398"
   inkscape:window-height="851"
   id="namedview11"
   showgrid="false"
   inkscape:zoom="0.59"
   inkscape:cx="338.83043"
   inkscape:cy="357.95381"
   inkscape:window-x="42"
   inkscape:window-y="25"
   inkscape:window-maximized="1"
   inkscape:current-layer="Capa_1" />
<path
   style="opacity:1;vector-effect:none;fill:#ffffff;fill-opacity:1;stroke:#040404;stroke-width:16.94915199;stroke-linecap:round;stroke-linejoin:round;stroke-miterlimit:4;stroke-dasharray:none;stroke-dashoffset:0;stroke-opacity:1"
   d="M 394.86095,77.216631 C 254.32862,77.906203 109.05599,156.65656 53.07071,289.35911 10.454427,386.14767 29.909265,504.05678 96.780986,585.09532 c 9.838984,11.54654 23.485594,26.28834 10.719014,41.20766 -9.321549,24.84207 -30.877942,42.44397 -42.948888,64.83051 8.613878,18.2142 33.284454,4.1061 49.254908,5.11773 28.37561,-2.97942 54.58755,-14.91251 80.07507,-26.96627 97.02222,52.65607 214.08772,69.35969 320.55749,37.54634 C 634.56281,673.83478 741.24837,576.76475 764.6438,451.50159 787.58675,340.46713 732.92888,224.20121 643.87447,157.73835 573.27637,103.4702 483.56824,76.117398 394.86095,77.216631 Z m 6.55458,198.735429 c 11.08986,2.02805 3.66657,21.36499 7.01139,29.78682 2.7384,26.76177 -2.65594,55.14893 4.68088,80.82627 35.27681,7.10476 72.96671,3.09721 109.16312,5.9653 10.99447,11.77001 -7.13716,20.01095 -18.00184,15.77728 -29.55162,1.92201 -60.65484,-3.89664 -89.21477,2.97272 -8.60468,35.33192 0.61535,74.3903 -7.68672,109.97087 -5.91339,10.7199 -19.69376,1.39329 -15.89647,-8.90491 -2.69149,-32.42133 3.54854,-66.33939 -3.42953,-97.76881 -35.31705,-8.80079 -74.83965,3.55972 -110.01722,-7.91844 -7.76066,-12.68418 6.4937,-15.40155 17.13453,-14.0956 30.15486,-3.68511 62.08091,1.3814 91.49893,-6.44862 7.26414,-35.39309 0.41122,-73.67535 6.88559,-109.48756 2.5579,-0.68215 5.23841,-0.81593 7.87211,-0.67532 z"
   id="path825"
   inkscape:connector-curvature="0"
   transform="scale(0.61225)" /><g
   id="g8">
	<g
   id="g6">
		<path
   d="M118.6,430.1c38.1,20.3,81.6,31,126.3,31c135.1,0,244.9-97,244.9-216.2S380,28.7,244.9,28.7S0,125.7,0,244.9    c0,47.1,17.6,93.2,49.7,130.6C43,390.3,33.2,402,20.4,410.3c-6.6,4.3-9.8,12.1-8.1,19.8c1.7,7.6,7.8,13.2,15.5,14.3    c7.7,1.1,15.6,1.6,23.3,1.6C76.1,446,98.6,440.7,118.6,430.1z M75.4,377.3c1.6-4.3,0.6-9.2-2.5-12.6    C41.2,330.4,24.5,289,24.5,244.9c0-105.7,98.9-191.7,220.4-191.7s220.4,86,220.4,191.7s-98.9,191.7-220.4,191.7    c-42.9,0-84.5-10.8-120.3-31.2c-1.9-1.1-4-1.6-6.1-1.6c-2.2,0-4.4,0.6-6.3,1.7c-17.5,10.5-38,15.9-60.9,15.9c-1.7,0-3.4,0-5.1-0.1    C59,409.8,68.9,395.1,75.4,377.3z"
   id="path2" />
		<path
   d="M173.9,257.2h58.8v58.7c0,6.8,5.5,12.3,12.3,12.3c6.8,0,12.3-5.5,12.3-12.3v-58.8h58.6c6.8,0,12.3-5.5,12.3-12.3    s-5.5-12.3-12.3-12.3h-58.8v-58.6c0-6.8-5.5-12.3-12.3-12.3s-12.3,5.5-12.3,12.3v58.8h-58.6c-6.8,0-12.3,5.5-12.3,12.3    C161.6,251.8,167.1,257.2,173.9,257.2z"
   id="path4" />
	</g>
</g>
</svg>