<?xml version="1.0" encoding="UTF-8" standalone="no"?>
<!-- Uploaded to: SVG Repo, www.svgrepo.com, Generator: SVG Repo Mixer Tools -->

<svg
   xmlns:dc="http://purl.org/dc/elements/1.1/"
   xmlns:cc="http://creativecommons.org/ns#"
   xmlns:rdf="http://www.w3.org/1999/02/22-rdf-syntax-ns#"
   xmlns:svg="http://www.w3.org/2000/svg"
   xmlns="http://www.w3.org/2000/svg"
   xmlns:sodipodi="http://sodipodi.sourceforge.net/DTD/sodipodi-0.dtd"
   xmlns:inkscape="http://www.inkscape.org/namespaces/inkscape"
   fill="#000000"
   height="800px"
   width="800px"
   version="1.1"
   id="Capa_1"
   viewBox="0 0 489.8 489.8"
   xml:space="preserve"
   sodipodi:docname="bulle04.svg"
   inkscape:version="0.92.5 (2060ec1f9f, 2020-04-08)"><metadata
   id="metadata15"><rdf:RDF><cc:Work
       rdf:about=""><dc:format>image/svg+xml</dc:format><dc:type
         rdf:resource="http://purl.org/dc/dcmitype/StillImage" /><dc:title /></cc:Work></rdf:RDF></metadata><defs
   id="defs13" /><sodipodi:namedview
   pagecolor="#ffffff"
   bordercolor="#666666"
   borderopacity="1"
   objecttolerance="10"
   gridtolerance="10"
   guidetolerance="10"
   inkscape:pageopacity="0"
   inkscape:pageshadow="2"
   inkscape:window-width="1638"
   inkscape:window-height="1001"
   id="namedview11"
   showgrid="false"
   inkscape:zoom="0.295"
   inkscape:cx="655.49293"
   inkscape:cy="680.07603"
   inkscape:window-x="42"
   inkscape:window-y="25"
   inkscape:window-maximized="1"
   inkscape:current-layer="Capa_1" />

<path
   style="fill:#ffffff;stroke:#000000;stroke-width:12.245;stroke-linecap:butt;stroke-linejoin:miter;stroke-opacity:1;stroke-miterlimit:4;stroke-dasharray:none;fill-opacity:1"
   d="M 68.488985,184.71271 47.734746,53.961017 122.45,141.12881 159.80763,33.20678 l 53.96101,83.01695 159.80763,-95.469493 4.15085,103.771183 89.24322,6.22627 -45.65933,85.09238 51.8856,103.77119 -105.84661,-2.07543 -6.22627,99.62034 -107.92204,-76.79068 29.05594,78.8661 L 35.282204,481.49831 205.46695,400.55678 143.20424,323.7661 49.810169,377.72712 45.659322,269.80509 105.84661,242.82458 Z"
   id="path814"
   inkscape:connector-curvature="0" /><path
   style="fill:#000000;stroke-width:1"
   d="m 179.08856,229.18177 h 58.8 v 58.7 c 0,6.8 5.5,12.3 12.3,12.3 6.8,0 12.3,-5.5 12.3,-12.3 v -58.8 h 58.6 c 6.8,0 12.3,-5.5 12.3,-12.3 0,-6.8 -5.5,-12.3 -12.3,-12.3 h -58.8 v -58.6 c 0,-6.8 -5.5,-12.3 -12.3,-12.3 -6.8,0 -12.3,5.5 -12.3,12.3 v 58.8 h -58.6 c -6.8,0 -12.3,5.5 -12.3,12.3 0,6.8 5.5,12.2 12.3,12.2 z"
   id="path4"
   inkscape:connector-curvature="0" /></svg>