<?xml version="1.0" encoding="UTF-8" standalone="no"?>
<!-- Uploaded to: SVG Repo, www.svgrepo.com, Generator: SVG Repo Mixer Tools -->

<svg
   xmlns:dc="http://purl.org/dc/elements/1.1/"
   xmlns:cc="http://creativecommons.org/ns#"
   xmlns:rdf="http://www.w3.org/1999/02/22-rdf-syntax-ns#"
   xmlns:svg="http://www.w3.org/2000/svg"
   xmlns="http://www.w3.org/2000/svg"
   xmlns:sodipodi="http://sodipodi.sourceforge.net/DTD/sodipodi-0.dtd"
   xmlns:inkscape="http://www.inkscape.org/namespaces/inkscape"
   width="535.5033"
   height="1481.4888"
   viewBox="0 0 16.065099 44.444664"
   version="1.1"
   id="svg10"
   sodipodi:docname="cadenas.svg"
   style="fill:none"
   inkscape:version="0.92.5 (2060ec1f9f, 2020-04-08)">
  <metadata
     id="metadata16">
    <rdf:RDF>
      <cc:Work
         rdf:about="">
        <dc:format>image/svg+xml</dc:format>
        <dc:type
           rdf:resource="http://purl.org/dc/dcmitype/StillImage" />
        <dc:title></dc:title>
      </cc:Work>
    </rdf:RDF>
  </metadata>
  <defs
     id="defs14" />
  <sodipodi:namedview
     pagecolor="#ffffff"
     bordercolor="#666666"
     borderopacity="1"
     objecttolerance="10"
     gridtolerance="10"
     guidetolerance="10"
     inkscape:pageopacity="0"
     inkscape:pageshadow="2"
     inkscape:window-width="1878"
     inkscape:window-height="1031"
     id="namedview12"
     showgrid="false"
     fit-margin-top="0"
     fit-margin-left="0"
     fit-margin-right="0"
     fit-margin-bottom="0"
     inkscape:zoom="0.417193"
     inkscape:cx="167.89002"
     inkscape:cy="707.51567"
     inkscape:window-x="42"
     inkscape:window-y="25"
     inkscape:window-maximized="1"
     inkscape:current-layer="svg10" />
  <g
     id="g831"
     transform="translate(0,-1.1111134)">
    <g
       transform="translate(0.06490154,24.444562)"
       id="g841">
      <path
         d="m 11.000099,6.9999999 c 1.8856,0 2.8284,0 3.4142,0.58579 0.5858,0.58581 0.5858,1.52861 0.5858,3.4142101 v 2 2 c 0,1.8856 0,2.8284 -0.5858,3.4142 C 13.828499,19 12.885699,19 11.000099,19 h -3.0000005 -3 c -1.88562,0 -2.82843,0 -3.41421,-0.5858 -0.58579,-0.5858 -0.58579,-1.5286 -0.58579,-3.4142 v -2 -2 c 0,-1.8856001 0,-2.8284001 0.58579,-3.4142101 0.58578,-0.58579 1.52859,-0.58579 3.41421,-0.58579 h 3 z"
         id="path2"
         inkscape:connector-curvature="0"
         style="opacity:0.1;fill:#323232" />
      <path
         d="m 9.0000985,13 c 0,0.5523 -0.4477,1 -1,1 -0.5523,0 -1,-0.4477 -1,-1 0,-0.5523 0.4477,-1 1,-1 0.5523,0 1,0.4477 1,1 z"
         id="path4"
         inkscape:connector-curvature="0"
         style="stroke:#323232;stroke-width:2" />
      <path
         d="m 11.000099,6.9999999 c 1.8856,0 2.8284,0 3.4142,0.58579 0.5858,0.58581 0.5858,1.52861 0.5858,3.4142101 v 2 2 c 0,1.8856 0,2.8284 -0.5858,3.4142 C 13.828499,19 12.885699,19 11.000099,19 h -3.0000005 -3 c -1.88562,0 -2.82843,0 -3.41421,-0.5858 -0.58579,-0.5858 -0.58579,-1.5286 -0.58579,-3.4142 v -2 -2 c 0,-1.8856001 0,-2.8284001 0.58579,-3.4142101 0.58578,-0.58579 1.52859,-0.58579 3.41421,-0.58579 h 3 z"
         id="path6"
         inkscape:connector-curvature="0"
         style="stroke:#323232;stroke-width:2;stroke-linejoin:round" />
      <path
         d="m 5.0000985,6.9999999 v -4 c 0,-1.10457 0.89543,-1.99999996 2,-1.99999996 h 2.0625 c 1.0701005,0 1.9375005,0.86744996 1.9375005,1.93749996 v 0 0.0625"
         id="path8"
         inkscape:connector-curvature="0"
         style="stroke:#323232;stroke-width:2;stroke-linecap:round;stroke-linejoin:round" />
    </g>
  </g>
  <g
     id="g824"
     transform="translate(0,-3.3333487)">
    <path
       style="opacity:0.1;fill:#323232"
       inkscape:connector-curvature="0"
       id="path2-3"
       d="m 11.000099,11.444464 c 1.8856,0 2.828399,0 3.4142,0.58579 0.5858,0.58581 0.5858,1.52861 0.5858,3.41421 v 2 2 c 0,1.8856 0,2.8284 -0.5858,3.4142 -0.585801,0.5858 -1.5286,0.5858 -3.4142,0.5858 h -3.0000005 -3 c -1.88562,0 -2.82843,0 -3.41421,-0.5858 -0.58579,-0.5858 -0.58579,-1.5286 -0.58579,-3.4142 v -2 -2 c 0,-1.8856 0,-2.8284 0.58579,-3.41421 0.58578,-0.58579 1.52859,-0.58579 3.41421,-0.58579 h 3 z" />
    <path
       style="fill:#ff8080;stroke:#323232;stroke-width:2;stroke-linejoin:round"
       inkscape:connector-curvature="0"
       id="path6-7"
       d="m 11.000099,11.444464 c 1.8856,0 2.828399,0 3.4142,0.58579 0.5858,0.58581 0.5858,1.52861 0.5858,3.41421 v 2 2 c 0,1.8856 0,2.8284 -0.5858,3.4142 -0.585801,0.5858 -1.5286,0.5858 -3.4142,0.5858 h -3.0000005 -3 c -1.88562,0 -2.82843,0 -3.41421,-0.5858 -0.58579,-0.5858 -0.58579,-1.5286 -0.58579,-3.4142 v -2 -2 c 0,-1.8856 0,-2.8284 0.58579,-3.41421 0.58578,-0.58579 1.52859,-0.58579 3.41421,-0.58579 h 3 z" />
    <path
       style="stroke:#323232;stroke-width:2"
       inkscape:connector-curvature="0"
       id="path4-6"
       d="m 9.0000985,17.444464 c 0,0.5523 -0.4477,1 -1,1 -0.5523,0 -1,-0.4477 -1,-1 0,-0.5523 0.4477,-1 1,-1 0.5523,0 1,0.4477 1,1 z" />
    <path
       style="stroke:#323232;stroke-width:2;stroke-linecap:round;stroke-linejoin:round"
       inkscape:connector-curvature="0"
       id="path8-5"
       d="M 5.0000985,11.444464 V 7.4444642 c 0,-1.10457 0.89543,-2 2,-2 h 2 c 1.1046005,0 2.0000005,0.89543 2.0000005,2 v 3.9999998" />
  </g>
</svg>
