<?xml version="1.0" encoding="UTF-8" standalone="no"?>
<!-- Uploaded to: SVG Repo, www.svgrepo.com, Transformed by: SVG Repo Mixer Tools -->

<svg
   xmlns:dc="http://purl.org/dc/elements/1.1/"
   xmlns:cc="http://creativecommons.org/ns#"
   xmlns:rdf="http://www.w3.org/1999/02/22-rdf-syntax-ns#"
   xmlns:svg="http://www.w3.org/2000/svg"
   xmlns="http://www.w3.org/2000/svg"
   xmlns:sodipodi="http://sodipodi.sourceforge.net/DTD/sodipodi-0.dtd"
   xmlns:inkscape="http://www.inkscape.org/namespaces/inkscape"
   fill="#1a5fb4"
   width="165px"
   height="165px"
   viewBox="0 0 30.00 30.00"
   stroke="#1a5fb4"
   stroke-width="1.23"
   version="1.1"
   id="svg7"
   sodipodi:docname="nouveau.svg"
   inkscape:version="0.92.5 (2060ec1f9f, 2020-04-08)">
  <metadata
     id="metadata13">
    <rdf:RDF>
      <cc:Work
         rdf:about="">
        <dc:format>image/svg+xml</dc:format>
        <dc:type
           rdf:resource="http://purl.org/dc/dcmitype/StillImage" />
      </cc:Work>
    </rdf:RDF>
  </metadata>
  <defs
     id="defs11" />
  <sodipodi:namedview
     pagecolor="#ffffff"
     bordercolor="#666666"
     borderopacity="1"
     objecttolerance="10"
     gridtolerance="10"
     guidetolerance="10"
     inkscape:pageopacity="0"
     inkscape:pageshadow="2"
     inkscape:window-width="1398"
     inkscape:window-height="851"
     id="namedview9"
     showgrid="false"
     inkscape:zoom="2.0227539"
     inkscape:cx="12.419896"
     inkscape:cy="61.014279"
     inkscape:window-x="42"
     inkscape:window-y="25"
     inkscape:window-maximized="1"
     inkscape:current-layer="svg7" />
  <g
     id="SVGRepo_bgCarrier"
     stroke-width="0" />
  <g
     id="SVGRepo_tracerCarrier"
     stroke-linecap="round"
     stroke-linejoin="round" />
  <path
     style="opacity:1;vector-effect:none;fill:#fcfcf8;fill-opacity:1;stroke:#000000;stroke-width:0;stroke-linecap:butt;stroke-linejoin:miter;stroke-miterlimit:4;stroke-dasharray:none;stroke-dashoffset:0;stroke-opacity:1"
     d="m 24.620458,8.3104287 c -0.867928,2.9254513 -0.121291,6.1978403 -0.370059,9.2562603 0,46.144068 0,92.288141 0,138.432201 0.729888,2.18399 3.664272,0.82196 5.395218,1.2003 36.588985,0 73.177963,0 109.766953,0 2.18398,-0.72988 0.82196,-3.66426 1.2003,-5.39521 0,-35.41668 0,-70.833349 0,-106.250022 -0.70644,-2.450268 -2.8362,-0.125491 -4.18945,0.387128 -3.86735,0.902581 -7.94562,0.234352 -11.88696,0.432191 -5.17451,-0.250363 -10.47356,0.336964 -15.56639,-0.705979 -3.22726,-1.56734 -6.20496,-4.660631 -6.64622,-8.281922 -0.0655,-8.201851 -0.13076,-16.403705 -0.19578,-24.60556 0.53523,-1.438377 2.95376,-4.0603104 0.48409,-4.80326 -25.720492,0 -51.440974,0 -77.161458,0 -0.276748,0.1112909 -0.553496,0.2225818 -0.830244,0.3338727 z"
     id="path822"
     inkscape:connector-curvature="0"
     transform="scale(0.18181818)" />
  <path
     inkscape:connector-curvature="0"
     style="fill:none;stroke-width:1.23;stroke-miterlimit:4;stroke-dasharray:none;stroke:#000c87;stroke-opacity:1"
     id="path4"
     d="M 19.5,2 C 19.224,2.004 18.996,2.224 19,2.5 v 4 C 19,7.322 19.678,8 20.5,8 h 4 c 0.668,0.01 0.646,-1 0,-1 h -4 C 20.214,7 20,6.786 20,6.5 v -4 C 20.004,2.218 19.782,1.996 19.5,2 Z M 4.5,0 C 3.678,0 3,0.678 3,1.5 v 27 C 3,29.322 3.678,30 4.5,30 h 21 C 26.322,30 27,29.322 27,28.5 V 7.5 C 27,7.367 26.947,7.24 26.854,7.146 l -7,-7 C 19.76,0.053 19.634,0 19.5,0 Z m 0,1 H 19.293 L 26,7.707 V 28.5 C 26,28.786 25.786,29 25.5,29 H 4.5 C 4.214,29 4,28.786 4,28.5 V 1.5 C 4,1.214 4.214,1 4.5,1 Z" />
  <path
     style="opacity:1;vector-effect:none;fill:#ced8fd;fill-opacity:1;stroke:#000000;stroke-width:0;stroke-linecap:butt;stroke-linejoin:miter;stroke-miterlimit:4;stroke-dasharray:none;stroke-dashoffset:0;stroke-opacity:1"
     d="m 112.73143,17.213699 c -0.90484,2.79985 -0.13057,5.977629 -0.38781,8.923071 0.2151,3.226235 -0.43695,6.620296 0.33387,9.738977 2.92636,0.867943 6.19967,0.121278 9.25899,0.370059 2.94009,-0.196026 6.08304,0.345466 8.91804,-0.30695 1.82493,-1.580086 -1.30869,-3.115582 -2.14431,-4.35566 -4.88649,-4.806258 -9.61056,-9.868514 -14.63988,-14.472419 -0.4524,-0.388218 -0.87716,-0.05345 -1.3389,0.102922 z"
     id="path824"
     inkscape:connector-curvature="0"
     transform="scale(0.18181818)" />
</svg>
