<?xml version="1.0" encoding="UTF-8" standalone="no"?>
<!-- Uploaded to: SVG Repo, www.svgrepo.com, Generator: SVG Repo Mixer Tools -->

<svg
   xmlns:dc="http://purl.org/dc/elements/1.1/"
   xmlns:cc="http://creativecommons.org/ns#"
   xmlns:rdf="http://www.w3.org/1999/02/22-rdf-syntax-ns#"
   xmlns:svg="http://www.w3.org/2000/svg"
   xmlns="http://www.w3.org/2000/svg"
   xmlns:sodipodi="http://sodipodi.sourceforge.net/DTD/sodipodi-0.dtd"
   xmlns:inkscape="http://www.inkscape.org/namespaces/inkscape"
   fill="#000000"
   height="800px"
   width="800px"
   version="1.1"
   id="Capa_1"
   viewBox="0 0 489.8 489.8"
   xml:space="preserve"
   sodipodi:docname="onomatopee.svg"
   inkscape:version="0.92.5 (2060ec1f9f, 2020-04-08)"><metadata
   id="metadata15"><rdf:RDF><cc:Work
       rdf:about=""><dc:format>image/svg+xml</dc:format><dc:type
         rdf:resource="http://purl.org/dc/dcmitype/StillImage" /><dc:title /></cc:Work></rdf:RDF></metadata><defs
   id="defs13" /><sodipodi:namedview
   pagecolor="#ffffff"
   bordercolor="#666666"
   borderopacity="1"
   objecttolerance="10"
   gridtolerance="10"
   guidetolerance="10"
   inkscape:pageopacity="0"
   inkscape:pageshadow="2"
   inkscape:window-width="1398"
   inkscape:window-height="851"
   id="namedview11"
   showgrid="false"
   inkscape:zoom="0.64"
   inkscape:cx="406.90833"
   inkscape:cy="503.80986"
   inkscape:window-x="42"
   inkscape:window-y="25"
   inkscape:window-maximized="1"
   inkscape:current-layer="text845" />

<g
   aria-label="PAF"
   style="font-style:normal;font-variant:normal;font-weight:normal;font-stretch:normal;font-size:243.54173279px;line-height:1.25;font-family:'Liberation Sans Narrow';-inkscape-font-specification:'Liberation Sans Narrow';letter-spacing:0px;word-spacing:0px;fill:#000000;fill-opacity:1;stroke:none;stroke-width:15.2213583"
   id="text845"><g
     id="g860"
     transform="matrix(0.76007176,0.56031301,-0.57260985,0.74374916,192.56247,-67.23151)"><path
       inkscape:connector-curvature="0"
       d="m 33.974953,362.1536 q -1.867062,0 -5.052051,-3.26225 l -0.878619,0.13592 q -2.086716,0 -3.294815,-4.89339 -2.635853,-4.21374 -3.294816,-10.87417 -0.658964,-6.79636 -1.208098,-13.45678 -0.658965,-11.28195 -2.196546,-22.42797 -3.184989,-26.09802 -3.734125,-52.46789 -0.768791,-25.55431 -3.075161,-46.48709 -2.526027,-24.73874 -2.526027,-38.19553 0,-12.23345 1.208101,-24.46689 0.658962,-10.05861 4.942223,-14.68014 4.393089,-4.62152 13.508746,-5.30115 2.196545,-0.27186 13.508747,-2.17484 4.173434,-0.81555 22.40475,-1.90298 0.878617,0 2.526025,-0.67962 3.404645,0.67962 6.809288,0.67962 2.855507,0 9.225483,-1.22334 L 97.1256,120.33918 q 11.53185,0 21.19665,4.07781 5.60119,2.58263 11.42203,3.39818 4.61274,0.54372 9.00584,6.66044 l 1.53757,2.03891 q 0.43931,0.40777 0.87863,1.08741 2.19653,2.71854 3.73411,3.39818 6.58964,1.90298 10.21394,7.476 3.73413,5.43708 7.79773,12.23344 4.06359,6.66044 5.711,13.59271 1.75725,6.93229 2.30638,14.54421 0.65896,7.61192 2.52603,14.81606 0.65896,2.85448 0.65896,5.84486 0,2.58262 -1.53759,10.4664 -1.09827,5.84486 -2.85549,11.41788 -1.64742,5.57301 -5.16188,10.33047 -1.97689,2.85447 -2.96534,7.20413 -0.87862,4.21374 -2.96534,7.06821 -9.55495,11.28197 -20.977,19.02981 -9.44513,5.70893 -19.43941,10.33046 -6.26015,2.85447 -12.41047,6.11673 -1.75723,0.95149 -11.20238,2.58261 -9.445142,1.4952 -11.641687,5.43708 l 0.109833,2.31077 -0.109833,5.30115 q 0.219657,5.70895 3.514475,19.57351 0,3.9419 2.635851,9.24305 0.219653,0.67964 0.219653,1.63113 0,3.67003 -3.514468,9.92267 -2.965336,5.02931 -7.578077,8.15564 -4.612742,3.5341 -9.884449,4.62152 -10.763066,1.35928 -20.757341,1.35928 -2.416198,0 -6.150324,0.27184 -3.734125,0.27187 -7.46825,0.27187 z M 84.385638,213.58521 q 14.716842,0 19.000112,-7.47599 2.52603,-4.62152 2.52603,-7.88377 0,-1.4952 -0.32948,-2.71855 -1.86707,-4.62153 -5.93067,-7.34007 -3.95379,-2.71854 -7.687915,-2.71854 l -1.317917,0.13593 q -4.832404,0.67963 -9.774626,1.22333 -3.404645,0.27187 -3.404645,3.12633 0,0.95149 0.219655,2.17485 0.219653,2.44668 0.219653,4.89336 0,2.85448 -0.32948,5.70895 -0.219656,1.35928 -0.219656,6.52451 0,1.08741 0.219656,1.90298 0.878617,2.44668 6.809283,2.44668 z"
       style="font-style:normal;font-variant:normal;font-weight:normal;font-stretch:normal;font-size:222.66455078px;line-height:1.25;font-family:Kaph;-inkscape-font-specification:Kaph;letter-spacing:0px;word-spacing:0px;fill:#ffffff;fill-opacity:1;stroke:none;stroke-width:238.05183411"
       id="path819-3" /><path
       inkscape:connector-curvature="0"
       d="m 291.48162,359.85997 q -1.55909,0 -3.35803,-0.27535 -2.51852,-0.41302 -5.39683,-0.41302 -12.23284,-0.41302 -13.43212,-15.28185 -0.71959,-8.12278 -6.59614,-14.59349 -5.87655,-6.60837 -12.71255,-7.02139 -4.7972,0 -13.07234,4.26791 -7.31572,3.71721 -7.31572,12.11535 0,1.10138 0.23987,2.06511 0.95943,3.30418 0.95943,5.78231 0,7.5721 -8.75487,8.94884 -3.83775,0 -8.03529,1.1014 -3.11817,-0.27536 -6.11642,-0.27536 -4.79718,0 -12.71255,0.5507 l -7.79542,0.13768 q -4.19755,0 -5.75663,-0.27535 -8.87479,-0.96371 -11.2734,-0.96371 -3.83775,0 -7.91535,-2.34047 -6.59613,-3.57954 -8.39509,-10.73861 -0.23986,-1.37673 -0.23986,-2.75349 0,-1.92743 0.47972,-3.85487 0,-2.34046 4.55733,-20.51348 1.1993,-3.99255 2.63846,-7.70977 1.79893,-4.68092 3.11817,-9.6372 2.63846,-11.83998 5.03705,-23.67999 2.51852,-12.52836 5.39684,-25.05672 1.43916,-5.50697 3.47796,-10.73861 3.11817,-8.39813 3.95768,-13.9051 0.8395,-4.8186 8.03529,-29.73766 10.31396,-36.20836 15.71079,-58.37393 2.63846,-12.66604 15.351,-15.14418 2.15874,0 6.95593,0.5507 l 11.03352,0.27534 7.07587,-0.13767 q 2.27865,0 4.19752,-0.13767 2.03882,-0.27536 3.23811,-0.27536 l 2.39861,0.13768 q 1.55907,0 7.79541,-0.27535 6.23635,-0.27535 10.9136,-0.27535 13.31221,0 17.50975,17.48464 2.0388,8.53581 5.15698,16.79629 3.95767,10.18789 7.3157,24.6437 2.03881,8.53581 4.55734,16.79627 2.27866,7.70976 3.47795,15.55719 1.31923,9.08652 4.07763,16.93396 2.75837,7.70977 4.19752,15.41952 1.43917,7.57209 3.9577,14.59349 0.95942,3.02882 0.95942,6.60836 0.11994,3.57953 0.59966,6.33301 1.43915,5.64466 3.11816,11.15163 2.63846,8.12279 3.2381,12.3907 0.11994,1.65209 0.71959,4.13023 1.79894,10.46325 2.99825,20.10046 1.19928,9.6372 6.59613,20.10046 0.71957,1.78975 0.71957,3.57952 0,4.8186 -6.35627,9.77487 -4.67727,4.26792 -8.03529,4.26792 -2.3986,0 -11.03353,0.5507 -8.63495,0.68837 -13.31219,0.68837 -3.9577,0 -6.35628,0.13767 -4.55734,0.41302 -7.79544,0.41302 z m -30.34221,-111.1032 q 4.31747,0 4.31747,-4.2679 0,-0.96372 -0.23987,-1.37674 l -3.23809,-20.51349 -1.91888,-4.2679 q -2.03881,-5.50699 -5.51676,-9.08651 -1.31923,-1.1014 -2.39861,-1.1014 -2.15872,0 -6.35627,2.89118 -0.83949,1.10139 -1.67901,1.92743 -0.23986,0.27534 -0.47972,0.68836 -0.23985,0.41303 -0.71958,0.68839 -2.63846,3.71721 -2.63846,5.23162 l -1.67901,5.36931 q 0,2.89114 -2.27866,11.56464 -1.31923,1.51441 -1.67903,9.91255 3.71784,0.5507 7.31572,0.5507 l 5.6367,-0.27535 q 3.11818,0 4.67725,0.82604 3.9577,0 7.55558,0.82605 0.47972,0.41302 1.31923,0.41302 z"
       style="font-style:normal;font-variant:normal;font-weight:normal;font-stretch:normal;font-size:222.66455078px;line-height:1.25;font-family:Kaph;-inkscape-font-specification:Kaph;letter-spacing:0px;word-spacing:0px;fill:#ffffff;fill-opacity:1;stroke:none;stroke-width:250.35331726"
       id="path821-4" /><path
       inkscape:connector-curvature="0"
       d="m 376.33819,362.1303 q -1.70376,0 -3.97539,-0.93895 -0.34074,-0.4024 -1.36299,-0.4024 -0.90865,0 -2.15804,-0.40239 -1.24942,-0.26828 -2.95315,-0.26828 -4.42972,-0.93893 -13.17556,-3.21919 l -4.42971,-0.80482 q -9.76809,-0.93895 -17.60527,-3.35335 -3.7482,-1.6096 -5.56552,-7.24324 -1.70374,-5.6336 -1.70374,-10.19416 0,-1.87788 0.22717,-3.62161 0.22716,-2.95094 0.22716,-8.3163 -0.22716,-3.48748 -0.56792,-33.13105 0,-2.81683 1.02224,-35.41134 1.02225,-35.67962 2.49882,-71.22508 1.36299,-24.27822 4.31612,-48.42231 1.93091,-14.21819 12.83481,-14.21819 2.61238,0 10.90391,-0.53655 8.40509,-0.67066 11.47181,-0.67066 3.52105,0 9.65449,0.93895 5.45196,0.80479 8.17792,0.80479 1.24941,0 2.38524,0.80481 3.06673,-0.26828 6.13345,-0.26828 3.74822,0 7.38286,1.07308 1.47656,0.93894 3.86179,0.93894 2.4988,0 8.17792,0.67068 3.63464,-0.53654 7.26928,-0.53654 l 7.15568,0.40239 q 2.38523,0.93896 5.1112,0.93896 1.363,0 2.15807,-0.13416 0.79508,-0.13413 0.90866,-0.13413 1.2494,0 2.38521,1.20721 4.99764,0 21.92141,2.8168 2.27165,0.26827 4.4297,0.67068 17.94601,1.74374 17.94601,16.23021 0,2.4144 -0.56791,5.2312 -0.45432,3.35334 -0.45432,6.84084 0,2.01199 0.11357,4.15813 0.11358,2.14615 0.11358,4.42642 0,14.88886 -5.45194,34.4724 -0.79508,2.95094 -5.22479,6.70668 -2.95314,2.95097 -5.79269,4.42643 l -2.38523,1.47547 -24.19303,-15.55952 q -0.22717,0 -0.34076,-0.13413 -1.02223,-0.67067 -2.15806,-0.93894 l -40.20814,-0.93895 -0.34075,2.41442 q -0.68149,6.57256 -1.47658,11.80377 l 2.27166,-0.13413 q 2.83955,0 6.58777,2.41441 4.99763,0 8.51867,-0.53654 3.63464,0 5.79271,0.67067 2.15804,0.67068 4.31613,0.67068 3.29387,0 6.01985,-2.54855 1.363,-1.07307 3.52106,-1.07307 4.54329,0 10.56315,3.88988 5.45194,1.07308 5.90628,4.56055 0,1.87788 -0.11359,2.54856 -2.83955,8.71869 -2.83955,27.09503 -0.11358,5.76775 -0.45432,11.66964 -0.90866,6.43842 -4.31612,12.60858 l -1.24941,2.68268 q -0.22717,0.4024 -1.93091,0.4024 -1.59015,0 -2.95314,-0.4024 -7.72359,-0.13414 -11.35824,-0.40242 -5.67911,-0.13411 -10.10881,-2.14612 -2.83957,1.87787 -7.95076,1.87787 -2.38524,0 -5.11122,0.4024 l 0.6815,16.09606 q -0.11359,2.95095 -0.11359,14.48647 0,11.5355 -0.11358,17.30325 -0.5679,7.64563 -1.70373,15.15713 -0.34075,2.01201 -0.6815,4.15815 -0.34075,2.012 -1.59016,3.48746 -1.2494,1.34135 -2.61239,2.95097 -3.97538,4.96294 -8.74582,8.98695 -0.90868,0.67069 -1.70376,1.6096 -2.83955,3.0851 -5.22477,3.0851 z"
       style="font-style:normal;font-variant:normal;font-weight:normal;font-stretch:normal;font-size:222.66455078px;line-height:1.25;font-family:Kaph;-inkscape-font-specification:Kaph;letter-spacing:0px;word-spacing:0px;fill:#ffffff;fill-opacity:1;stroke:none;stroke-width:240.48501587"
       id="path823-9" /><g
       id="text817"
       style="font-style:normal;font-variant:normal;font-weight:normal;font-stretch:normal;font-size:222.66455078px;line-height:1.25;font-family:'Liberation Sans Narrow';-inkscape-font-specification:'Liberation Sans Narrow';letter-spacing:0px;word-spacing:0px;fill:#000000;fill-opacity:1;stroke:none;stroke-width:211.82859802"
       transform="matrix(0.8831457,0,0,1.132316,-6.1225,0)"
       aria-label="PAF"><path
         inkscape:connector-curvature="0"
         id="path819"
         style="font-style:normal;font-variant:normal;font-weight:normal;font-stretch:normal;font-family:Kaph;-inkscape-font-specification:Kaph;stroke-width:211.82859802"
         d="m 53.71159,309.48656 q -1.848289,0 -5.001254,-2.60935 l -0.869784,0.10872 q -2.065735,0 -3.261687,-3.91403 -2.609351,-3.37041 -3.261688,-8.69783 -0.652338,-5.43615 -1.195952,-10.76357 -0.652338,-9.024 -2.174459,-17.93928 -3.152965,-20.8748 -3.696579,-41.96705 -0.761061,-20.43991 -3.044242,-37.18324 -2.500628,-19.78757 -2.500628,-30.55114 0,-9.78507 1.195953,-19.57013 0.652337,-8.0455 4.892531,-11.74208 4.348917,-3.69658 13.37292,-4.24019 2.174459,-0.21745 13.37292,-1.73957 4.131471,-0.65233 22.179477,-1.52212 0.869783,0 2.500627,-0.54361 3.370411,0.54361 6.740821,0.54361 2.826796,0 9.132724,-0.9785 l 14.13398,-0.10873 q 11.41591,0 20.98353,3.26169 5.54487,2.06574 11.30718,2.71807 4.56636,0.4349 8.91528,5.32743 l 1.52212,1.63084 q 0.43489,0.32617 0.86979,0.86978 2.17445,2.17446 3.69657,2.71808 6.52338,1.52212 10.11124,5.97976 3.69658,4.34892 7.71932,9.78506 4.02275,5.32743 5.6536,10.87229 1.73956,5.54487 2.28318,11.63336 0.65234,6.08848 2.50063,11.8508 0.65233,2.28318 0.65233,4.67508 0,2.06574 -1.52212,8.37167 -1.08723,4.67508 -2.82679,9.13272 -1.63085,4.45764 -5.10998,8.26295 -1.95701,2.28318 -2.93552,5.76231 -0.86978,3.37041 -2.93552,5.65359 -9.45889,9.02401 -20.76608,15.22121 -9.35017,4.56636 -19.24396,8.26294 -6.1972,2.28319 -12.28569,4.89254 -1.73956,0.76106 -11.08974,2.06573 -9.35017,1.19595 -11.52463,4.34892 l 0.10873,1.84829 -0.10873,4.24019 q 0.21745,4.56637 3.47914,15.6561 0,3.15297 2.60935,7.39316 0.21744,0.54362 0.21744,1.30468 0,2.93552 -3.47913,7.93677 -2.93552,4.02275 -7.501881,6.52338 -4.566363,2.82679 -9.785063,3.69658 -10.654847,1.08723 -20.548633,1.08723 -2.391904,0 -6.088484,0.21744 -3.696579,0.21745 -7.393159,0.21745 z M 103.61541,190.6524 q 14.56887,0 18.80907,-5.97976 2.50063,-3.69658 2.50063,-6.30593 0,-1.19595 -0.32617,-2.17446 -1.84829,-3.69658 -5.87104,-5.87104 -3.91403,-2.17446 -7.61061,-2.17446 l -1.30467,0.10873 q -4.78381,0.54361 -9.67634,0.9785 -3.370411,0.21745 -3.370411,2.50063 0,0.76106 0.217446,1.73957 0.217445,1.95701 0.217445,3.91402 0,2.28318 -0.326168,4.56637 -0.217446,1.08723 -0.217446,5.2187 0,0.86978 0.217446,1.52212 0.869783,1.95701 6.740818,1.95701 z" /><path
         inkscape:connector-curvature="0"
         id="path821"
         style="font-style:normal;font-variant:normal;font-weight:normal;font-stretch:normal;font-family:Kaph;-inkscape-font-specification:Kaph;stroke-width:211.82859802"
         d="m 328.12825,307.3121 q -1.4134,0 -3.04424,-0.21745 -2.28318,-0.32617 -4.89253,-0.32617 -11.08974,-0.32616 -12.17697,-12.06824 -0.65234,-6.41465 -5.97976,-11.52463 -5.32742,-5.2187 -11.52463,-5.54487 -4.34892,0 -11.8508,3.37041 -6.6321,2.93552 -6.6321,9.56762 0,0.86978 0.21745,1.63084 0.86978,2.60935 0.86978,4.56636 0,5.97977 -7.93677,7.06699 -3.47914,0 -7.28444,0.86979 -2.82679,-0.21745 -5.54487,-0.21745 -4.34891,0 -11.52463,0.43489 l -7.06699,0.10873 q -3.8053,0 -5.2187,-0.21745 -8.04549,-0.76106 -10.21995,-0.76106 -3.47914,0 -7.17572,-1.84829 -5.97976,-2.8268 -7.6106,-8.48039 -0.21745,-1.08723 -0.21745,-2.17446 0,-1.52212 0.43489,-3.04424 0,-1.84829 4.13148,-16.19971 1.08723,-3.15297 2.3919,-6.08849 1.63084,-3.69658 2.8268,-7.6106 2.3919,-9.35017 4.56636,-18.70035 2.28318,-9.89378 4.89253,-19.78757 1.30468,-4.34891 3.15297,-8.48039 2.82679,-6.63209 3.58785,-10.98101 0.76106,-3.8053 7.28444,-23.48415 9.35017,-28.59413 14.2427,-46.09852 2.39191,-10.00251 13.91654,-11.95952 1.95701,0 6.30593,0.43489 l 10.0025,0.21744 6.41466,-0.10872 q 2.06573,0 3.8053,-0.10872 1.84829,-0.21745 2.93552,-0.21745 l 2.17446,0.10872 q 1.41339,0 7.06699,-0.21744 5.65359,-0.21745 9.89378,-0.21745 12.06825,0 15.87355,13.80781 1.84829,6.74082 4.67509,13.2642 3.58785,8.0455 6.63209,19.4614 1.84829,6.74083 4.13148,13.2642 2.06573,6.08848 3.15296,12.28569 1.19595,7.17571 3.69658,13.37292 2.50063,6.08849 3.8053,12.17697 1.30468,5.97976 3.58786,11.52463 0.86978,2.3919 0.86978,5.2187 0.10873,2.8268 0.54362,5.00125 1.30467,4.45764 2.82679,8.80656 2.39191,6.41465 2.93552,9.78506 0.10872,1.30468 0.65234,3.26169 1.63084,8.26294 2.71807,15.87355 1.08723,7.6106 5.97976,15.87355 0.65234,1.41339 0.65234,2.82679 0,3.8053 -5.76231,7.71933 -4.2402,3.37041 -7.28444,3.37041 -2.17446,0 -10.00251,0.43489 -7.82805,0.54362 -12.06824,0.54362 -3.58786,0 -5.76232,0.10872 -4.13147,0.32617 -7.06699,0.32617 z m -27.5069,-87.7394 q 3.91403,0 3.91403,-3.37041 0,-0.76106 -0.21745,-1.08723 l -2.93552,-16.19972 -1.73957,-3.37041 q -1.84829,-4.34892 -5.00125,-7.17571 -1.19595,-0.86979 -2.17446,-0.86979 -1.95701,0 -5.76231,2.28319 -0.76106,0.86978 -1.52212,1.52212 -0.21745,0.21744 -0.4349,0.54361 -0.21744,0.32617 -0.65233,0.54362 -2.39191,2.93552 -2.39191,4.13147 l -1.52212,4.24019 q 0,2.28318 -2.06573,9.13273 -1.19596,1.19595 -1.52213,7.82805 3.37042,0.43489 6.6321,0.43489 l 5.10998,-0.21745 q 2.8268,0 4.24019,0.65234 3.58786,0 6.84955,0.65234 0.43489,0.32617 1.19595,0.32617 z" /><path
         inkscape:connector-curvature="0"
         id="path823"
         style="font-style:normal;font-variant:normal;font-weight:normal;font-stretch:normal;font-family:Kaph;-inkscape-font-specification:Kaph;stroke-width:211.82859802"
         d="m 437.72096,309.05167 q -1.63085,0 -3.8053,-0.76107 -0.32617,-0.32616 -1.30468,-0.32616 -0.86978,0 -2.06573,-0.32617 -1.19596,-0.21745 -2.8268,-0.21745 -4.24019,-0.76106 -12.61186,-2.60935 l -4.24019,-0.65234 q -9.35018,-0.76106 -16.85206,-2.71807 -3.58785,-1.30467 -5.32742,-5.87104 -1.63084,-4.56636 -1.63084,-8.26294 0,-1.52212 0.21744,-2.93552 0.21745,-2.3919 0.21745,-6.74082 -0.21745,-2.8268 -0.54362,-26.85456 0,-2.28318 0.97851,-28.70285 0.97851,-28.9203 2.3919,-57.73188 1.30468,-19.67885 4.13147,-39.24897 1.84829,-11.52463 12.28569,-11.52463 2.50063,0 10.43741,-0.4349 8.04549,-0.54361 10.98101,-0.54361 3.37041,0 9.24145,0.76106 5.2187,0.65234 7.82805,0.65234 1.19595,0 2.28318,0.65234 2.93552,-0.21745 5.87104,-0.21745 3.58786,0 7.06699,0.86978 1.4134,0.76106 3.69658,0.76106 2.3919,0 7.82805,0.54362 3.47913,-0.43489 6.95827,-0.43489 l 6.84954,0.32616 q 2.28318,0.76107 4.89253,0.76107 1.30468,0 2.06574,-0.10873 0.76106,-0.10872 0.86978,-0.10872 1.19595,0 2.28318,0.97851 4.78381,0 20.98353,2.28318 2.17446,0.21744 4.24019,0.54361 17.17822,1.4134 17.17822,13.15548 0,1.95701 -0.54361,4.24019 -0.43489,2.71807 -0.43489,5.54487 0,1.63084 0.10872,3.37041 0.10872,1.73957 0.10872,3.58786 0,12.06824 -5.2187,27.94179 -0.76106,2.3919 -5.00125,5.43614 -2.8268,2.39191 -5.54487,3.58786 l -2.28318,1.19595 -23.15798,-12.61186 q -0.21745,0 -0.32617,-0.10872 -0.97851,-0.54361 -2.06574,-0.76106 l -38.48791,-0.76106 -0.32617,1.95701 q -0.65234,5.32743 -1.4134,9.56762 l 2.17446,-0.10872 q 2.71807,0 6.30593,1.95701 4.78381,0 8.15422,-0.43489 3.47913,0 5.54487,0.54361 2.06573,0.54362 4.13147,0.54362 3.15296,0 5.76231,-2.06574 1.30468,-0.86978 3.37041,-0.86978 4.34892,0 10.11123,3.15296 5.2187,0.86979 5.6536,3.69658 0,1.52212 -0.10873,2.06574 -2.71807,7.06699 -2.71807,21.96203 -0.10872,4.67508 -0.43489,9.45889 -0.86978,5.2187 -4.13147,10.21996 l -1.19595,2.17446 q -0.21745,0.32617 -1.84829,0.32617 -1.52213,0 -2.8268,-0.32617 -7.39316,-0.10873 -10.87229,-0.32617 -5.43615,-0.10872 -9.67634,-1.73957 -2.71808,1.52212 -7.61061,1.52212 -2.28318,0 -4.89253,0.32617 l 0.65234,13.04675 q -0.10873,2.39191 -0.10873,11.74208 0,9.35017 -0.10872,14.02526 -0.54361,6.1972 -1.63084,12.28569 -0.32617,1.63084 -0.65234,3.37041 -0.32617,1.63084 -1.52212,2.82679 -1.19595,1.08723 -2.50063,2.39191 -3.8053,4.02275 -8.37166,7.28443 -0.86979,0.54362 -1.63085,1.30468 -2.71807,2.50063 -5.00125,2.50063 z" /></g></g></g></svg>