<?xml version="1.0" encoding="UTF-8" standalone="no"?>
<svg
   xmlns:dc="http://purl.org/dc/elements/1.1/"
   xmlns:cc="http://creativecommons.org/ns#"
   xmlns:rdf="http://www.w3.org/1999/02/22-rdf-syntax-ns#"
   xmlns:svg="http://www.w3.org/2000/svg"
   xmlns="http://www.w3.org/2000/svg"
   xmlns:sodipodi="http://sodipodi.sourceforge.net/DTD/sodipodi-0.dtd"
   xmlns:inkscape="http://www.inkscape.org/namespaces/inkscape"
   width="770.17975"
   height="674.92188"
   viewBox="0 0 23.105392 20.247656"
   version="1.1"
   id="svg9"
   sodipodi:docname="police_plus.svg"
   inkscape:version="0.92.5 (2060ec1f9f, 2020-04-08)">
  <metadata
     id="metadata15">
    <rdf:RDF>
      <cc:Work
         rdf:about="">
        <dc:format>image/svg+xml</dc:format>
        <dc:type
           rdf:resource="http://purl.org/dc/dcmitype/StillImage" />
        <dc:title>ic_fluent_font_increase_24_filled</dc:title>
      </cc:Work>
    </rdf:RDF>
  </metadata>
  <defs
     id="defs13" />
  <sodipodi:namedview
     pagecolor="#ffffff"
     bordercolor="#666666"
     borderopacity="1"
     objecttolerance="10"
     gridtolerance="10"
     guidetolerance="10"
     inkscape:pageopacity="0"
     inkscape:pageshadow="2"
     inkscape:window-width="766"
     inkscape:window-height="405"
     id="namedview11"
     showgrid="false"
     fit-margin-top="0"
     fit-margin-left="0"
     fit-margin-right="0"
     fit-margin-bottom="0"
     inkscape:zoom="0.295"
     inkscape:cx="-229.11681"
     inkscape:cy="351.60987"
     inkscape:window-x="674"
     inkscape:window-y="155"
     inkscape:window-maximized="1"
     inkscape:current-layer="ic_fluent_font_increase_24_filled" />
  <!-- Uploaded to: SVG Repo, www.svgrepo.com, Generator: SVG Repo Mixer Tools -->
  <title
     id="title2">ic_fluent_font_increase_24_filled</title>
  <desc
     id="desc4">Created with Sketch.</desc>
  <g
     id="🔍-Product-Icons"
     style="fill:none;fill-rule:evenodd;stroke:none;stroke-width:1"
     transform="translate(-0.97519916,-2.3006404)">
    <g
       id="ic_fluent_font_increase_24_filled"
       style="fill:#212121;fill-rule:nonzero">
      <g
         aria-label="A"
         transform="scale(1.0452372,0.95672063)"
         style="font-style:normal;font-variant:normal;font-weight:normal;font-stretch:normal;font-size:25.62991905px;line-height:1.25;font-family:'Liberation Sans Narrow';-inkscape-font-specification:'Liberation Sans Narrow';letter-spacing:0px;word-spacing:0px;fill:#3e3e8d;fill-opacity:1;stroke:none;stroke-width:1.60186994"
         id="text827">
        <path
           d="m 2.0350797,23.568318 q -0.333189,0 -0.7176378,-0.15378 -0.38444874,-0.153779 -0.38444874,-0.486968 0,-0.486969 0.53822834,-1.255866 0.5382283,-0.794528 0.5382283,-1.050827 0,-0.922677 0.5638582,-1.230236 0.1025197,-0.05126 0.307559,-0.589488 0.2306693,-0.563858 0.5382283,-1.281496 0.307559,-0.717638 0.6151181,-1.050827 0.6920078,-0.717637 2.6398816,-5.331023 0.8457874,-1.9735037 2.3579526,-4.7415349 1.5121654,-2.7680313 1.9735034,-3.17811 0.615118,-0.2050393 0.743268,-0.2050393 0.410079,0 0.845787,0.2562992 0.435709,0.5125983 1.537795,3.0755902 1.127717,2.537362 1.127717,3.2549998 0.02563,0.512598 0.486968,2.306693 0.461339,1.768464 0.640748,2.819291 0.12815,0.973937 0.794528,3.280629 0.666378,2.306693 0.666378,2.896181 0,0.281929 -0.12815,0.410079 -0.128149,0.12815 -0.563858,0.12815 -0.333189,0 -0.948307,-0.28193 -0.410079,-0.205039 -0.640748,-0.538228 -0.205039,-0.333189 -0.307559,-0.692008 -0.07689,-0.358819 -0.333189,-1.384015 -0.230669,-1.025197 -0.512598,-1.999134 l -0.486969,-1.665945 -1.102086,0.12815 q -1.614685,0.205039 -3.4856694,0.333189 L 7.4942524,15.469263 6.7509848,16.57135 q -1.9991337,2.921811 -3.1268501,5.612952 -0.5894882,1.384016 -1.589055,1.384016 z M 12.748386,12.368043 q 0,-0.486968 -0.461339,-2.460472 Q 11.851339,7.9084373 11.51815,7.1139098 10.826142,8.0878467 10.108504,9.600012 9.3908664,11.112177 9.0064177,12.137374 l -0.3844488,1.025197 1.6915751,-0.10252 q 1.589055,-0.10252 1.999133,-0.205039 0.435709,-0.10252 0.435709,-0.486969 z"
           style="font-style:normal;font-variant:normal;font-weight:bold;font-stretch:normal;font-family:Purisa;-inkscape-font-specification:'Purisa Bold';fill:#3e3e8d;stroke-width:1.60186994;fill-opacity:1"
           id="path850" />
      </g>
      <g
         aria-label="+"
         transform="scale(1.0452372,0.95672064)"
         style="font-style:normal;font-variant:normal;font-weight:normal;font-stretch:normal;font-size:13.82480049px;line-height:1.25;font-family:'Liberation Sans Narrow';-inkscape-font-specification:'Liberation Sans Narrow';letter-spacing:0px;word-spacing:0px;fill:#000080;fill-opacity:1;stroke:none;stroke-width:0.86405003"
         id="text827-4">
        <path
           d="m 22.416283,4.6581574 q 0.290321,0.013825 0.456218,0.2350216 0.165898,0.2211968 0.165898,0.4976928 0,0.2350217 -0.110598,0.3732697 -0.110599,0.138248 -0.387095,0.207372 -0.262671,0.069124 -0.566817,0.1105984 -0.29032,0.02765 -0.829488,0.096774 -0.525342,0.069124 -0.98156,0.1658976 l -0.331796,0.069124 -0.110598,4.1197909 H 18.448565 L 18.337967,6.4139071 17.605253,6.5383303 q -0.857138,0.1520728 -1.465429,0.1520728 -0.414744,0 -0.594467,-0.1244232 -0.179722,-0.138248 -0.179722,-0.483868 0,-0.4423936 0.248846,-0.5806417 0.262671,-0.138248 1.313356,-0.34562 L 18.172069,4.9070038 V 4.1189902 q 0,-0.9539112 0.124424,-1.2995312 0.221196,-0.4147441 0.718889,-0.4147441 0.276496,0 0.428569,0.1935472 0.165898,0.1935473 0.193547,0.4147441 0.04147,0.2211968 0.08295,0.6774152 0.01383,0.1244232 0.01383,0.1797224 l 0.110598,1.105984 0.843313,-0.096774 q 0.428569,-0.055299 0.843313,-0.1105984 0.428569,-0.055299 0.622116,-0.082949 0.193547,-0.02765 0.262671,-0.02765 z"
           style="font-style:normal;font-variant:normal;font-weight:bold;font-stretch:normal;font-family:Purisa;-inkscape-font-specification:'Purisa Bold';fill:#000080;stroke-width:0.86405003"
           id="path847" />
      </g>
    </g>
  </g>
</svg>
