<?xml version="1.0" encoding="iso-8859-1"?>
<!-- Uploaded to: SVG Repo, www.svgrepo.com, Generator: SVG Repo Mixer Tools -->
<svg height="800px" width="800px" version="1.1" id="Layer_1" xmlns="http://www.w3.org/2000/svg" xmlns:xlink="http://www.w3.org/1999/xlink" 
	 viewBox="0 0 511.999 511.999" xml:space="preserve">
<path style="fill:#61ACD2;" d="M484.272,453.297l-152.001-152c25.045-30.438,40.102-69.387,40.102-111.789
	c0-97.162-79.046-176.208-176.208-176.208S19.957,92.346,19.957,189.508s79.046,176.206,176.208,176.206
	c35.586,0,68.734-10.614,96.467-28.828l154.024,154.024c5.193,5.193,12.001,7.79,18.808,7.79c6.808,0,13.614-2.597,18.808-7.79
	C494.657,480.525,494.657,463.684,484.272,453.297z"/>
<path style="fill:#EFEFEF;" d="M73.151,189.506c0-67.83,55.183-123.013,123.013-123.013s123.013,55.183,123.013,123.013
	s-55.183,123.013-123.013,123.013S73.151,257.337,73.151,189.506z"/>
<path d="M493.675,443.895L493.675,443.895L349.931,300.149c23.122-32.11,35.74-70.953,35.74-110.643
	C385.671,85.012,300.659,0,196.165,0S6.658,85.012,6.658,189.506S91.67,379.013,196.164,379.013
	c33.348,0,65.794-8.715,94.493-25.293l146.594,146.594c7.535,7.535,17.554,11.684,28.212,11.684s20.677-4.149,28.212-11.686
	C509.229,484.76,509.229,459.449,493.675,443.895z M474.868,481.507c-2.512,2.512-5.85,3.895-9.404,3.895
	c-3.553,0-6.893-1.383-9.404-3.895L302.035,327.483c-2.571-2.569-5.975-3.895-9.408-3.895c-2.524,0-5.064,0.717-7.296,2.184
	c-26.543,17.431-57.376,26.644-89.168,26.644c-89.829,0-162.909-73.08-162.909-162.909s73.08-162.909,162.909-162.909
	s162.909,73.08,162.909,162.909c0,37.586-13.166,74.285-37.073,103.34c-4.35,5.286-3.975,13.011,0.864,17.854l152.003,152.001
	C480.052,467.887,480.052,476.324,474.868,481.507z"/>
<path d="M196.164,53.195c-75.163,0-136.312,61.149-136.312,136.312s61.15,136.312,136.312,136.312s136.312-61.149,136.312-136.312
	S271.327,53.195,196.164,53.195z M196.164,299.221c-60.496,0-109.714-49.218-109.714-109.714S135.669,79.792,196.164,79.792
	s109.714,49.218,109.714,109.714S256.662,299.221,196.164,299.221z"/>
<path d="M260.891,176.208h-51.437v-50.181c0-7.344-5.955-13.299-13.299-13.299c-7.344,0-13.299,5.955-13.299,13.299v50.181h-50.963
	c-7.344,0-13.299,5.955-13.299,13.299c0,7.344,5.955,13.299,13.299,13.299h50.963v52.219c0,7.344,5.955,13.299,13.299,13.299
	c7.344,0,13.299-5.955,13.299-13.299v-52.219h51.437c7.344,0,13.299-5.955,13.299-13.299
	C274.189,182.163,268.235,176.208,260.891,176.208z"/>
</svg>