<?xml version="1.0" encoding="UTF-8" standalone="no"?>
<svg
   xmlns:dc="http://purl.org/dc/elements/1.1/"
   xmlns:cc="http://creativecommons.org/ns#"
   xmlns:rdf="http://www.w3.org/1999/02/22-rdf-syntax-ns#"
   xmlns:svg="http://www.w3.org/2000/svg"
   xmlns="http://www.w3.org/2000/svg"
   xmlns:sodipodi="http://sodipodi.sourceforge.net/DTD/sodipodi-0.dtd"
   xmlns:inkscape="http://www.inkscape.org/namespaces/inkscape"
   width="355.28839"
   height="376.64752"
   viewBox="0 0 355.28839 376.64752"
   version="1.1"
   id="svg205"
   sodipodi:docname="perso03.svg"
   style="fill:none"
   inkscape:version="0.92.5 (2060ec1f9f, 2020-04-08)">
  <metadata
     id="metadata211">
    <rdf:RDF>
      <cc:Work
         rdf:about="">
        <dc:format>image/svg+xml</dc:format>
        <dc:type
           rdf:resource="http://purl.org/dc/dcmitype/StillImage" />
        <dc:title></dc:title>
      </cc:Work>
    </rdf:RDF>
  </metadata>
  <defs
     id="defs209" />
  <sodipodi:namedview
     pagecolor="#ffffff"
     bordercolor="#666666"
     borderopacity="1"
     objecttolerance="10"
     gridtolerance="10"
     guidetolerance="10"
     inkscape:pageopacity="0"
     inkscape:pageshadow="2"
     inkscape:window-width="1426"
     inkscape:window-height="480"
     id="namedview207"
     showgrid="false"
     fit-margin-bottom="-0.1"
     fit-margin-top="0"
     fit-margin-left="0"
     fit-margin-right="0"
     inkscape:zoom="0.61458333"
     inkscape:cx="178"
     inkscape:cy="184.64753"
     inkscape:window-x="42"
     inkscape:window-y="25"
     inkscape:window-maximized="0"
     inkscape:current-layer="svg205" />
  <path
     d="m 153.401,131.127 c -5.354,18.257 -32.091,59.687 -61.487705,63.23 -22.1585,2.67 -14.208,-4.704 -21.2838,-8.561 -7.0757,-3.857 -19.0332,-2.494 -11.8587,8.173 3.3227,4.936 -7.3509,6.049 -21.4601,4.477 -13.5731,-1.51 -17.7494,5.355 -14.349,14.154 1.8342,4.745 9.2203,7.851 17.1779,8.591 6.8077,0.632 18.1091,0.584 27.9855,-2.435 10.9417,-3.343 13.6084,-4.924 27.767,-5.513 C 112.865,212.535 137.556,208.59 157.937,188.998 c 20.388,-19.591 0.818,-76.129 -4.536,-57.871 z"
     id="path119"
     inkscape:connector-curvature="0"
     style="clip-rule:evenodd;fill:#bbc746;fill-rule:evenodd" />
  <path
     d="m 151.158,142.673 c 0.028,-0.779 0.677,-1.389 1.46,-1.362 0.776,0.028 1.383,0.682 1.355,1.461 -0.381,10.836 -0.741,19.199 -3.316,28.184 -2.54,8.849 -5.002,20.164 -5.961,24.334 -0.169,0.759 -0.931,1.234 -1.693,1.06 -0.755,-0.175 -1.228,-0.934 -1.058,-1.693 0.966,-4.195 3.442,-15.578 5.996,-24.481 2.518,-8.767 2.843,-16.93 3.217,-27.503 z"
     id="path121"
     inkscape:connector-curvature="0"
     style="clip-rule:evenodd;fill:#858d32;fill-rule:evenodd" />
  <path
     d="m 8.8734353,193.167 c 0.08466,-3.886 14.4055597,-7.042 32.1478597,-7.042 17.7493,0 32.5922,3.18 32.1548,7.042 -0.0494,0.411 -3.4779,13.768 -4.2751,15.733 -1.2486,3.075 -10.081,6.182 -25.8692,6.182 -15.7882,0 -28.035,-2.857 -29.2131,-6.107 -0.395,-1.08 -4.9946397,-13.78 -4.9452597,-15.808 z"
     id="path123"
     inkscape:connector-curvature="0"
     style="clip-rule:evenodd;fill:#d07965;fill-rule:evenodd" />
  <path
     d="m 14.327395,192.415 c 1.2205,-2.767 7.6683,-6.986 13.7988,-13.284 6.1304,-6.299 8.2891,-5.875 14.9487,-6.535 6.6595,-0.661 14.7087,7.93 18.0808,11.942 3.3651,4.01 8.5291,5.525 6.9489,9.864 -0.3245,0.9 -9.2839,6.112 -30.3277,5.003 -18.6241,-0.98 -24.3736,-4.879 -23.4495,-6.99 z"
     id="path125"
     inkscape:connector-curvature="0"
     style="clip-rule:evenodd;fill:#713426;fill-rule:evenodd" />
  <path
     d="m 36.315995,173.334 c 1.3615,-10.894 2.4761,-17.246 -2.4762,-33.032 -4.9594,-15.786 -5.2698,-17.522 -4.7407,-22.25 0.7196,-6.383 5.7284,-4.711 4.5291,-0.481 -1.1922,4.231 -0.254,12.732 4.0987,20.566 4.3597,7.835 7.626,22.827 7.3227,35.668 -0.0283,1.115 -2.455,1.316 -4.5714,1.442 -2.4973,0.149 -4.4515,0.392 -4.1622,-1.913 z"
     id="path127"
     inkscape:connector-curvature="0"
     style="clip-rule:evenodd;fill:#3d8d2f;fill-rule:evenodd" />
  <path
     d="m 33.246995,117.605 c -10.8147,-0.228 15.7035,-20.266 27.9856,-5.047 9.3685,11.608 -6.2293,15.982 -10.0247,15.517 -3.8024,-0.466 -1.3968,-10.122 -17.9609,-10.47 z"
     id="path129"
     inkscape:connector-curvature="0"
     style="clip-rule:evenodd;fill:#56c742;fill-rule:evenodd" />
  <path
     d="m 32.280795,116.044 c 3.8236,-7.662 -6.3632,-19.4449 -19.7669,-16.1761 -13.39671768,3.2691 -15.9857397,18.0441 -8.0140497,24.3821 7.9646497,6.337 7.9081497,4.762 8.5219497,-1.386 0.6137,-6.148 15.8869,-11.817 18.088,-5.948 0.2186,0.589 0.7407,-0.006 1.171,-0.872 z"
     id="path131"
     inkscape:connector-curvature="0"
     style="clip-rule:evenodd;fill:#56c742;fill-rule:evenodd" />
  <path
     d="m 32.238795,110.487 c -0.5785,-6.856 -2.2575,-26.8331 13.8129,-24.4892 16.0633,2.3432 17.7776,17.3732 12.4937,21.0202 -5.2769,3.646 -6.6173,1.574 -7.1605,-0.728 -0.5432,-2.301 -10.3984,-2.748 -16.0633,6.164 -2.6102,4.117 -2.8148,1.165 -3.0828,-1.967 z"
     id="path133"
     inkscape:connector-curvature="0"
     style="clip-rule:evenodd;fill:#56c742;fill-rule:evenodd" />
  <path
     d="m 44.302395,112.227 c -0.776,0.12 -1.4956,-0.409 -1.6155,-1.178 -0.1199,-0.77 0.4092,-1.493 1.1781,-1.612 3.9577,-0.615 8.3738,0.721 11.3226,3.119 2.1023,1.716 3.4568,3.966 3.5414,6.405 0.0282,0.779 -0.5785,1.434 -1.3545,1.461 -0.7831,0.028 -1.432,-0.581 -1.4603,-1.36 -0.0634,-1.663 -1.0723,-3.146 -2.5114,-4.316 -2.3633,-1.929 -5.9188,-3.013 -9.1004,-2.519 z"
     id="path135"
     inkscape:connector-curvature="0"
     style="clip-rule:evenodd;fill:#3d8d2f;fill-rule:evenodd" />
  <path
     d="m 25.945795,105.879 c 0.5432,0.558 0.5291,1.453 -0.0282,1.998 -0.5574,0.544 -1.4462,0.534 -1.9965,-0.023 -2.6807,-2.746 -6.7865,-3.888 -10.5537,-2.444 -2.582,0.992 -4.9734697,3.191 -6.6947897,6.824 -0.33862,0.704 -1.17806,1.005 -1.88352,0.67 -0.69841,-0.334 -1.00181,-1.177 -0.67024,-1.881 2.10227,-4.429 5.09345,-7.041 8.2398497,-8.25 4.8394,-1.857 10.1304,-0.426 13.5871,3.106 z"
     id="path137"
     inkscape:connector-curvature="0"
     style="clip-rule:evenodd;fill:#3d8d2f;fill-rule:evenodd" />
  <path
     d="m 38.424995,100.266 c -0.2045,0.751 -0.9876,1.192 -1.7354,0.984 -0.7478,-0.208 -1.1922,-0.986 -0.9806,-1.7372 1.411,-5.115 3.9506,-8.4021 6.8924,-9.9673 3.097,-1.6429 6.6948,-1.484 10.2009,0.5796 0.6772,0.3954 0.896,1.2616 0.5009,1.933 -0.395,0.6721 -1.2558,0.8966 -1.9259,0.5013 -2.5679,-1.5073 -5.1922,-1.7206 -7.4496,-0.5197 -2.4057,1.2779 -4.3457,4.0504 -5.5027,8.2263 z"
     id="path139"
     inkscape:connector-curvature="0"
     style="clip-rule:evenodd;fill:#3d8d2f;fill-rule:evenodd" />
  <path
     d="m 195.306,270.104 c -0.042,9.933 -5.721,53.311 -2.504,63.506 3.224,10.194 -3.768,14.854 -15.718,24.209 -11.951,9.354 -18.25,8.055 -31.464,0.035 -13.213,-8.013 -20.641,-13.774 -4.366,-18.279 16.282,-4.497 16.331,-6 24.839,-13.442 7.174,-6.269 -12.564,-49.485 -11.958,-66.551"
     id="path141"
     inkscape:connector-curvature="0"
     style="clip-rule:evenodd;fill:#bbc746;fill-rule:evenodd" />
  <path
     d="m 169.979,289.354 c 6.942,3.76 12.41,5.871 19.514,8.285 z"
     id="path143"
     inkscape:connector-curvature="0"
     style="clip-rule:evenodd;fill:#bbc746;fill-rule:evenodd" />
  <path
     d="m 223.094,80.2997 c -11.245,24.8753 -12.635,30.0373 -12.635,30.0373 15.393,16.54 25.523,25.843 28.423,44.357 1.982,12.698 1.594,12.852 3.28,16.375 10.624,22.182 8.713,40.191 11.612,49.408 4.021,12.82 22.194,14.432 22.194,14.432 -4.028,-2.399 -25.108,-12.332 -17.764,-42.439 7.337,-30.106 26.123,-37.874 47.534,-41.825 21.418,-3.951 56.021,14.129 48.5,60.839 -7.52,46.71 -48.084,78.142 -90.08,89.269 -41.989,11.119 -84.655,2.541 -110.277,-22.188 -32.67,-31.531 -1.884,-94.608 -0.219,-129.273 C 155.32,114.626 125.529,99.8121 121.952,80.2305 118.947,63.7455 154.001,-0.823012 174.466,0.00794792 194.932,0.839614 230.522,63.8726 223.094,80.2997 Z"
     id="path145"
     inkscape:connector-curvature="0"
     style="clip-rule:evenodd;fill:#bbc746;fill-rule:evenodd" />
  <path
     d="m 137.726,69.8022 c 10.521,0 19.051,-8.729 19.051,-19.4968 0,-10.7678 -8.53,-19.4969 -19.051,-19.4969 -10.522,0 -19.051,8.7291 -19.051,19.4969 0,10.7678 8.529,19.4968 19.051,19.4968 z"
     id="path147"
     inkscape:connector-curvature="0"
     style="fill:#e2e7af" />
  <path
     d="m 143.595,32.3469 c -0.727,-0.2626 -1.115,-1.0717 -0.847,-1.8052 0.261,-0.7343 1.066,-1.1162 1.799,-0.8536 10.004,3.583 17.602,14.4617 13.404,27.5897 -1.891,5.905 -5.961,10.5519 -11.485,12.7991 -5.453,2.2168 -12.352,2.1102 -20.007,-1.5864 -0.698,-0.3382 -0.994,-1.1833 -0.656,-1.885 0.339,-0.7018 1.186,-0.9969 1.884,-0.658 6.779,3.2751 12.889,3.4777 17.721,1.5129 4.755,-1.9344 8.233,-5.9593 9.855,-11.0432 3.662,-11.4484 -2.941,-20.9462 -11.668,-24.0703 z"
     id="path149"
     inkscape:connector-curvature="0"
     style="clip-rule:evenodd;fill:#858d32;fill-rule:evenodd" />
  <path
     d="m 209.259,69.1195 c 10.521,0 19.051,-8.5886 19.051,-19.1833 0,-10.5947 -8.53,-19.1834 -19.051,-19.1834 -10.522,0 -19.051,8.5887 -19.051,19.1834 0,10.5947 8.529,19.1833 19.051,19.1833 z"
     id="path151"
     inkscape:connector-curvature="0"
     style="fill:#e2e7af" />
  <path
     d="m 203.545,29.398 c 0.776,-0.065 1.453,0.5132 1.517,1.2898 0.07,0.7766 -0.508,1.4593 -1.284,1.5242 -2.547,0.2118 -5.679,2.1548 -8.254,5.0995 -3.965,4.5431 -6.54,11.5593 -3.337,19.0054 5.609,13.0419 19.168,13.5122 27.774,8.6528 0.677,-0.3834 1.538,-0.1434 1.926,0.5358 0.381,0.6785 0.141,1.5405 -0.536,1.9232 -9.848,5.5611 -25.34,4.9285 -31.753,-9.9956 -3.703,-8.6075 -0.783,-16.7279 3.803,-21.9798 3.132,-3.5858 7.047,-5.7977 10.144,-6.0553 z"
     id="path153"
     inkscape:connector-curvature="0"
     style="clip-rule:evenodd;fill:#858d32;fill-rule:evenodd" />
  <path
     d="m 173.98,6.75519 c 0.077,-0.77589 0.769,-1.34281 1.545,-1.26657 0.769,0.07625 1.34,0.76814 1.262,1.54403 -1.157,11.72455 -0.924,21.21035 -1.354,33.92105 -0.423,12.6967 -0.303,25.6723 0.677,39.1921 0.057,0.7773 -0.529,1.4537 -1.305,1.5109 -0.776,0.0565 -1.453,-0.5288 -1.51,-1.3061 -0.987,-13.6229 -1.114,-26.6981 -0.677,-39.4922 0.43,-12.7799 0.198,-22.3159 1.362,-34.10321 z"
     id="path155"
     inkscape:connector-curvature="0"
     style="clip-rule:evenodd;fill:#858d32;fill-rule:evenodd" />
  <path
     d="m 182.861,79.8373 c -0.691,0.3664 -1.545,0.1059 -1.912,-0.5817 -0.367,-0.6884 -0.106,-1.544 0.586,-1.9105 1.693,-0.9058 3.365,-0.9636 4.846,-0.8076 1.08,0.1137 2.011,0.4102 2.688,0.2944 0.769,-0.1327 1.496,0.3833 1.63,1.1515 0.134,0.7681 -0.381,1.4988 -1.15,1.6315 -0.734,0.1257 -1.693,-0.024 -2.801,-0.1843 -1.136,-0.1652 -2.504,-0.3318 -3.887,0.4067 z"
     id="path157"
     inkscape:connector-curvature="0"
     style="clip-rule:evenodd;fill:#858d32;fill-rule:evenodd" />
  <path
     d="m 161.902,77.9149 c 0.043,-0.005 0.381,-0.0438 0.586,-0.0961 0.508,-0.1264 1.079,-0.3148 1.665,-0.4638 1.608,-0.4053 3.315,-0.4709 4.733,0.6573 0.607,0.485 0.706,1.3746 0.219,1.9838 -0.48,0.61 -1.369,0.7103 -1.982,0.2252 -0.431,-0.3452 -0.939,-0.353 -1.439,-0.2922 -0.508,0.0614 -1.016,0.2054 -1.489,0.3431 -1.213,0.353 -2.321,0.5775 -3.055,0.3615 -0.747,-0.2189 -1.178,-1.004 -0.959,-1.7516 0.219,-0.7378 0.981,-1.1656 1.721,-0.9672 z"
     id="path159"
     inkscape:connector-curvature="0"
     style="clip-rule:evenodd;fill:#858d32;fill-rule:evenodd" />
  <path
     d="m 174.247,95.0083 c 4.755,-0.1059 5.453,-2.19 14.117,-3.2956 9.559,-1.2207 21.77,-11.392 20.035,-7.7872 -1.658,3.434 -22.194,20.9355 -35.753,19.3865 -13.559,-1.55 -30.666,-13.6276 -31.421,-16.0104 -0.868,-2.7498 10.49,4.8834 17.559,4.7747 6.271,-0.0967 8.564,3.0859 15.463,2.932 z"
     id="path161"
     inkscape:connector-curvature="0"
     style="clip-rule:evenodd;fill:#545a1f;fill-rule:evenodd" />
  <path
     d="m 208.336,113.972 c 0.345,-0.698 1.192,-0.983 1.89,-0.636 0.699,0.347 0.981,1.195 0.635,1.893 -2.589,5.217 -9.82,15.144 -13.474,18.727 -0.557,0.546 -1.446,0.537 -1.997,-0.02 -0.543,-0.557 -0.536,-1.452 0.022,-1.997 3.506,-3.437 10.44,-12.963 12.924,-17.967 z"
     id="path163"
     inkscape:connector-curvature="0"
     style="clip-rule:evenodd;fill:#858d32;fill-rule:evenodd" />
  <path
     d="m 278.832,238.783 c -0.705,-0.33 -1.009,-1.172 -0.677,-1.877 0.331,-0.706 1.171,-1.011 1.876,-0.681 18.328,8.584 37.333,1.599 42.201,-16.722 4.825,-18.137 -5.305,-35.246 -23.203,-32.758 -10.349,1.438 -13.77,9.723 -12.641,16.346 0.712,4.181 3.195,7.759 7.012,8.114 5.763,0.535 9.883,-2.192 10.744,-5.198 0.48,-1.658 -0.296,-3.285 -2.476,-4.162 -0.72,-0.291 -1.073,-1.113 -0.783,-1.837 0.289,-0.723 1.114,-1.074 1.834,-0.783 3.88,1.561 4.988,4.613 4.141,7.564 -1.129,3.904 -6.229,7.924 -13.721,7.228 -3.824,-0.356 -6.794,-2.995 -8.416,-6.682 -3.577,-8.131 -0.537,-21.379 13.918,-23.388 19.979,-2.777 31.704,16.031 26.321,36.282 -5.333,20.065 -26.053,27.954 -46.13,18.554 z"
     id="path165"
     inkscape:connector-curvature="0"
     style="clip-rule:evenodd;fill:#858d32;fill-rule:evenodd" />
  <path
     d="m 136.526,48.208 c 0.533,-0.1953 1.126,-0.2376 1.722,-0.1375 0.259,-0.0451 0.537,-0.0691 0.837,-0.0705 0.83,-0.0028 1.679,0.2348 2.339,0.7729 0.93,0.758 1.309,1.629 1.349,2.4688 0.025,0.5261 -0.092,1.0535 -0.323,1.5493 0.027,0.2461 0.027,0.4901 -0.003,0.7306 -0.275,2.2467 -2.204,3.1676 -4.288,2.9702 -1.919,-0.1819 -3.842,-1.3765 -4.361,-2.9787 -0.537,-1.6536 -0.292,-2.8948 0.289,-3.7642 0.543,-0.8138 1.433,-1.3328 2.439,-1.5409 z"
     id="path167"
     inkscape:connector-curvature="0"
     style="clip-rule:evenodd;fill:#545a1f;fill-rule:evenodd" />
  <path
     d="m 203.09,48.7977 c 0.263,-0.5514 0.657,-1.0267 1.191,-1.3758 0.449,-0.2933 1.036,-0.4273 1.689,-0.3871 0.34,-0.0565 0.69,-0.0423 1.043,0.0289 0.865,0.1742 1.752,0.7453 2.374,1.2418 1.515,1.2101 2.261,2.8785 1.988,4.3524 -0.122,0.653 -0.433,1.2933 -0.993,1.8567 -0.465,0.7947 -1.252,1.4287 -2.464,1.6811 -0.881,0.1841 -1.731,0.005 -2.482,-0.4238 -1.363,-0.4992 -2.474,-2.0316 -2.819,-3.6895 -0.248,-1.1896 -0.107,-2.3849 0.473,-3.2847 z"
     id="path169"
     inkscape:connector-curvature="0"
     style="clip-rule:evenodd;fill:#545a1f;fill-rule:evenodd" />
  <path
     d="m 191.778,261.212 c 1.827,12.303 16.48,60.65 19.428,69.369 2.956,8.712 -16.458,21.646 -22.948,31.996 -6.49,10.35 14.977,15.758 30.539,13.76 15.563,-1.998 26.187,-0.904 22.476,-16.57 -3.704,-15.666 -8.684,-25.811 -8.113,-35.978 0.565,-10.159 19.556,-61.576 19.266,-84.47 -0.282,-22.892 -62.475,9.589 -60.648,21.893 z"
     id="path171"
     inkscape:connector-curvature="0"
     style="clip-rule:evenodd;fill:#bbc746;fill-rule:evenodd" />
  <path
     d="m 252.751,230.784 c 0.028,-0.778 0.691,-1.384 1.467,-1.351 0.776,0.034 1.383,0.692 1.348,1.471 -0.671,15.884 -5.969,53.313 -13.771,70.738 -0.318,0.713 -1.157,1.031 -1.87,0.713 -0.705,-0.317 -1.03,-1.151 -0.705,-1.864 7.682,-17.171 12.868,-54.056 13.531,-69.707 z"
     id="path173"
     inkscape:connector-curvature="0"
     style="clip-rule:evenodd;fill:#858d32;fill-rule:evenodd" />
  <path
     d="m 200.053,297.597 c 0.275,0.727 -0.099,1.539 -0.832,1.814 -0.727,0.269 -1.538,-0.099 -1.813,-0.833 -3.542,-9.513 -4.558,-22.727 -4.847,-33.221 -0.021,-0.78 0.593,-1.429 1.369,-1.451 0.783,-0.021 1.432,0.594 1.453,1.373 0.282,10.205 1.227,23.062 4.67,32.318 z"
     id="path175"
     inkscape:connector-curvature="0"
     style="clip-rule:evenodd;fill:#858d32;fill-rule:evenodd" />
  <path
     d="m 189.732,326.091 c -2.631,0.727 -5.354,-0.819 -6.081,-3.445 -0.727,-2.634 0.818,-5.359 3.443,-6.086 26.038,-7.208 23.569,-43.942 -3.422,-55.355 -2.511,-1.062 -3.689,-3.964 -2.631,-6.476 1.065,-2.513 3.965,-3.691 6.476,-2.629 36.021,15.233 36.959,64.368 2.215,73.991 z"
     id="path177"
     inkscape:connector-curvature="0"
     style="clip-rule:evenodd;fill:#a84d39;fill-rule:evenodd" />
  <path
     d="m 120.731,280.039 c 0.487,-2.759 6.511,-4.237 15.506,-4.299 6.688,-0.046 12.896,-1.935 20.67,0.027 2.681,0.675 5.467,2.634 6.546,2.847 19.316,3.8 33.898,10.231 33.093,14.789 l -10.236,58.153 c -1.136,6.453 -18.553,7.625 -39.47,3.94 -20.924,-3.693 -37.502,-10.696 -36.345,-17.304 z"
     id="path179"
     inkscape:connector-curvature="0"
     style="clip-rule:evenodd;fill:#d07965;fill-rule:evenodd" />
  <path
     d="m 175.954,283.314 c 8.967,2.532 12.868,4.143 15.711,7.456 1.714,1.991 -20.388,-1.858 -22.991,-3.477 -1.496,-0.929 -4.649,-2.865 -5.82,-5.314 -1.559,-3.249 9.002,0.177 13.1,1.335 z"
     id="path181"
     inkscape:connector-curvature="0"
     style="clip-rule:evenodd;fill:#59291e;fill-rule:evenodd" />
  <path
     d="m 127.151,288.64 c -0.685,-0.382 -0.924,-1.244 -0.543,-1.923 0.38,-0.679 1.241,-0.92 1.925,-0.538 7.316,4.118 34.991,12.795 60.275,9.709 0.769,-0.091 1.474,0.459 1.573,1.229 0.092,0.776 -0.458,1.482 -1.234,1.574 -26.004,3.17 -54.476,-5.81 -61.996,-10.051 z"
     id="path183"
     inkscape:connector-curvature="0"
     style="clip-rule:evenodd;fill:#c65b43;fill-rule:evenodd" />
  <path
     d="m 43.807595,294.25 c 0,0 68.352405,35.562 73.466405,37.884 5.122,2.323 10.377,-16.322 2.498,-19.005 C 114.671,311.399 52.872795,290 44.661295,286.367"
     id="path185"
     inkscape:connector-curvature="0"
     style="clip-rule:evenodd;fill:#a84d39;fill-rule:evenodd" />
  <path
     d="m 32.400795,272.254 c 1.3121,0.071 12.7123,12.76 13.9328,14.853 1.5732,2.71 1.0652,5.004 -0.4868,7.475 -0.4445,0.713 -17.2273,5.076 -18.3913,5.182 -6.5961,0.6 -3.492,-27.965 4.9453,-27.51 z"
     id="path187"
     inkscape:connector-curvature="0"
     style="clip-rule:evenodd;fill:#a84d39;fill-rule:evenodd" />
  <path
     d="m 31.554295,274.602 c 2.0247,0.357 2.7725,5.766 1.6578,12.072 -1.1075,6.306 -3.6542,11.135 -5.6789,10.775 -2.0246,-0.353 -2.7653,-5.761 -1.6578,-12.069 1.1076,-6.306 3.6543,-11.135 5.6789,-10.778 z"
     id="path189"
     inkscape:connector-curvature="0"
     style="clip-rule:evenodd;fill:#d07965;fill-rule:evenodd" />
  <path
     d="m 27.631695,298.486 c -0.5503,-3.212 -5.7566,8.571 -1.1923,9.553 4.5643,0.981 2.4762,-2.069 1.1923,-9.553 z"
     id="path191"
     inkscape:connector-curvature="0"
     style="clip-rule:evenodd;fill:#64a9d0;fill-rule:evenodd" />
  <path
     d="m 123.483,293.679 c 1.34,-0.255 2.638,0.621 2.892,1.962 0.261,1.335 -0.614,2.634 -1.954,2.895 -7.168,1.384 -37.156705,8.246 -37.156705,8.246 -1.3263,0.303 -2.6525,-0.53 -2.9558,-1.857 -0.3034,-1.334 0.5291,-2.654 1.8553,-2.965 0,0 30.123205,-6.884 37.319205,-8.281 z"
     id="path193"
     inkscape:connector-curvature="0"
     style="clip-rule:evenodd;fill:#a84d39;fill-rule:evenodd" />
  <path
     d="m 186.586,251.717 c 2.526,1.021 3.746,3.903 2.73,6.432 -1.023,2.53 -3.901,3.754 -6.426,2.733 -14.272,-5.763 -22.942,-5.361 -31.252,-1.356 -7.93,3.823 -11.697,11.447 -13.672,20.82 -0.565,2.668 -2.73,2.748 -5.397,2.185 -2.667,-0.564 -4.832,-1.558 -4.268,-4.227 2.653,-12.569 8.423,-22.557 19.055,-27.682 10.25,-4.944 21.615,-6.019 39.23,1.095 z"
     id="path195"
     inkscape:connector-curvature="0"
     style="clip-rule:evenodd;fill:#a84d39;fill-rule:evenodd" />
  <path
     d="m 202.063,157.311 c 3.323,15.497 1.263,28.18 -8.296,52.716 -11.689,29.994 -22.504,29.043 -26.885,32.361 -3.012,2.282 1.51,4.974 -0.402,8.892 -3.859,7.881 -9.404,3.773 -9.136,8.25 0.318,5.473 9.185,13.013 20.91,16.357 6.399,1.826 13.623,-4.126 17.94,-17.277 2.575,-7.848 1.178,-6.032 5.94,-14.696 4.769,-8.663 34.751,-35.406 37.502,-66.342 1.63,-18.246 -2.109,-33.425 -10.483,-44.19 -8.367,-10.763 -30.405,8.432 -27.09,23.929 z"
     id="path197"
     inkscape:connector-curvature="0"
     style="clip-rule:evenodd;fill:#bbc746;fill-rule:evenodd" />
  <path
     d="m 200.293,162.231 c -0.077,-0.775 0.494,-1.465 1.27,-1.539 0.776,-0.074 1.467,0.495 1.538,1.271 1.756,18.452 1.785,27.512 -6.462,46.78 -10.624,24.829 -17.912,29.011 -29.919,32.339 -2.631,0.729 -4.084,1.564 -4.952,2.471 -0.847,0.886 -1.108,1.813 -1.467,2.631 -0.318,0.713 -1.15,1.036 -1.863,0.721 -0.712,-0.314 -1.037,-1.149 -0.719,-1.862 0.472,-1.081 0.889,-2.271 2.01,-3.442 1.101,-1.152 2.9,-2.314 6.243,-3.241 11.337,-3.144 18.032,-7.27 28.078,-30.729 8,-18.698 7.95,-27.494 6.243,-45.4 z"
     id="path199"
     inkscape:connector-curvature="0"
     style="clip-rule:evenodd;fill:#858d32;fill-rule:evenodd" />
  <path
     d="m 238.952,174.672 c 0.134,-0.769 0.861,-1.289 1.63,-1.161 0.769,0.129 1.284,0.857 1.157,1.626 -3.506,21.033 -9.792,33.211 -23.591,50.361 -16.726,20.793 -18.391,28.069 -21.008,36.424 -4.812,15.315 -21.439,14.768 -28.064,11.634 -7.329,-3.466 -12.507,-7.624 -14.081,-12.502 -0.239,-0.742 0.17,-1.538 0.91,-1.777 0.741,-0.24 1.538,0.168 1.778,0.91 1.383,4.302 6.138,7.76 12.6,10.816 5.693,2.695 20.028,3.244 24.162,-9.927 2.688,-8.563 4.366,-16.039 21.509,-37.348 13.439,-16.71 19.584,-28.564 22.998,-49.056 z"
     id="path201"
     inkscape:connector-curvature="0"
     style="clip-rule:evenodd;fill:#858d32;fill-rule:evenodd" />
  <path
     d="m 163.891,258.224 c -0.642,0.441 -1.517,0.277 -1.961,-0.366 -0.437,-0.643 -0.275,-1.523 0.367,-1.963 2.885,-1.981 4.613,-5.426 3.901,-8.519 -0.176,-0.76 0.303,-1.518 1.058,-1.693 0.762,-0.175 1.517,0.3 1.693,1.059 0.953,4.141 -1.192,8.83 -5.058,11.482 z"
     id="path203"
     inkscape:connector-curvature="0"
     style="clip-rule:evenodd;fill:#858d32;fill-rule:evenodd" />
</svg>
