<?xml version="1.0" encoding="UTF-8" standalone="no"?>
<svg
   xmlns:dc="http://purl.org/dc/elements/1.1/"
   xmlns:cc="http://creativecommons.org/ns#"
   xmlns:rdf="http://www.w3.org/1999/02/22-rdf-syntax-ns#"
   xmlns:svg="http://www.w3.org/2000/svg"
   xmlns="http://www.w3.org/2000/svg"
   xmlns:sodipodi="http://sodipodi.sourceforge.net/DTD/sodipodi-0.dtd"
   xmlns:inkscape="http://www.inkscape.org/namespaces/inkscape"
   width="302.27026"
   height="277.27402"
   style="overflow:visible"
   version="1.1"
   id="svg269"
   sodipodi:docname="perso03.svg"
   inkscape:version="0.92.5 (2060ec1f9f, 2020-04-08)">
  <metadata
     id="metadata275">
    <rdf:RDF>
      <cc:Work
         rdf:about="">
        <dc:format>image/svg+xml</dc:format>
        <dc:type
           rdf:resource="http://purl.org/dc/dcmitype/StillImage" />
      </cc:Work>
    </rdf:RDF>
  </metadata>
  <defs
     id="defs273" />
  <sodipodi:namedview
     pagecolor="#ffffff"
     bordercolor="#666666"
     borderopacity="1"
     objecttolerance="10"
     gridtolerance="10"
     guidetolerance="10"
     inkscape:pageopacity="0"
     inkscape:pageshadow="2"
     inkscape:window-width="640"
     inkscape:window-height="480"
     id="namedview271"
     showgrid="false"
     inkscape:zoom="0.39333333"
     inkscape:cx="-39.264358"
     inkscape:cy="286.63805"
     inkscape:window-x="42"
     inkscape:window-y="25"
     inkscape:window-maximized="0"
     inkscape:current-layer="svg269" />
  <g
     id="g265"
     transform="translate(-144.63218,-154.68201)">
    <svg
       id="svg232"
       version="1.1"
       style="overflow:visible"
       height="600"
       width="500">
      <svg
         id="svg230"
         version="1.1"
         style="overflow:visible"
         height="600"
         width="500"
         preserveAspectRatio="xMidYMin slice"
         viewBox="0 0 500 600">
        <g
           id="g228">
          <svg
             height="100%"
             width="100%"
             id="svg226"
             version="1.1"
             viewBox="0 0 500 600">
            <path
               style="fill:#ffffff;fill-rule:evenodd"
               inkscape:connector-curvature="0"
               id="path200"
               d="M 166.5,261.7 C 241.3,275.2 252,274 328,258.4 q 2.5,86.7 -11.3,108.1 c -13.9,21.4 -119.2,20 -135.6,-2.8 q -16.5,-22.8 -14.6,-102 z" />
            <path
               style="fill-rule:evenodd"
               inkscape:connector-curvature="0"
               id="path202"
               d="m 189.5,363.9 0.4,0.3 -0.4,-0.3 m -18,-60.4 v 0.3 c 0.1,0 0,-0.1 0,-0.3 M 329.7,251 c -9.5,2.9 -3.1,18.2 -4,25.8 -0.3,24.8 0.9,50.3 -8.1,73.9 l 0.5,-1.2 -1.3,3 0.3,-0.8 c -12.6,29.2 -49.6,21.2 -75.3,21.6 -34,-0.9 -63.3,-1 -65.9,-42.8 -4.3,-21.1 -5.9,-42.3 -7.9,-63.7 -0.7,-4.1 0.6,-8.3 -0.2,-12.2 -1,-1.9 -4.4,-1.6 -4.8,0.7 -2.6,34.3 -1.1,70 9.4,102.9 9.7,23.7 38.6,24.2 60.5,25.8 45.4,3.6 90.9,5.2 100.1,-50.3 2.5,-12.1 9.8,-80.5 -3,-82.8 h -0.3" />
            <path
               style="fill:#bd8d46;fill-rule:evenodd"
               inkscape:connector-curvature="0"
               id="path204"
               d="m 275.3,244 c -15.6,2.3 -108.7,-4.3 -104.2,15.7 2.6,9.3 6.3,13.4 16.5,10.7 22.9,-0.9 45.7,-1.9 68.5,-4 22.8,-2.1 44.5,3 65.9,-1.7 7.7,-2.9 7.2,-14.4 -0.5,-16.8 -15.1,-2.5 -30.6,-3.4 -45.9,-3.9 h -0.3" />
            <path
               style="fill-rule:evenodd"
               inkscape:connector-curvature="0"
               id="path206"
               d="m 315.9,243.6 0.4,0.2 -0.4,-0.2 v 0 m -144.7,21.9 a 0.1,0.1 0 0 1 0.1,0.1 h -0.1 m -3,-2.4 a 44,44 0 0 0 4.5,3 c -1.7,-0.5 -3.7,-1.2 -4.5,-3 m 4.2,-1.8 v 0 m -3.5,-2.5 v 0 m 147.3,-2.5 v 0.2 c 0,-0.1 0,-0.2 -0.1,-0.2 M 314.3,243 v 0 m -101.9,0.2 c 26.7,1.7 86.4,-6.8 104,13.4 v 0.6 c -22.1,6.4 -46.4,3.8 -69.3,6.5 -13.8,-0.5 -82.2,11 -77.6,-10.5 7,-7 19.3,-6.4 28.7,-8.5 h -0.7 c 4.8,-0.7 9.8,-1.3 14.9,-1.6 m 18.5,-6.2 c -17.8,-0.7 -95.8,3.8 -60.7,33.8 14.6,7.9 208.9,9.6 145.1,-27.2 h -0.2 c -2.1,-0.9 -5,-3 -6.8,-0.5 -24.9,-7.9 -51.9,-5 -77.6,-6.1 h 0.2" />
            <path
               style="fill-rule:evenodd"
               inkscape:connector-curvature="0"
               id="path208"
               d="m 221.3,236 c -18.2,4.8 -39.6,5.6 -53.1,19.8 a 0.9,0.9 0 0 0 1.6,0.7 c 6.5,-4.4 14,-8.7 21.8,-10.7 2.8,-1.7 38.6,-6.9 29.7,-9.8" />
            <path
               style="fill-rule:evenodd"
               inkscape:connector-curvature="0"
               id="path210"
               d="m 320.2,255.5 c 0.1,0.1 0.1,0.3 0.2,0.4 z m -0.2,-0.2 z m -0.1,-1.1 c 0,0.2 0.1,0.3 0.1,0.5 a 0.7,0.7 0 0 0 -0.1,-0.5 z m -83.8,-11.7 c 13,-4.1 124.2,8.9 65.5,19.4 -40.4,7.5 -222.2,-2.9 -65.5,-19.4 z m 7.8,-9.3 c -17.3,-0.9 -113.2,5 -71.4,34.7 39.2,10.1 80.7,7.8 120.7,4.8 15,0.8 53.6,-12.8 27,-28.2 -23.8,-10.7 -50.6,-11.2 -76.3,-11.3 z" />
            <path
               style="fill-rule:evenodd"
               inkscape:connector-curvature="0"
               id="path212"
               d="m 229.8,192.9 c -14.4,8.4 -13,29.3 -3.9,41.3 3.9,7.4 -0.9,18 -9.5,18.7 a 2.3,2.3 0 0 0 -2.3,2.3 c 3.7,6.8 14,-2.7 16.4,-7.3 6.1,-10.2 -2.7,-19.6 -4.9,-29.3 -4.1,-8.8 15.4,-26.4 4.2,-25.7" />
            <path
               style="fill-rule:evenodd"
               inkscape:connector-curvature="0"
               id="path214"
               d="m 241.4,157.3 c -21.7,41.8 29.8,78.3 4.1,97.3 -2.8,-0.2 -6.6,2.9 -2.3,4.3 30.5,-9.8 4.2,-47.4 0.7,-67.5 -3.8,-6 13,-47.4 -2.5,-34.1" />
            <path
               style="fill-rule:evenodd"
               inkscape:connector-curvature="0"
               id="path216"
               d="m 272.8,241 a 0.6,0.6 0 0 1 -0.1,0.4 0.6,0.6 0 0 0 0.1,-0.4 m -3.3,-57.7 c -9.4,8.1 -8.8,24.3 -5.8,35.5 1.7,8.7 11.5,16.1 8.4,25.1 -0.4,4.9 -11.9,5.5 -7.1,10.5 7.4,0.9 13.1,-8.1 13.5,-14.8 -0.7,-9.3 -8.3,-17 -9,-26.5 -3.9,-9 10.5,-31.8 0,-29.8" />
            <path
               style="fill-rule:evenodd"
               inkscape:connector-curvature="0"
               id="path218"
               d="m 228.5,381.9 a 120.5,120.5 0 0 1 -0.8,30 0.7,0.7 0 0 1 0.1,-0.5 l -0.6,4.6 c -21.4,1.5 -12.6,24.5 8.9,9.6 4.5,-13.2 0.6,-29.6 0.3,-43.8 0.1,-5.1 -8.1,-4.9 -7.9,0.1" />
            <path
               style="fill-rule:evenodd"
               inkscape:connector-curvature="0"
               id="path220"
               d="m 260.8,385.8 c 1.8,14.2 -1.6,28.8 -0.1,42.7 2.5,4.1 15.9,4.9 18.5,0.5 3.4,-6.1 -4.7,-10.3 -9.9,-8.9 -1.4,-11.7 -0.9,-23.7 -5,-35 a 1.9,1.9 0 0 0 -1.3,-1.3 c -0.9,0.4 -2.3,0.6 -2.2,2" />
            <path
               style="fill-rule:evenodd"
               inkscape:connector-curvature="0"
               id="path222"
               d="m 332.8,266.4 v 0 m 84.4,-11.9 h 1 c -0.1,0 -0.1,0.1 -0.1,0.2 a 6.3,6.3 0 0 1 -3.3,0.2 c 0.9,0 1.4,-0.3 2.4,-0.3 m 24,-11.5 c -25.2,2.8 -49.6,10 -74.5,14.8 -8.1,3.7 -34.8,4 -36.6,12.1 a 3,3 0 0 0 4.7,1.5 c 23.6,-6.3 47.7,-11.1 71.8,-15.2 -0.7,13.8 20.9,7.6 24.4,-1.2 5.2,-1.4 14.6,-1 15.9,-7.6 0.1,-3 -2.9,-4.4 -5.6,-4.3 0.1,-0.1 0,-0.1 -0.1,-0.1" />
            <path
               style="fill-rule:evenodd"
               inkscape:connector-curvature="0"
               id="path224"
               d="m 164,266 c 4.2,1.1 0.4,7.6 0.6,10.6 2,21.1 -9.5,44.3 -8.1,66.5 v 0 c 2.6,3.9 -0.6,7.9 -1.3,11.9 v -0.3 c 0.5,5.1 -6,8.9 -9.4,4.4 -2.4,-8.6 -0.7,-18.7 1.5,-27.3 3.6,-13.7 7.8,-27.1 10,-41.1 2.2,-6.1 2.2,-21.7 6.7,-24.7 z" />
          </svg>
        </g>
      </svg>
    </svg>
    <svg
       id="svg263"
       version="1.1"
       style="overflow:visible"
       height="600"
       width="500">
      <svg
         id="svg261"
         version="1.1"
         style="overflow:visible"
         height="600"
         width="500"
         preserveAspectRatio="xMidYMin slice"
         viewBox="0 0 500 600">
        <g
           id="g259">
          <svg
             height="100%"
             width="100%"
             id="svg257"
             version="1.1"
             viewBox="0 0 500 600">
            <defs
               id="defs237">
              <mask
                 maskUnits="userSpaceOnUse"
                 height="21.02"
                 width="24.12"
                 y="333.03"
                 x="237.49"
                 id="a">
                <polygon
                   style="fill:#ffffff;fill-rule:evenodd"
                   id="polygon234"
                   points="261.6,354 237.5,354 237.5,333.2 261.6,333.2 " />
              </mask>
            </defs>
            <g
               id="g243"
               mask="url(#a)">
              <path
                 style="fill-rule:evenodd"
                 inkscape:connector-curvature="0"
                 id="path239"
                 d="m 251,339.1 c 4.4,0.5 5.4,5.9 4.2,9.4 -4.1,-1.8 -8.2,-0.7 -12.2,0.7 0.5,-4.6 2.5,-10.3 8,-10.1 m -2.9,-5.5 c -10.6,1.3 -16.8,26.6 -0.5,19 v 0 a 6.6,6.6 0 0 1 5.5,0.5 h -0.2 c 14.1,5.7 10,-24.3 -4.8,-19.4" />
              <path
                 style="fill-rule:evenodd"
                 inkscape:connector-curvature="0"
                 id="path241"
                 d="m 248,343 c -4.1,-0.8 -13.3,7 -6.6,9 9.1,-0.1 26.4,-8.6 6.6,-9" />
            </g>
            <path
               style="fill-rule:evenodd"
               inkscape:connector-curvature="0"
               id="path245"
               d="m 292.1,286 c -4.2,3.7 -54.1,17.9 -34.5,22.6 13.4,-6.1 27.6,-10.4 40.3,-17.4 v 0 c 3.4,-3.9 -2.2,-8 -5.8,-5.2" />
            <path
               style="fill-rule:evenodd"
               inkscape:connector-curvature="0"
               id="path247"
               d="m 276.2,312 v 0 m -0.1,-0.2 v 0 m -0.3,-0.3 v 0 M 275,305 v 0 m 0.1,-0.4 a 3.5,3.5 0 0 0 0.3,-1.3 3.4,3.4 0 0 1 2.6,3.6 4.4,4.4 0 0 0 -3.7,-0.1 19.5,19.5 0 0 1 0.8,-2.2 m -0.3,-6.3 c -9.8,3.2 -8.5,20.9 2.4,20.6 8.1,-2.9 8.6,-23.1 -2.4,-20.6" />
            <path
               style="fill-rule:evenodd"
               inkscape:connector-curvature="0"
               id="path249"
               d="m 280.5,313.1 a 13,13 0 0 0 -4.3,2.7 c -7.9,0.5 -8.9,8.3 1,3.7 4.5,1.8 10.7,-6.4 3.3,-6.4" />
            <path
               style="fill-rule:evenodd"
               inkscape:connector-curvature="0"
               id="path251"
               d="m 202.7,293.1 c -3.3,0.9 -1,6.2 1.9,4.8 11.9,2.3 24,4.8 35.3,9.1 16.7,-7.1 -33.2,-13 -37.2,-13.9" />
            <path
               style="fill-rule:evenodd"
               inkscape:connector-curvature="0"
               id="path253"
               d="m 225.5,305.8 v 0 m -0.6,-0.3 c 1.3,0.5 0.1,2.3 0.2,3.4 a 4.5,4.5 0 0 0 -2.3,-0.1 10.3,10.3 0 0 1 2.1,-3.3 m -0.3,-5.4 c -14,-0.4 -13.7,21.8 0.9,19.6 5.8,-2.7 9.5,-21.6 -0.9,-19.6" />
            <path
               style="fill-rule:evenodd"
               inkscape:connector-curvature="0"
               id="path255"
               d="m 215.5,318.1 v 0 m -2.4,1.1 c -0.3,4.1 16.3,4.9 18.3,4.2 2.4,-3.9 -5.1,-3.2 -7.3,-4 -2.2,-0.8 -8.6,-3.2 -11,-0.2" />
          </svg>
        </g>
      </svg>
    </svg>
  </g>
</svg>
