<svg width="240" height="346" xmlns="http://www.w3.org/2000/svg">

 <g label="Layer 1" id="imagebot_2">
  <title>Layer 1</title>
  <g transform="translate(-7, 4) matrix(0.883029, 0, 0, 0.896934, 12, 20)" id="imagebot_51">
   <path label="Layer 1" stroke-linejoin="round" stroke="#000000" stroke-linecap="round" stroke-width="12.256" fill="#ffaa56" transform="matrix(-0.260402, 0, 0, 0.226971, 171.784, 60.3058)" d="M-213.36,635.21002C-229.372,625.66502 -233.544,604.18902 -224.157,588.53702C-213.154,570.19102 -188.501,565.42802 -170.555,576.25302C-149.618,588.88302 -144.199,617.07002 -156.629,637.56502C-171.068,661.37302 -203.175,667.51502 -226.495,653.30002C-253.473,636.85502 -260.412,600.41302 -244.217,573.97302C-225.554,543.50402 -184.331,535.68902 -154.453,554.07402C-120.148,575.18302 -111.373,621.66502 -132.173,655.32402C-136.16,661.77562 -141.0941,667.63302 -146.758,672.67602" id="imagebot_14"/>
   <path label="Layer 1" stroke-linejoin="round" stroke="#000000" stroke-linecap="round" stroke-width="12.256" fill="#ffaa56" transform="matrix(-0.260402, 0, 0, 0.226971, 169.728, 47.1657)" d="M-213.36,635.21002C-229.372,625.66502 -233.544,604.18902 -224.157,588.53702C-213.154,570.19102 -188.501,565.42802 -170.555,576.25302C-149.618,588.88302 -144.199,617.07002 -156.629,637.56502C-171.068,661.37302 -203.175,667.51502 -226.495,653.30002C-253.473,636.85502 -260.412,600.41302 -244.217,573.97302C-225.554,543.50402 -184.331,535.68902 -154.453,554.07402C-120.148,575.18302 -111.373,621.66502 -132.173,655.32402C-136.16,661.77562 -141.0941,667.63302 -146.758,672.67602" id="imagebot_21"/>
   <path label="Layer 1" stroke-linejoin="round" stroke="#000000" stroke-linecap="round" stroke-width="12.256" fill="#ffaa56" transform="matrix(-0.260402, 0, 0, 0.226971, 168.835, 27.2918)" d="M-213.36,635.21002C-229.372,625.66502 -233.544,604.18902 -224.157,588.53702C-213.154,570.19102 -188.501,565.42802 -170.555,576.25302C-149.618,588.88302 -144.199,617.07002 -156.629,637.56502C-171.068,661.37302 -203.175,667.51502 -226.495,653.30002C-253.473,636.85502 -260.412,600.41302 -244.217,573.97302C-225.554,543.50402 -184.331,535.68902 -154.453,554.07402C-120.148,575.18302 -111.373,621.66502 -132.173,655.32402C-136.16,661.77562 -141.0941,667.63302 -146.758,672.67602" id="imagebot_22"/>
   <path label="Layer 1" stroke-linejoin="round" stroke="#000000" stroke-linecap="round" stroke-width="12.256" fill="#ffaa56" transform="matrix(-0.260402, 0, 0, 0.226971, 167.017, 6.52399)" d="M-213.36,635.21002C-229.372,625.66502 -233.544,604.18902 -224.157,588.53702C-213.154,570.19102 -188.501,565.42802 -170.555,576.25302C-149.618,588.88302 -144.199,617.07002 -156.629,637.56502C-171.068,661.37302 -203.175,667.51502 -226.495,653.30002C-253.473,636.85502 -260.412,600.41302 -244.217,573.97302C-225.554,543.50402 -184.331,535.68902 -154.453,554.07402C-120.148,575.18302 -111.373,621.66502 -132.173,655.32402C-136.16,661.77562 -141.0941,667.63302 -146.758,672.67602" id="imagebot_23"/>
   <rect transform="matrix(1.4898, 0, 0, 1.4898, 587.617, -723.791)" label="Layer 1" fill-rule="evenodd" fill="#ffaa56" x="-374.42" y="554.71" width="121.65" height="62.263" ry="9.895" rx="8.1432" id="imagebot_43"/>
   <path transform="matrix(0.89952, 3.06337, -2.62765, 0.771567, 984.603, -1283.18)" label="Layer 1" stroke-linejoin="round" fill-rule="evenodd" stroke="#000000" stroke-linecap="round" stroke-width="1.56" fill="#ff007f" d="M372.97,435.97 C366.853,437.579 360.188,428.977 357.578,414.077 C357.117,411.444 373.827,406.391 374.695,409.074 C379.332,423.415 379.184,434.335 372.97,435.97 L372.97,435.97 z" id="imagebot_12"/>
   <rect label="Layer 1" stroke-linejoin="round" fill-rule="evenodd" stroke="#060000" stroke-linecap="round" stroke-width="2.7363" fill="#ffdfc4" x="-273.78" y="625.29" width="26.147" height="19.458" transform="rotate(8.3269, 41.3035, 229.039) matrix(1.4898, 0, 0, 1.4898, 429.704, -717.013)" rx="11.553" ry="9.425" id="imagebot_7"/>
   <path transform="matrix(3.18472, -0.225645, -0.19356, -2.73174, -1035.16, 1425.23)" label="Layer 1" stroke-linejoin="round" fill-rule="evenodd" stroke="#000000" stroke-linecap="round" stroke-width="1.56" fill="#ff007f" d="M372.97,435.97 C366.853,437.579 360.188,428.977 357.578,414.077 C357.117,411.444 373.827,406.391 374.695,409.074 C379.332,423.415 379.184,434.335 372.97,435.97 L372.97,435.97 z" id="imagebot_9"/>
   <path transform="matrix(1.4898, 0, 0, 1.4898, 587.617, -723.791)" label="Layer 1" fill-rule="evenodd" fill="#c6bf71" fill-opacity="0.58447" d="M-313.87,575.61 L-313.87,575.667 C-326.104,576.361 -337.41,583.988 -345.005,593.59 C-356.633,608.193 -363.128,626.085 -366.087,644.544 C-353.119,646.497 -339.592,647.483 -328.69,648.623 C-323.024,648.845 -314.046,648.862 -304.276,648.91 L-304.276,648.968 C-303.251,648.968 -302.242,648.935 -301.231,648.91 C-301.132,648.91 -301.043,648.911 -300.944,648.91 C-291.174,648.863 -282.195,648.846 -276.53,648.623 C-271.316,648.078 -265.472,647.552 -259.411,646.957 C-262.18,627.646 -268.758,608.833 -280.895,593.591 C-288.49,583.989 -299.796,576.362 -312.03,575.668 L-312.03,575.611 C-312.19,575.611 -312.387,575.611 -312.547,575.611 L-313.064,575.611 L-313.351,575.611 C-313.511,575.611 -313.708,575.61 -313.868,575.611 L-313.87,575.61 z" id="imagebot_48"/>
   <rect label="Layer 1" stroke-linejoin="round" fill-rule="evenodd" stroke="#000000" stroke-linecap="round" stroke-width="3.2907" fill="#00bf00" x="-362.19" y="645.73" width="99.018" height="60.97" transform="matrix(1.4898, -0.000110567, 0.00221012, 1.4898, 587.617, -723.791)" rx="48.657" ry="16.778" id="imagebot_47"/>
   <path transform="matrix(1.4898, 0, 0, 1.4898, 587.617, -723.791)" label="Layer 1" stroke-linejoin="round" stroke="#000000" stroke-linecap="round" stroke-width="2.0865" fill="#ffffff" d="M-311.85001,704.21002L-312.32615,685.47202" id="imagebot_46"/>
   <path transform="matrix(1.4898, 0, 0, 1.4898, 587.617, -723.791)" label="Layer 1" stroke="#000000" stroke-width="2.5" fill="#d9d5a3" d="M-305.66,711.86 S-305.262,696.178 -287.582,695.326 C-263.798,694.18 -260.712,709.455 -260.712,709.455 C-258.592,714.01 -305.849,718.273 -305.661,711.86 L-305.66,711.86 z" id="imagebot_45"/>
   <path transform="matrix(1.4898, 0, 0, 1.4898, 587.617, -723.791)" label="Layer 1" stroke="#000000" stroke-width="2.5" fill="#d9d5a3" d="M-316.5,711.69 S-316.917,696.104 -335.479,695.257 C-360.448,694.118 -363.688,709.3 -363.688,709.3 C-365.914,713.827 -316.303,718.064 -316.501,711.691 L-316.5,711.69 z" id="imagebot_44"/>
   <path label="Layer 1" stroke-linejoin="round" fill-rule="evenodd" stroke="#000000" stroke-linecap="round" stroke-width="3.4653" fill="#ff007f" d="M121.042,122.281 C120.769,122.281 120.496,122.305 120.225,122.305 L119.762,122.305 C119.524,122.305 119.281,122.305 119.042,122.305 L119.042,122.368 C100.816,123.4 83.9308,134.732 72.6158,149.037 C48.3619,179.496 39.1117,219.612 38.2953,258.105 C38.9329,267.978 37.0707,279.831 41.0872,288.391 C55.6812,297.665 81.4175,299.218 98.9614,301.385 C103.617,301.6 111.012,301.661 119.041,301.707 L119.041,301.731 C119.883,301.731 120.684,301.731 121.516,301.707 C121.597,301.707 121.678,301.707 121.76,301.707 C129.788,301.661 137.184,301.601 141.839,301.385 C159.383,299.218 185.12,297.665 199.714,288.391 C203.73,279.829 201.868,267.978 202.506,258.105 C201.689,219.61 192.439,179.496 168.185,149.037 C156.87,134.732 139.985,123.4 121.758,122.368 L121.758,122.281 C121.52,122.281 121.277,122.281 121.039,122.281 L121.042,122.281 z" id="imagebot_42"/>
   <rect transform="matrix(1.4898, 0, 0, 1.4898, 587.617, -723.791)" label="Layer 1" stroke-linejoin="bevel" fill-rule="evenodd" stroke="#000000" stroke-linecap="round" stroke-width="3.2907" fill="#ffdfc4" x="-368.73" y="498.38" width="115.17" height="98.72" ry="47.715" rx="55.119" id="imagebot_41"/>
   <path label="Layer 1" stroke-linejoin="round" stroke="#000000" stroke-linecap="round" stroke-width="12.256" fill="#ffaa56" transform="matrix(0.2604, 0, 0, 0.226973, 76.6428, -67.0488)" d="M-213.36,635.21002C-229.372,625.66502 -233.544,604.18902 -224.157,588.53702C-213.154,570.19102 -188.501,565.42802 -170.555,576.25302C-149.618,588.88302 -144.199,617.07002 -156.629,637.56502C-171.068,661.37302 -203.175,667.51502 -226.495,653.30002C-253.473,636.85502 -260.412,600.41302 -244.217,573.97302C-225.554,543.50402 -184.331,535.68902 -154.453,554.07402C-120.148,575.18302 -111.373,621.66502 -132.173,655.32402C-136.16,661.77562 -141.0941,667.63302 -146.758,672.67602" id="imagebot_40"/>
   <path label="Layer 1" stroke-linejoin="round" stroke="#000000" stroke-linecap="round" stroke-width="12.256" fill="#ffaa56" transform="matrix(0.2604, 0, 0, 0.226973, 72.9814, -42.5717)" d="M-213.36,635.21002C-229.372,625.66502 -233.544,604.18902 -224.157,588.53702C-213.154,570.19102 -188.501,565.42802 -170.555,576.25302C-149.618,588.88302 -144.199,617.07002 -156.629,637.56502C-171.068,661.37302 -203.175,667.51502 -226.495,653.30002C-253.473,636.85502 -260.412,600.41302 -244.217,573.97302C-225.554,543.50402 -184.331,535.68902 -154.453,554.07402C-120.148,575.18302 -111.373,621.66502 -132.173,655.32402C-136.16,661.77562 -141.0941,667.63302 -146.758,672.67602" id="imagebot_39"/>
   <path label="Layer 1" stroke-linejoin="round" stroke="#000000" stroke-linecap="round" stroke-width="12.256" fill="#ffaa56" transform="matrix(0.2604, 0, 0, 0.226973, 72.0661, -22.6882)" d="M-213.36,635.21002C-229.372,625.66502 -233.544,604.18902 -224.157,588.53702C-213.154,570.19102 -188.501,565.42802 -170.555,576.25302C-149.618,588.88302 -144.199,617.07002 -156.629,637.56502C-171.068,661.37302 -203.175,667.51502 -226.495,653.30002C-253.473,636.85502 -260.412,600.41302 -244.217,573.97302C-225.554,543.50402 -184.331,535.68902 -154.453,554.07402C-120.148,575.18302 -111.373,621.66502 -132.173,655.32402C-136.16,661.77562 -141.0941,667.63302 -146.758,672.67602" id="imagebot_38"/>
   <path label="Layer 1" stroke-linejoin="round" stroke="#000000" stroke-linecap="round" stroke-width="12.256" fill="#ffaa56" transform="matrix(0.2604, 0, 0, 0.226973, 72.5746, -2.19452)" d="M-213.36,635.21002C-229.372,625.66502 -233.544,604.18902 -224.157,588.53702C-213.154,570.19102 -188.501,565.42802 -170.555,576.25302C-149.618,588.88302 -144.199,617.07002 -156.629,637.56502C-171.068,661.37302 -203.175,667.51502 -226.495,653.30002C-253.473,636.85502 -260.412,600.41302 -244.217,573.97302C-225.554,543.50402 -184.331,535.68902 -154.453,554.07402C-120.148,575.18302 -111.373,621.66502 -132.173,655.32402C-136.16,661.77562 -141.0941,667.63302 -146.758,672.67602" id="imagebot_37"/>
   <path label="Layer 1" stroke-linejoin="round" stroke="#000000" stroke-linecap="round" stroke-width="12.256" fill="#ffaa56" transform="matrix(0.2604, 0, 0, 0.226973, 70.7608, 18.5704)" d="M-213.36,635.21002C-229.372,625.66502 -233.544,604.18902 -224.157,588.53702C-213.154,570.19102 -188.501,565.42802 -170.555,576.25302C-149.618,588.88302 -144.199,617.07002 -156.629,637.56502C-171.068,661.37302 -203.175,667.51502 -226.495,653.30002C-253.473,636.85502 -260.412,600.41302 -244.217,573.97302C-225.554,543.50402 -184.331,535.68902 -154.453,554.07402C-120.148,575.18302 -111.373,621.66502 -132.173,655.32402C-136.16,661.77562 -141.0941,667.63302 -146.758,672.67602" id="imagebot_36"/>
   <path label="Layer 1" stroke-linejoin="round" stroke="#000000" stroke-linecap="round" stroke-width="12.256" fill="#ffaa56" transform="matrix(0.2604, 0, 0, 0.226973, 69.8624, 38.4369)" d="M-213.36,635.21002C-229.372,625.66502 -233.544,604.18902 -224.157,588.53702C-213.154,570.19102 -188.501,565.42802 -170.555,576.25302C-149.618,588.88302 -144.199,617.07002 -156.629,637.56502C-171.068,661.37302 -203.175,667.51502 -226.495,653.30002C-253.473,636.85502 -260.412,600.41302 -244.217,573.97302C-225.554,543.50402 -184.331,535.68902 -154.453,554.07402C-120.148,575.18302 -111.373,621.66502 -132.173,655.32402C-136.16,661.77562 -141.0941,667.63302 -146.758,672.67602" id="imagebot_35"/>
   <path label="Layer 1" stroke-linejoin="round" stroke="#000000" stroke-linecap="round" stroke-width="9.5881" fill="#ffaa56" transform="matrix(0.309745, 0, 0, 0.311796, 125.682, -156.448)" d="M-213.36,635.21002C-229.372,625.66502 -233.544,604.18902 -224.157,588.53702C-213.154,570.19102 -188.501,565.42802 -170.555,576.25302C-149.618,588.88302 -144.199,617.07002 -156.629,637.56502C-171.068,661.37302 -203.175,667.51502 -226.495,653.30002C-253.473,636.85502 -260.412,600.41302 -244.217,573.97302C-225.554,543.50402 -184.331,535.68902 -154.453,554.07402C-120.148,575.18302 -111.373,621.66502 -132.173,655.32402C-136.16,661.77562 -141.0941,667.63302 -146.758,672.67602" id="imagebot_34"/>
   <path label="Layer 1" stroke-linejoin="round" stroke="#000000" stroke-linecap="round" stroke-width="9.5881" fill="#ffaa56" transform="matrix(-0.309745, 0, 0, 0.311796, 48.4365, -167.026)" d="M-213.36,635.21002C-229.372,625.66502 -233.544,604.18902 -224.157,588.53702C-213.154,570.19102 -188.501,565.42802 -170.555,576.25302C-149.618,588.88302 -144.199,617.07002 -156.629,637.56502C-171.068,661.37302 -203.175,667.51502 -226.495,653.30002C-253.473,636.85502 -260.412,600.41302 -244.217,573.97302C-225.554,543.50402 -184.331,535.68902 -154.453,554.07402C-120.148,575.18302 -111.373,621.66502 -132.173,655.32402C-136.16,661.77562 -141.0941,667.63302 -146.758,672.67602" id="imagebot_33"/>
   <path label="Layer 1" stroke-linejoin="round" stroke="#000000" stroke-linecap="round" stroke-width="12.256" fill="#ffaa56" transform="matrix(-0.2604, 0, 0, 0.226973, 149.142, -80.0502)" d="M-213.36,635.21002C-229.372,625.66502 -233.544,604.18902 -224.157,588.53702C-213.154,570.19102 -188.501,565.42802 -170.555,576.25302C-149.618,588.88302 -144.199,617.07002 -156.629,637.56502C-171.068,661.37302 -203.175,667.51502 -226.495,653.30002C-253.473,636.85502 -260.412,600.41302 -244.217,573.97302C-225.554,543.50402 -184.331,535.68902 -154.453,554.07402C-120.148,575.18302 -111.373,621.66502 -132.173,655.32402C-136.16,661.77562 -141.0941,667.63302 -146.758,672.67602" id="imagebot_32"/>
   <path label="Layer 1" stroke-linejoin="round" stroke="#000000" stroke-linecap="round" stroke-width="12.256" fill="#ffaa56" transform="matrix(0.2604, 0, 0, 0.226973, 91.9665, -94.4585)" d="M-213.36,635.21002C-229.372,625.66502 -233.544,604.18902 -224.157,588.53702C-213.154,570.19102 -188.501,565.42802 -170.555,576.25302C-149.618,588.88302 -144.199,617.07002 -156.629,637.56502C-171.068,661.37302 -203.175,667.51502 -226.495,653.30002C-253.473,636.85502 -260.412,600.41302 -244.217,573.97302C-225.554,543.50402 -184.331,535.68902 -154.453,554.07402C-120.148,575.18302 -111.373,621.66502 -132.173,655.32402C-136.16,661.77562 -141.0941,667.63302 -146.758,672.67602" id="imagebot_31"/>
   <path label="Layer 1" stroke-linejoin="round" stroke="#000000" stroke-linecap="round" stroke-width="9.5881" fill="#ffaa56" transform="matrix(0.309745, 0, 0, 0.311796, 203.86, -165.534)" d="M-213.36,635.21002C-229.372,625.66502 -233.544,604.18902 -224.157,588.53702C-213.154,570.19102 -188.501,565.42802 -170.555,576.25302C-149.618,588.88302 -144.199,617.07002 -156.629,637.56502C-171.068,661.37302 -203.175,667.51502 -226.495,653.30002C-253.473,636.85502 -260.412,600.41302 -244.217,573.97302C-225.554,543.50402 -184.331,535.68902 -154.453,554.07402C-120.148,575.18302 -111.373,621.66502 -132.173,655.32402C-136.16,661.77562 -141.0941,667.63302 -146.758,672.67602" id="imagebot_30"/>
   <path label="Layer 1" stroke-linejoin="round" stroke="#000000" stroke-linecap="round" stroke-width="9.5881" fill="#ffaa56" transform="matrix(0.309745, 0, 0, 0.311796, 234.829, -150.397)" d="M-213.36,635.21002C-229.372,625.66502 -233.544,604.18902 -224.157,588.53702C-213.154,570.19102 -188.501,565.42802 -170.555,576.25302C-149.618,588.88302 -144.199,617.07002 -156.629,637.56502C-171.068,661.37302 -203.175,667.51502 -226.495,653.30002C-253.473,636.85502 -260.412,600.41302 -244.217,573.97302C-225.554,543.50402 -184.331,535.68902 -154.453,554.07402C-120.148,575.18302 -111.373,621.66502 -132.173,655.32402C-136.16,661.77562 -141.0941,667.63302 -146.758,672.67602" id="imagebot_29"/>
   <path label="Layer 1" stroke-linejoin="round" stroke="#000000" stroke-linecap="round" stroke-width="12.256" fill="#ffaa56" transform="matrix(0.2604, 0, 0, 0.226973, 67.8114, 51.5738)" d="M-213.36,635.21002C-229.372,625.66502 -233.544,604.18902 -224.157,588.53702C-213.154,570.19102 -188.501,565.42802 -170.555,576.25302C-149.618,588.88302 -144.199,617.07002 -156.629,637.56502C-171.068,661.37302 -203.175,667.51502 -226.495,653.30002C-253.473,636.85502 -260.412,600.41302 -244.217,573.97302C-225.554,543.50402 -184.331,535.68902 -154.453,554.07402C-120.148,575.18302 -111.373,621.66502 -132.173,655.32402C-136.16,661.77562 -141.0941,667.63302 -146.758,672.67602" id="imagebot_28"/>
   <path label="Layer 1" stroke-linejoin="round" stroke="#000000" stroke-linecap="round" stroke-width="12.256" fill="#ffaa56" transform="matrix(-0.260402, 0, 0, 0.226971, 162.95, -52.3678)" d="M-213.36,635.21002C-229.372,625.66502 -233.544,604.18902 -224.157,588.53702C-213.154,570.19102 -188.501,565.42802 -170.555,576.25302C-149.618,588.88302 -144.199,617.07002 -156.629,637.56502C-171.068,661.37302 -203.175,667.51502 -226.495,653.30002C-253.473,636.85502 -260.412,600.41302 -244.217,573.97302C-225.554,543.50402 -184.331,535.68902 -154.453,554.07402C-120.148,575.18302 -111.373,621.66502 -132.173,655.32402C-136.16,661.77562 -141.0941,667.63302 -146.758,672.67602" id="imagebot_26"/>
   <path label="Layer 1" stroke-linejoin="round" stroke="#000000" stroke-linecap="round" stroke-width="12.256" fill="#ffaa56" transform="matrix(-0.260402, 0, 0, 0.226971, 166.615, -33.8347)" d="M-213.36,635.21002C-229.372,625.66502 -233.544,604.18902 -224.157,588.53702C-213.154,570.19102 -188.501,565.42802 -170.555,576.25302C-149.618,588.88302 -144.199,617.07002 -156.629,637.56502C-171.068,661.37302 -203.175,667.51502 -226.495,653.30002C-253.473,636.85502 -260.412,600.41302 -244.217,573.97302C-225.554,543.50402 -184.331,535.68902 -154.453,554.07402C-120.148,575.18302 -111.373,621.66502 -132.173,655.32402C-136.16,661.77562 -141.0941,667.63302 -146.758,672.67602" id="imagebot_25"/>
   <path label="Layer 1" stroke-linejoin="round" stroke="#000000" stroke-linecap="round" stroke-width="12.256" fill="#ffaa56" transform="matrix(-0.260402, 0, 0, 0.226971, 167.524, -13.9756)" d="M-213.36,635.21002C-229.372,625.66502 -233.544,604.18902 -224.157,588.53702C-213.154,570.19102 -188.501,565.42802 -170.555,576.25302C-149.618,588.88302 -144.199,617.07002 -156.629,637.56502C-171.068,661.37302 -203.175,667.51502 -226.495,653.30002C-253.473,636.85502 -260.412,600.41302 -244.217,573.97302C-225.554,543.50402 -184.331,535.68902 -154.453,554.07402C-120.148,575.18302 -111.373,621.66502 -132.173,655.32402C-136.16,661.77562 -141.0941,667.63302 -146.758,672.67602" id="imagebot_24"/>
   <path label="Layer 1" stroke-linejoin="round" stroke="#000000" stroke-linecap="round" stroke-width="9.5881" fill="#ffaa56" transform="matrix(-0.309744, 0, 0, 0.311785, 113.906, -141.771)" d="M-213.36,635.21002C-229.372,625.66502 -233.544,604.18902 -224.157,588.53702C-213.154,570.19102 -188.501,565.42802 -170.555,576.25302C-149.618,588.88302 -144.199,617.07002 -156.629,637.56502C-171.068,661.37302 -203.175,667.51502 -226.495,653.30002C-253.473,636.85502 -260.412,600.41302 -244.217,573.97302C-225.554,543.50402 -184.331,535.68902 -154.453,554.07402C-120.148,575.18302 -111.373,621.66502 -132.173,655.32402C-136.16,661.77562 -141.0941,667.63302 -146.758,672.67602" id="imagebot_20"/>
   <path label="Layer 1" stroke-linejoin="round" stroke="#000000" stroke-linecap="round" stroke-width="9.5881" fill="#ffaa56" transform="matrix(0.309744, 0, 0, 0.311785, 191.167, -152.348)" d="M-213.36,635.21002C-229.372,625.66502 -233.544,604.18902 -224.157,588.53702C-213.154,570.19102 -188.501,565.42802 -170.555,576.25302C-149.618,588.88302 -144.199,617.07002 -156.629,637.56502C-171.068,661.37302 -203.175,667.51502 -226.495,653.30002C-253.473,636.85502 -260.412,600.41302 -244.217,573.97302C-225.554,543.50402 -184.331,535.68902 -154.453,554.07402C-120.148,575.18302 -111.373,621.66502 -132.173,655.32402C-136.16,661.77562 -141.0941,667.63302 -146.758,672.67602" id="imagebot_19"/>
   <path label="Layer 1" stroke-linejoin="round" stroke="#000000" stroke-linecap="round" stroke-width="12.256" fill="#ffaa56" transform="matrix(0.260402, 0, 0, 0.226971, 90.4562, -65.3737)" d="M-213.36,635.21002C-229.372,625.66502 -233.544,604.18902 -224.157,588.53702C-213.154,570.19102 -188.501,565.42802 -170.555,576.25302C-149.618,588.88302 -144.199,617.07002 -156.629,637.56502C-171.068,661.37302 -203.175,667.51502 -226.495,653.30002C-253.473,636.85502 -260.412,600.41302 -244.217,573.97302C-225.554,543.50402 -184.331,535.68902 -154.453,554.07402C-120.148,575.18302 -111.373,621.66502 -132.173,655.32402C-136.16,661.77562 -141.0941,667.63302 -146.758,672.67602" id="imagebot_18"/>
   <path label="Layer 1" stroke-linejoin="round" stroke="#000000" stroke-linecap="round" stroke-width="12.256" fill="#ffaa56" transform="matrix(-0.260402, 0, 0, 0.226971, 147.62, -73.8209)" d="M-213.36,635.21002C-229.372,625.66502 -233.544,604.18902 -224.157,588.53702C-213.154,570.19102 -188.501,565.42802 -170.555,576.25302C-149.618,588.88302 -144.199,617.07002 -156.629,637.56502C-171.068,661.37302 -203.175,667.51502 -226.495,653.30002C-253.473,636.85502 -260.412,600.41302 -244.217,573.97302C-225.554,543.50402 -184.331,535.68902 -154.453,554.07402C-120.148,575.18302 -111.373,621.66502 -132.173,655.32402C-136.16,661.77562 -141.0941,667.63302 -146.758,672.67602" id="imagebot_17"/>
   <path label="Layer 1" stroke-linejoin="round" stroke="#000000" stroke-linecap="round" stroke-width="9.5881" fill="#ffaa56" transform="matrix(-0.309744, 0, 0, 0.311785, 35.7358, -150.844)" d="M-213.36,635.21002C-229.372,625.66502 -233.544,604.18902 -224.157,588.53702C-213.154,570.19102 -188.501,565.42802 -170.555,576.25302C-149.618,588.88302 -144.199,617.07002 -156.629,637.56502C-171.068,661.37302 -203.175,667.51502 -226.495,653.30002C-253.473,636.85502 -260.412,600.41302 -244.217,573.97302C-225.554,543.50402 -184.331,535.68902 -154.453,554.07402C-120.148,575.18302 -111.373,621.66502 -132.173,655.32402C-136.16,661.77562 -141.0941,667.63302 -146.758,672.67602" id="imagebot_16"/>
   <path label="Layer 1" stroke-linejoin="round" stroke="#000000" stroke-linecap="round" stroke-width="9.5881" fill="#ffaa56" transform="matrix(-0.309744, 0, 0, 0.311785, 4.76287, -135.707)" d="M-213.36,635.21002C-229.372,625.66502 -233.544,604.18902 -224.157,588.53702C-213.154,570.19102 -188.501,565.42802 -170.555,576.25302C-149.618,588.88302 -144.199,617.07002 -156.629,637.56502C-171.068,661.37302 -203.175,667.51502 -226.495,653.30002C-253.473,636.85502 -260.412,600.41302 -244.217,573.97302C-225.554,543.50402 -184.331,535.68902 -154.453,554.07402C-120.148,575.18302 -111.373,621.66502 -132.173,655.32402C-136.16,661.77562 -141.0941,667.63302 -146.758,672.67602" id="imagebot_15"/>
   <path stroke-width="9" label="Layer 1" fill-rule="evenodd" fill="#ffff00" transform="translate(5) matrix(0.511582, 0, 0, 0.438731, 289.017, 78.7644)" d="M-254.71,258.59 C-250.546,260.485 -324.012,318.138 -321.042,321.618 C-317.951,325.24 -237.835,279.718 -234.128,282.705 C-230.566,285.576 -316.061,323.147 -314.05,327.257 C-311.957,331.534 -223.037,307.366 -220.189,311.182 C-217.453,314.849 -309.606,329.978 -308.68,334.458 C-307.717,339.121 -215.58,337.826 -213.77,342.23 C-212.031,346.462 -305.052,338.198 -305.27,342.768 C-305.496,347.524 -215.932,369.183 -215.275,373.899 C-214.644,378.43 -302.687,347.293 -304.034,351.665 C-305.436,356.215 -224.072,399.467 -224.608,404.199 C-225.123,408.745 -302.657,356.69 -305.049,360.59 C-307.539,364.648 -239.487,426.776 -241.183,431.226 C-242.813,435.501 -304.965,365.8 -308.252,368.982 C-311.673,372.294 -261.21,449.394 -263.959,453.281 C-266.601,457.016 -309.466,374.049 -313.441,376.314 C-317.578,378.671 -287.874,465.898 -291.504,468.98 C-294.992,471.941 -315.877,380.92 -320.291,382.125 C-324.884,383.379 -317.806,475.253 -322.088,477.335 C-326.202,479.336 -323.796,385.98 -328.37,386.05 C-333.131,386.122 -349.123,476.87 -353.788,477.822 C-358.271,478.737 -332.723,388.912 -337.171,387.842 C-341.801,386.728 -379.858,470.648 -384.614,470.41 C-389.184,470.181 -342.1,389.532 -346.142,387.39 C-350.349,385.16 -408.081,456.978 -412.628,455.565 C-416.997,454.207 -351.336,387.801 -354.719,384.72 C-358.24,381.514 -432.018,436.719 -436.071,434.219 C-439.965,431.817 -359.852,383.827 -362.363,380.002 C-364.976,376.021 -450.165,411.143 -453.469,407.714 C-456.644,404.419 -367.113,377.86 -368.593,373.53 C-370.134,369.024 -461.381,381.857 -463.728,377.715 C-465.984,373.734 -372.66,370.274 -373.017,365.713 C-373.389,360.966 -464.961,350.703 -466.204,346.107 C-467.399,341.69 -376.147,361.548 -375.358,357.041 C-374.538,352.351 -460.681,319.637 -460.742,314.876 C-460.801,310.301 -377.354,352.228 -375.47,348.059 C-373.509,343.72 -448.81,290.612 -447.685,285.985 C-446.604,281.539 -376.206,342.901 -373.344,339.332 C-370.366,335.617 -430.094,265.45 -427.853,261.249 C-425.701,257.212 -372.774,334.153 -369.114,331.408 C-365.305,328.551 -405.707,245.734 -402.492,242.222 C-399.403,238.847 -367.274,326.533 -363.046,324.784 C-358.647,322.964 -377.183,232.702 -373.196,230.099 C-369.365,227.598 -360.052,320.52 -355.522,319.877 C-350.808,319.208 -346.316,227.172 -341.806,225.643 C-337.474,224.173 -351.562,316.492 -347.015,316.996 C-342.282,317.52 -315.043,229.493 -310.295,229.133 C-305.733,228.787 -342.337,314.701 -338.058,316.321 C-333.604,318.006 -285.329,239.518 -280.641,240.351 C-276.136,241.15 -332.956,315.263 -329.215,317.895 C-325.32,320.634 -259.043,256.618 -254.709,258.59 L-254.71,258.59 z" id="imagebot_13"/>
   <rect label="Layer 1" stroke-linejoin="round" fill-rule="evenodd" stroke="#060000" stroke-linecap="round" stroke-width="2.736" fill="#ffdfc4" x="353" y="534.93" width="26.147" height="19.458" transform="rotate(66.4196, 243.501, 148.071) matrix(-1.4741, 0.215753, 0.215753, 1.4741, 665.617, -733.791)" rx="11.553" ry="9.425" id="imagebot_10"/>
   <path transform="matrix(1.4898, 0, 0, 1.4898, 587.617, -723.791)" label="Layer 1" stroke-linejoin="round" stroke="#000000" stroke-linecap="round" stroke-width="2.8441" fill="#ddc7b4" d="M-317.07999,576.76001L-306.38099,577.11111" id="imagebot_6"/>
   <path transform="translate(13, -10) matrix(1.4898, 0, 0, 1.4898, 587.617, -723.791)" label="Layer 1" fill="#000000" d="M-334.16,558.81C-334.16,560.8406 -335.8048,562.4861 -337.8361,562.4861C-339.8667,562.4861 -341.5129,560.8406 -341.5129,558.81C-341.5129,556.78 -339.8667,555.1331 -337.8361,555.1331C-335.8048,555.1331 -334.16,556.7799 -334.16,558.81" id="imagebot_5"/>
   <path transform="translate(3, -2) matrix(1.4898, 0, 0, 1.4898, 574.617, -731.791)" label="Layer 1" fill="#000000" d="M-288.09,557.97998C-288.09,560.01058 -289.7348,561.65608 -291.7661,561.65608C-293.7967,561.65608 -295.4429,560.01058 -295.4429,557.97998C-295.4429,555.94998 -293.7967,554.30318 -291.7661,554.30318C-289.7348,554.30318 -288.09,555.94998 -288.09,557.97998" id="imagebot_4"/>
   <path id="imagebot_49" d="M90.2618,126.121 C111.268,132.287 120.274,133.453 153.281,126.619 C147.91,134.254 139.54,150.889 119.17,149.524 C99.705,146.205 92.3817,132.926 90.2618,126.121 z" stroke-opacity="null" stroke-linecap="round" stroke-linejoin="round" stroke-dasharray="null" stroke-width="2.5" stroke="#000000" fill="#bf0000"/>
  </g>
 </g>
 <metadata>image/svg+xmlOpenclipart</metadata>
</svg>