<?xml version="1.0" encoding="UTF-8" standalone="no"?>
<!-- Created with Inkscape (http://www.inkscape.org/) -->
<svg
    xmlns:inkscape="http://www.inkscape.org/namespaces/inkscape"
    xmlns:rdf="http://www.w3.org/1999/02/22-rdf-syntax-ns#"
    xmlns="http://www.w3.org/2000/svg"
    xmlns:xlink="http://www.w3.org/1999/xlink"
    xmlns:ns1="http://sozi.baierouge.fr"
    xmlns:cc="http://creativecommons.org/ns#"
    xmlns:dc="http://purl.org/dc/elements/1.1/"
    xmlns:sodipodi="http://sodipodi.sourceforge.net/DTD/sodipodi-0.dtd"
    id="svg7122"
    sodipodi:docname="pose-oh-crap-what-did-i-just-do.svg"
    viewBox="0 0 238.63 342.28"
    version="1.1"
    inkscape:version="0.48.3.1 r9886"
  >
  <sodipodi:namedview
      id="base"
      bordercolor="#666666"
      inkscape:pageshadow="2"
      inkscape:window-y="24"
      fit-margin-left="0"
      pagecolor="#ffffff"
      inkscape:window-height="1124"
      inkscape:window-maximized="1"
      inkscape:zoom="4.9424043"
      inkscape:window-x="0"
      showgrid="false"
      borderopacity="1.0"
      inkscape:current-layer="layer1"
      inkscape:cx="154.76434"
      inkscape:cy="116.33971"
      fit-margin-top="0"
      fit-margin-right="0"
      fit-margin-bottom="0"
      inkscape:window-width="1920"
      inkscape:pageopacity="0.0"
      inkscape:document-units="px"
  />
  <g
      id="layer1"
      inkscape:label="Layer 1"
      inkscape:groupmode="layer"
      transform="translate(-220.24 -306.42)"
    >
    <g
        id="g7225"
        transform="matrix(1.4898 0 0 1.4898 807.36 -418.52)"
      >
      <path
          id="path3932-5-3-8-0-8-51-1-3-0-2-4-9-6-9"
          d="m-313.87 575.61v0.0574c-12.234 0.69349-23.54 8.321-31.135 17.923-11.628 14.603-18.123 32.495-21.082 50.954 12.968 1.9524 26.495 2.939 37.397 4.0786 5.6656 0.2222 14.644 0.23948 24.414 0.28722v0.0573c1.0252 0 2.0335-0.0322 3.0446-0.0573 0.0996-0.00026 0.1879 0.00053 0.28722 0 9.7702-0.0476 18.749-0.0642 24.414-0.28722 5.2141-0.54506 11.058-1.0714 17.119-1.6659-2.7693-19.311-9.3471-38.124-21.484-53.366-7.5952-9.602-18.901-17.229-31.135-17.923v-0.0574c-0.16011-0.00016-0.35717 0-0.517 0h-0.51701-0.28722c-0.15975 0-0.35692-0.00018-0.51701 0z"
          style="fill-rule:evenodd;fill:#c6bf71;fill-opacity:.58447"
          inkscape:connector-curvature="0"
      />
      <rect
          id="rect3252-6-7-2-7-1-6-3-1-1-2-1-7-1"
          ry="16.778"
          style="stroke-linejoin:round;fill-rule:evenodd;stroke:#000000;stroke-linecap:round;stroke-width:3.2907;fill:#c1c2b3"
          rx="48.657"
          transform="matrix(1 -.000074216 .0014835 1 0 0)"
          height="60.97"
          width="99.018"
          y="645.73"
          x="-362.19"
      />
      <path
          id="path3928-9-81-8-0-49-3-2-5-9-84-4-7"
          d="m-311.85 704.21-0.47614-18.738"
          style="stroke-linejoin:round;stroke:#000000;stroke-linecap:round;stroke-width:2.0865;fill:#ffffff"
          inkscape:connector-curvature="0"
      />
      <path
          id="path4010-7-1-8-9-8-8-6-7-4-2-9-2"
          d="m-305.66 711.86s0.39755-15.682 18.078-16.534c23.784-1.1462 26.87 14.129 26.87 14.129 2.1204 4.555-45.137 8.8179-44.949 2.4051z"
          sodipodi:nodetypes="cscc"
          style="stroke:#000000;stroke-width:2.5;fill:#d9d5a3"
          inkscape:connector-curvature="0"
      />
      <path
          id="path4010-1-9-1-1-1-9-9-3-8-3-1-0-8"
          d="m-316.5 711.69s-0.41728-15.586-18.979-16.433c-24.969-1.1392-28.209 14.043-28.209 14.043-2.226 4.5271 47.385 8.764 47.187 2.3906z"
          sodipodi:nodetypes="cscc"
          style="stroke:#000000;stroke-width:2.5;fill:#d9d5a3"
          inkscape:connector-curvature="0"
      />
      <rect
          id="rect6379-8"
          style="fill-rule:evenodd;fill:#a79151"
          rx="8.1432"
          ry="9.895"
          height="62.263"
          width="121.65"
          y="554.71"
          x="-374.42"
      />
      <path
          id="path3932-5-3-8-0-8-51-1-3-0-2-4-3-8"
          d="m-313.18 567.91c-0.18272 0-0.36594 0.0165-0.54831 0.0165h-0.31097c-0.15974 0-0.32272-0.00018-0.48281 0v0.0412c-12.234 0.69349-23.568 8.2994-31.163 17.901-16.28 20.445-22.489 47.372-23.037 73.21 0.4277 6.6272-0.82201 14.583 1.874 20.329 9.7965 6.2251 27.071 7.2671 38.847 8.7219 3.1252 0.14485 8.089 0.18505 13.478 0.21617v0.0166c0.56549 0 1.1035 0 1.6612-0.0166 0.055-0.00016 0.10882 0.00035 0.1636 0 5.3893-0.0311 10.353-0.0708 13.478-0.21617 11.776-1.4548 29.051-2.4968 38.847-8.7219 2.6961-5.7466 1.4463-13.702 1.874-20.329-0.54807-25.839-6.7568-52.765-23.037-73.21-7.5952-9.602-18.929-17.208-31.163-17.901v-0.0575c-0.16011-0.00016-0.32298 0-0.48281 0z"
          style="stroke-linejoin:round;fill-rule:evenodd;stroke:#000000;stroke-linecap:round;stroke-width:3.4653;fill:#4d959c"
          inkscape:connector-curvature="0"
      />
      <rect
          id="rect4240-8-9-5-1-5-4-4-6"
          style="stroke-linejoin:bevel;fill-rule:evenodd;stroke:#000000;stroke-linecap:round;stroke-width:3.2907;fill:#ddc7b4"
          rx="55.119"
          ry="47.715"
          height="98.72"
          width="115.17"
          y="498.38"
          x="-368.73"
      />
      <g
          id="g6202-9"
          style="stroke-width:1.7578"
          transform="matrix(1.1378 0 0 1.1378 -117.47 235.1)"
        >
        <path
            id="path3920-7-6-4-7-8-6-8-7-0-5-18-1-7-3"
            style="stroke-linejoin:round;stroke:#000000;stroke-linecap:round;stroke-width:12.256;fill:#a79151"
            sodipodi:revolution="9.9044476"
            sodipodi:type="spiral"
            d="m-213.36 635.21c-16.012-9.545-20.184-31.021-10.797-46.673 11.003-18.346 35.656-23.109 53.602-12.284 20.937 12.63 26.356 40.817 13.926 61.312-14.439 23.808-46.546 29.95-69.866 15.735-26.978-16.445-33.917-52.887-17.722-79.327 18.663-30.469 59.886-38.284 89.764-19.899 34.305 21.109 43.08 67.591 22.28 101.25-3.987 6.4516-8.9211 12.309-14.585 17.352"
            transform="matrix(.15362 0 0 .13390 -198.2 180.81)"
            sodipodi:argument="-61.313988"
            sodipodi:cy="609.77802"
            sodipodi:cx="-194.89233"
            sodipodi:t0="0.81865972"
            sodipodi:radius="79.203079"
            sodipodi:expansion="4.6199999"
        />
        <path
            id="path3920-7-6-4-7-8-6-8-7-0-2-4-4-0-9"
            style="stroke-linejoin:round;stroke:#000000;stroke-linecap:round;stroke-width:12.256;fill:#a79151"
            sodipodi:revolution="9.9044476"
            sodipodi:type="spiral"
            d="m-213.36 635.21c-16.012-9.545-20.184-31.021-10.797-46.673 11.003-18.346 35.656-23.109 53.602-12.284 20.937 12.63 26.356 40.817 13.926 61.312-14.439 23.808-46.546 29.95-69.866 15.735-26.978-16.445-33.917-52.887-17.722-79.327 18.663-30.469 59.886-38.284 89.764-19.899 34.305 21.109 43.08 67.591 22.28 101.25-3.987 6.4516-8.9211 12.309-14.585 17.352"
            transform="matrix(.15362 0 0 .13390 -200.36 195.25)"
            sodipodi:argument="-61.313988"
            sodipodi:cy="609.77802"
            sodipodi:cx="-194.89233"
            sodipodi:t0="0.81865972"
            sodipodi:radius="79.203079"
            sodipodi:expansion="4.6199999"
        />
        <path
            id="path3920-7-6-4-7-8-6-8-7-0-9-81-2-5-6"
            style="stroke-linejoin:round;stroke:#000000;stroke-linecap:round;stroke-width:12.256;fill:#a79151"
            sodipodi:revolution="9.9044476"
            sodipodi:type="spiral"
            d="m-213.36 635.21c-16.012-9.545-20.184-31.021-10.797-46.673 11.003-18.346 35.656-23.109 53.602-12.284 20.937 12.63 26.356 40.817 13.926 61.312-14.439 23.808-46.546 29.95-69.866 15.735-26.978-16.445-33.917-52.887-17.722-79.327 18.663-30.469 59.886-38.284 89.764-19.899 34.305 21.109 43.08 67.591 22.28 101.25-3.987 6.4516-8.9211 12.309-14.585 17.352"
            transform="matrix(.15362 0 0 .13390 -200.9 206.98)"
            sodipodi:argument="-61.313988"
            sodipodi:cy="609.77802"
            sodipodi:cx="-194.89233"
            sodipodi:t0="0.81865972"
            sodipodi:radius="79.203079"
            sodipodi:expansion="4.6199999"
        />
        <path
            id="path3920-7-6-4-7-8-6-8-7-0-5-7-0-2-9-4"
            style="stroke-linejoin:round;stroke:#000000;stroke-linecap:round;stroke-width:12.256;fill:#a79151"
            sodipodi:revolution="9.9044476"
            sodipodi:type="spiral"
            d="m-213.36 635.21c-16.012-9.545-20.184-31.021-10.797-46.673 11.003-18.346 35.656-23.109 53.602-12.284 20.937 12.63 26.356 40.817 13.926 61.312-14.439 23.808-46.546 29.95-69.866 15.735-26.978-16.445-33.917-52.887-17.722-79.327 18.663-30.469 59.886-38.284 89.764-19.899 34.305 21.109 43.08 67.591 22.28 101.25-3.987 6.4516-8.9211 12.309-14.585 17.352"
            transform="matrix(.15362 0 0 .13390 -200.6 219.07)"
            sodipodi:argument="-61.313988"
            sodipodi:cy="609.77802"
            sodipodi:cx="-194.89233"
            sodipodi:t0="0.81865972"
            sodipodi:radius="79.203079"
            sodipodi:expansion="4.6199999"
        />
        <path
            id="path3920-7-6-4-7-8-6-8-7-0-2-5-3-0-6-1"
            style="stroke-linejoin:round;stroke:#000000;stroke-linecap:round;stroke-width:12.256;fill:#a79151"
            sodipodi:revolution="9.9044476"
            sodipodi:type="spiral"
            d="m-213.36 635.21c-16.012-9.545-20.184-31.021-10.797-46.673 11.003-18.346 35.656-23.109 53.602-12.284 20.937 12.63 26.356 40.817 13.926 61.312-14.439 23.808-46.546 29.95-69.866 15.735-26.978-16.445-33.917-52.887-17.722-79.327 18.663-30.469 59.886-38.284 89.764-19.899 34.305 21.109 43.08 67.591 22.28 101.25-3.987 6.4516-8.9211 12.309-14.585 17.352"
            transform="matrix(.15362 0 0 .13390 -201.67 231.32)"
            sodipodi:argument="-61.313988"
            sodipodi:cy="609.77802"
            sodipodi:cx="-194.89233"
            sodipodi:t0="0.81865972"
            sodipodi:radius="79.203079"
            sodipodi:expansion="4.6199999"
        />
        <path
            id="path3920-7-6-4-7-8-6-8-7-0-9-8-3-7-1-1"
            style="stroke-linejoin:round;stroke:#000000;stroke-linecap:round;stroke-width:12.256;fill:#a79151"
            sodipodi:revolution="9.9044476"
            sodipodi:type="spiral"
            d="m-213.36 635.21c-16.012-9.545-20.184-31.021-10.797-46.673 11.003-18.346 35.656-23.109 53.602-12.284 20.937 12.63 26.356 40.817 13.926 61.312-14.439 23.808-46.546 29.95-69.866 15.735-26.978-16.445-33.917-52.887-17.722-79.327 18.663-30.469 59.886-38.284 89.764-19.899 34.305 21.109 43.08 67.591 22.28 101.25-3.987 6.4516-8.9211 12.309-14.585 17.352"
            transform="matrix(.15362 0 0 .13390 -202.2 243.04)"
            sodipodi:argument="-61.313988"
            sodipodi:cy="609.77802"
            sodipodi:cx="-194.89233"
            sodipodi:t0="0.81865972"
            sodipodi:radius="79.203079"
            sodipodi:expansion="4.6199999"
        />
        <path
            id="path3920-6-93-3-4-1-7-8-2-1-9"
            style="stroke-linejoin:round;stroke:#000000;stroke-linecap:round;stroke-width:9.5881;fill:#a79151"
            sodipodi:revolution="9.9044476"
            sodipodi:type="spiral"
            d="m-213.36 635.21c-16.012-9.545-20.184-31.021-10.797-46.673 11.003-18.346 35.656-23.109 53.602-12.284 20.937 12.63 26.356 40.817 13.926 61.312-14.439 23.808-46.546 29.95-69.866 15.735-26.978-16.445-33.917-52.887-17.722-79.327 18.663-30.469 59.886-38.284 89.764-19.899 34.305 21.109 43.08 67.591 22.28 101.25-3.987 6.4516-8.9211 12.309-14.585 17.352"
            transform="matrix(.18273 0 0 .18394 -169.27 128.07)"
            sodipodi:argument="-61.313988"
            sodipodi:cy="609.77802"
            sodipodi:cx="-194.89233"
            sodipodi:t0="0.81865972"
            sodipodi:radius="79.203079"
            sodipodi:expansion="4.6199999"
        />
        <path
            id="path3920-7-7-473-9-4-9-2-3-5-2-0"
            style="stroke-linejoin:round;stroke:#000000;stroke-linecap:round;stroke-width:9.5881;fill:#a79151"
            sodipodi:revolution="9.9044476"
            sodipodi:type="spiral"
            d="m-213.36 635.21c-16.012-9.545-20.184-31.021-10.797-46.673 11.003-18.346 35.656-23.109 53.602-12.284 20.937 12.63 26.356 40.817 13.926 61.312-14.439 23.808-46.546 29.95-69.866 15.735-26.978-16.445-33.917-52.887-17.722-79.327 18.663-30.469 59.886-38.284 89.764-19.899 34.305 21.109 43.08 67.591 22.28 101.25-3.987 6.4516-8.9211 12.309-14.585 17.352"
            transform="matrix(-.18273 0 0 .18394 -214.84 121.83)"
            sodipodi:argument="-61.313988"
            sodipodi:cy="609.77802"
            sodipodi:cx="-194.89233"
            sodipodi:t0="0.81865972"
            sodipodi:radius="79.203079"
            sodipodi:expansion="4.6199999"
        />
        <path
            id="path3920-7-6-4-7-8-6-8-7-0-8-9-6"
            style="stroke-linejoin:round;stroke:#000000;stroke-linecap:round;stroke-width:12.256;fill:#a79151"
            sodipodi:revolution="9.9044476"
            sodipodi:type="spiral"
            d="m-213.36 635.21c-16.012-9.545-20.184-31.021-10.797-46.673 11.003-18.346 35.656-23.109 53.602-12.284 20.937 12.63 26.356 40.817 13.926 61.312-14.439 23.808-46.546 29.95-69.866 15.735-26.978-16.445-33.917-52.887-17.722-79.327 18.663-30.469 59.886-38.284 89.764-19.899 34.305 21.109 43.08 67.591 22.28 101.25-3.987 6.4516-8.9211 12.309-14.585 17.352"
            transform="matrix(-.15362 0 0 .13390 -155.43 173.14)"
            sodipodi:argument="-61.313988"
            sodipodi:cy="609.77802"
            sodipodi:cx="-194.89233"
            sodipodi:t0="0.81865972"
            sodipodi:radius="79.203079"
            sodipodi:expansion="4.6199999"
        />
        <path
            id="path3920-7-6-47-3-3-9-9-4-2-2-7-8"
            style="stroke-linejoin:round;stroke:#000000;stroke-linecap:round;stroke-width:12.256;fill:#a79151"
            sodipodi:revolution="9.9044476"
            sodipodi:type="spiral"
            d="m-213.36 635.21c-16.012-9.545-20.184-31.021-10.797-46.673 11.003-18.346 35.656-23.109 53.602-12.284 20.937 12.63 26.356 40.817 13.926 61.312-14.439 23.808-46.546 29.95-69.866 15.735-26.978-16.445-33.917-52.887-17.722-79.327 18.663-30.469 59.886-38.284 89.764-19.899 34.305 21.109 43.08 67.591 22.28 101.25-3.987 6.4516-8.9211 12.309-14.585 17.352"
            transform="matrix(.15362 0 0 .13390 -189.16 164.64)"
            sodipodi:argument="-61.313988"
            sodipodi:cy="609.77802"
            sodipodi:cx="-194.89233"
            sodipodi:t0="0.81865972"
            sodipodi:radius="79.203079"
            sodipodi:expansion="4.6199999"
        />
        <path
            id="path3920-7-7-5-27-8-9-3-5-9-4-1-9"
            style="stroke-linejoin:round;stroke:#000000;stroke-linecap:round;stroke-width:9.5881;fill:#a79151"
            sodipodi:revolution="9.9044476"
            sodipodi:type="spiral"
            d="m-213.36 635.21c-16.012-9.545-20.184-31.021-10.797-46.673 11.003-18.346 35.656-23.109 53.602-12.284 20.937 12.63 26.356 40.817 13.926 61.312-14.439 23.808-46.546 29.95-69.866 15.735-26.978-16.445-33.917-52.887-17.722-79.327 18.663-30.469 59.886-38.284 89.764-19.899 34.305 21.109 43.08 67.591 22.28 101.25-3.987 6.4516-8.9211 12.309-14.585 17.352"
            transform="matrix(.18273 0 0 .18394 -123.15 122.71)"
            sodipodi:argument="-61.313988"
            sodipodi:cy="609.77802"
            sodipodi:cx="-194.89233"
            sodipodi:t0="0.81865972"
            sodipodi:radius="79.203079"
            sodipodi:expansion="4.6199999"
        />
        <path
            id="path3920-7-7-50-9-4-5-7-3-9-6-2-6"
            style="stroke-linejoin:round;stroke:#000000;stroke-linecap:round;stroke-width:9.5881;fill:#a79151"
            sodipodi:revolution="9.9044476"
            sodipodi:type="spiral"
            d="m-213.36 635.21c-16.012-9.545-20.184-31.021-10.797-46.673 11.003-18.346 35.656-23.109 53.602-12.284 20.937 12.63 26.356 40.817 13.926 61.312-14.439 23.808-46.546 29.95-69.866 15.735-26.978-16.445-33.917-52.887-17.722-79.327 18.663-30.469 59.886-38.284 89.764-19.899 34.305 21.109 43.08 67.591 22.28 101.25-3.987 6.4516-8.9211 12.309-14.585 17.352"
            transform="matrix(.18273 0 0 .18394 -104.88 131.64)"
            sodipodi:argument="-61.313988"
            sodipodi:cy="609.77802"
            sodipodi:cx="-194.89233"
            sodipodi:t0="0.81865972"
            sodipodi:radius="79.203079"
            sodipodi:expansion="4.6199999"
        />
        <path
            id="path3920-7-6-4-7-8-6-8-7-0-9-8-3-4-5-70-2"
            style="stroke-linejoin:round;stroke:#000000;stroke-linecap:round;stroke-width:12.256;fill:#a79151"
            sodipodi:revolution="9.9044476"
            sodipodi:type="spiral"
            d="m-213.36 635.21c-16.012-9.545-20.184-31.021-10.797-46.673 11.003-18.346 35.656-23.109 53.602-12.284 20.937 12.63 26.356 40.817 13.926 61.312-14.439 23.808-46.546 29.95-69.866 15.735-26.978-16.445-33.917-52.887-17.722-79.327 18.663-30.469 59.886-38.284 89.764-19.899 34.305 21.109 43.08 67.591 22.28 101.25-3.987 6.4516-8.9211 12.309-14.585 17.352"
            transform="matrix(.15362 0 0 .13390 -203.41 250.79)"
            sodipodi:argument="-61.313988"
            sodipodi:cy="609.77802"
            sodipodi:cx="-194.89233"
            sodipodi:t0="0.81865972"
            sodipodi:radius="79.203079"
            sodipodi:expansion="4.6199999"
        />
      </g
      >
      <path
          id="path3920-7-6-4-7-8-6-8-7-0-5-18-1-7-4-9"
          style="stroke-linejoin:round;stroke:#000000;stroke-linecap:round;stroke-width:12.256;fill:#a79151"
          sodipodi:revolution="9.9044476"
          sodipodi:radius="79.203079"
          d="m-213.36 635.21c-16.012-9.545-20.184-31.021-10.797-46.673 11.003-18.346 35.656-23.109 53.602-12.284 20.937 12.63 26.356 40.817 13.926 61.312-14.439 23.808-46.546 29.95-69.866 15.735-26.978-16.445-33.917-52.887-17.722-79.327 18.663-30.469 59.886-38.284 89.764-19.899 34.305 21.109 43.08 67.591 22.28 101.25-3.987 6.4516-8.9211 12.309-14.585 17.352"
          transform="matrix(-.17479 0 0 .15235 -285.05 450.68)"
          sodipodi:argument="-61.313988"
          sodipodi:cy="609.77802"
          sodipodi:cx="-194.89233"
          sodipodi:expansion="4.6199999"
          sodipodi:type="spiral"
          sodipodi:t0="0.81865972"
      />
      <path
          id="path3920-7-6-4-7-8-6-8-7-0-2-4-4-0-4-1"
          style="stroke-linejoin:round;stroke:#000000;stroke-linecap:round;stroke-width:12.256;fill:#a79151"
          sodipodi:revolution="9.9044476"
          sodipodi:radius="79.203079"
          d="m-213.36 635.21c-16.012-9.545-20.184-31.021-10.797-46.673 11.003-18.346 35.656-23.109 53.602-12.284 20.937 12.63 26.356 40.817 13.926 61.312-14.439 23.808-46.546 29.95-69.866 15.735-26.978-16.445-33.917-52.887-17.722-79.327 18.663-30.469 59.886-38.284 89.764-19.899 34.305 21.109 43.08 67.591 22.28 101.25-3.987 6.4516-8.9211 12.309-14.585 17.352"
          transform="matrix(-.17479 0 0 .15235 -282.59 463.12)"
          sodipodi:argument="-61.313988"
          sodipodi:cy="609.77802"
          sodipodi:cx="-194.89233"
          sodipodi:expansion="4.6199999"
          sodipodi:type="spiral"
          sodipodi:t0="0.81865972"
      />
      <path
          id="path3920-7-6-4-7-8-6-8-7-0-9-81-2-5-3-3"
          style="stroke-linejoin:round;stroke:#000000;stroke-linecap:round;stroke-width:12.256;fill:#a79151"
          sodipodi:revolution="9.9044476"
          sodipodi:radius="79.203079"
          d="m-213.36 635.21c-16.012-9.545-20.184-31.021-10.797-46.673 11.003-18.346 35.656-23.109 53.602-12.284 20.937 12.63 26.356 40.817 13.926 61.312-14.439 23.808-46.546 29.95-69.866 15.735-26.978-16.445-33.917-52.887-17.722-79.327 18.663-30.469 59.886-38.284 89.764-19.899 34.305 21.109 43.08 67.591 22.28 101.25-3.987 6.4516-8.9211 12.309-14.585 17.352"
          transform="matrix(-.17479 0 0 .15235 -281.98 476.45)"
          sodipodi:argument="-61.313988"
          sodipodi:cy="609.77802"
          sodipodi:cx="-194.89233"
          sodipodi:expansion="4.6199999"
          sodipodi:type="spiral"
          sodipodi:t0="0.81865972"
      />
      <path
          id="path3920-7-6-4-7-8-6-8-7-0-5-7-0-2-9-6-5"
          style="stroke-linejoin:round;stroke:#000000;stroke-linecap:round;stroke-width:12.256;fill:#a79151"
          sodipodi:revolution="9.9044476"
          sodipodi:radius="79.203079"
          d="m-213.36 635.21c-16.012-9.545-20.184-31.021-10.797-46.673 11.003-18.346 35.656-23.109 53.602-12.284 20.937 12.63 26.356 40.817 13.926 61.312-14.439 23.808-46.546 29.95-69.866 15.735-26.978-16.445-33.917-52.887-17.722-79.327 18.663-30.469 59.886-38.284 89.764-19.899 34.305 21.109 43.08 67.591 22.28 101.25-3.987 6.4516-8.9211 12.309-14.585 17.352"
          transform="matrix(-.17479 0 0 .15235 -282.32 490.21)"
          sodipodi:argument="-61.313988"
          sodipodi:cy="609.77802"
          sodipodi:cx="-194.89233"
          sodipodi:expansion="4.6199999"
          sodipodi:type="spiral"
          sodipodi:t0="0.81865972"
      />
      <path
          id="path3920-7-6-4-7-8-6-8-7-0-2-5-3-0-6-5-8"
          style="stroke-linejoin:round;stroke:#000000;stroke-linecap:round;stroke-width:12.256;fill:#a79151"
          sodipodi:revolution="9.9044476"
          sodipodi:radius="79.203079"
          d="m-213.36 635.21c-16.012-9.545-20.184-31.021-10.797-46.673 11.003-18.346 35.656-23.109 53.602-12.284 20.937 12.63 26.356 40.817 13.926 61.312-14.439 23.808-46.546 29.95-69.866 15.735-26.978-16.445-33.917-52.887-17.722-79.327 18.663-30.469 59.886-38.284 89.764-19.899 34.305 21.109 43.08 67.591 22.28 101.25-3.987 6.4516-8.9211 12.309-14.585 17.352"
          transform="matrix(-.17479 0 0 .15235 -281.1 504.15)"
          sodipodi:argument="-61.313988"
          sodipodi:cy="609.77802"
          sodipodi:cx="-194.89233"
          sodipodi:expansion="4.6199999"
          sodipodi:type="spiral"
          sodipodi:t0="0.81865972"
      />
      <path
          id="path3920-7-6-4-7-8-6-8-7-0-9-8-3-7-1-0-0"
          style="stroke-linejoin:round;stroke:#000000;stroke-linecap:round;stroke-width:12.256;fill:#a79151"
          sodipodi:revolution="9.9044476"
          sodipodi:radius="79.203079"
          d="m-213.36 635.21c-16.012-9.545-20.184-31.021-10.797-46.673 11.003-18.346 35.656-23.109 53.602-12.284 20.937 12.63 26.356 40.817 13.926 61.312-14.439 23.808-46.546 29.95-69.866 15.735-26.978-16.445-33.917-52.887-17.722-79.327 18.663-30.469 59.886-38.284 89.764-19.899 34.305 21.109 43.08 67.591 22.28 101.25-3.987 6.4516-8.9211 12.309-14.585 17.352"
          transform="matrix(-.17479 0 0 .15235 -280.5 517.49)"
          sodipodi:argument="-61.313988"
          sodipodi:cy="609.77802"
          sodipodi:cx="-194.89233"
          sodipodi:expansion="4.6199999"
          sodipodi:type="spiral"
          sodipodi:t0="0.81865972"
      />
      <path
          id="path3920-6-93-3-4-1-7-8-2-1-6-6"
          style="stroke-linejoin:round;stroke:#000000;stroke-linecap:round;stroke-width:9.5881;fill:#a79151"
          sodipodi:revolution="9.9044476"
          sodipodi:radius="79.203079"
          d="m-213.36 635.21c-16.012-9.545-20.184-31.021-10.797-46.673 11.003-18.346 35.656-23.109 53.602-12.284 20.937 12.63 26.356 40.817 13.926 61.312-14.439 23.808-46.546 29.95-69.866 15.735-26.978-16.445-33.917-52.887-17.722-79.327 18.663-30.469 59.886-38.284 89.764-19.899 34.305 21.109 43.08 67.591 22.28 101.25-3.987 6.4516-8.9211 12.309-14.585 17.352"
          transform="matrix(-.20791 0 0 .20928 -317.97 390.67)"
          sodipodi:argument="-61.313988"
          sodipodi:cy="609.77802"
          sodipodi:cx="-194.89233"
          sodipodi:expansion="4.6199999"
          sodipodi:type="spiral"
          sodipodi:t0="0.81865972"
      />
      <path
          id="path3920-7-7-473-9-4-9-2-3-5-2-9-0"
          style="stroke-linejoin:round;stroke:#000000;stroke-linecap:round;stroke-width:9.5881;fill:#a79151"
          sodipodi:revolution="9.9044476"
          sodipodi:radius="79.203079"
          d="m-213.36 635.21c-16.012-9.545-20.184-31.021-10.797-46.673 11.003-18.346 35.656-23.109 53.602-12.284 20.937 12.63 26.356 40.817 13.926 61.312-14.439 23.808-46.546 29.95-69.866 15.735-26.978-16.445-33.917-52.887-17.722-79.327 18.663-30.469 59.886-38.284 89.764-19.899 34.305 21.109 43.08 67.591 22.28 101.25-3.987 6.4516-8.9211 12.309-14.585 17.352"
          transform="matrix(.20791 0 0 .20928 -266.11 383.57)"
          sodipodi:argument="-61.313988"
          sodipodi:cy="609.77802"
          sodipodi:cx="-194.89233"
          sodipodi:expansion="4.6199999"
          sodipodi:type="spiral"
          sodipodi:t0="0.81865972"
      />
      <path
          id="path3920-7-6-4-7-8-6-8-7-0-8-9-7-3"
          style="stroke-linejoin:round;stroke:#000000;stroke-linecap:round;stroke-width:12.256;fill:#a79151"
          sodipodi:revolution="9.9044476"
          sodipodi:radius="79.203079"
          d="m-213.36 635.21c-16.012-9.545-20.184-31.021-10.797-46.673 11.003-18.346 35.656-23.109 53.602-12.284 20.937 12.63 26.356 40.817 13.926 61.312-14.439 23.808-46.546 29.95-69.866 15.735-26.978-16.445-33.917-52.887-17.722-79.327 18.663-30.469 59.886-38.284 89.764-19.899 34.305 21.109 43.08 67.591 22.28 101.25-3.987 6.4516-8.9211 12.309-14.585 17.352"
          transform="matrix(.17479 0 0 .15235 -333.71 441.95)"
          sodipodi:argument="-61.313988"
          sodipodi:cy="609.77802"
          sodipodi:cx="-194.89233"
          sodipodi:expansion="4.6199999"
          sodipodi:type="spiral"
          sodipodi:t0="0.81865972"
      />
      <path
          id="path3920-7-6-47-3-3-9-9-4-2-2-7-9-9"
          style="stroke-linejoin:round;stroke:#000000;stroke-linecap:round;stroke-width:12.256;fill:#a79151"
          sodipodi:revolution="9.9044476"
          sodipodi:radius="79.203079"
          d="m-213.36 635.21c-16.012-9.545-20.184-31.021-10.797-46.673 11.003-18.346 35.656-23.109 53.602-12.284 20.937 12.63 26.356 40.817 13.926 61.312-14.439 23.808-46.546 29.95-69.866 15.735-26.978-16.445-33.917-52.887-17.722-79.327 18.663-30.469 59.886-38.284 89.764-19.899 34.305 21.109 43.08 67.591 22.28 101.25-3.987 6.4516-8.9211 12.309-14.585 17.352"
          transform="matrix(-.17479 0 0 .15235 -295.34 436.28)"
          sodipodi:argument="-61.313988"
          sodipodi:cy="609.77802"
          sodipodi:cx="-194.89233"
          sodipodi:expansion="4.6199999"
          sodipodi:type="spiral"
          sodipodi:t0="0.81865972"
      />
      <path
          id="path3920-7-7-5-27-8-9-3-5-9-4-1-8-9"
          style="stroke-linejoin:round;stroke:#000000;stroke-linecap:round;stroke-width:9.5881;fill:#a79151"
          sodipodi:revolution="9.9044476"
          sodipodi:radius="79.203079"
          d="m-213.36 635.21c-16.012-9.545-20.184-31.021-10.797-46.673 11.003-18.346 35.656-23.109 53.602-12.284 20.937 12.63 26.356 40.817 13.926 61.312-14.439 23.808-46.546 29.95-69.866 15.735-26.978-16.445-33.917-52.887-17.722-79.327 18.663-30.469 59.886-38.284 89.764-19.899 34.305 21.109 43.08 67.591 22.28 101.25-3.987 6.4516-8.9211 12.309-14.585 17.352"
          transform="matrix(-.20791 0 0 .20928 -370.44 384.58)"
          sodipodi:argument="-61.313988"
          sodipodi:cy="609.77802"
          sodipodi:cx="-194.89233"
          sodipodi:expansion="4.6199999"
          sodipodi:type="spiral"
          sodipodi:t0="0.81865972"
      />
      <path
          id="path3920-7-7-50-9-4-5-7-3-9-6-2-0-1"
          style="stroke-linejoin:round;stroke:#000000;stroke-linecap:round;stroke-width:9.5881;fill:#a79151"
          sodipodi:revolution="9.9044476"
          sodipodi:radius="79.203079"
          d="m-213.36 635.21c-16.012-9.545-20.184-31.021-10.797-46.673 11.003-18.346 35.656-23.109 53.602-12.284 20.937 12.63 26.356 40.817 13.926 61.312-14.439 23.808-46.546 29.95-69.866 15.735-26.978-16.445-33.917-52.887-17.722-79.327 18.663-30.469 59.886-38.284 89.764-19.899 34.305 21.109 43.08 67.591 22.28 101.25-3.987 6.4516-8.9211 12.309-14.585 17.352"
          transform="matrix(-.20791 0 0 .20928 -391.23 394.74)"
          sodipodi:argument="-61.313988"
          sodipodi:cy="609.77802"
          sodipodi:cx="-194.89233"
          sodipodi:expansion="4.6199999"
          sodipodi:type="spiral"
          sodipodi:t0="0.81865972"
      />
      <path
          id="path3920-7-6-4-7-8-6-8-7-0-9-8-3-4-5-70-5-5"
          style="stroke-linejoin:round;stroke:#000000;stroke-linecap:round;stroke-width:12.256;fill:#a79151"
          sodipodi:revolution="9.9044476"
          sodipodi:radius="79.203079"
          d="m-213.36 635.21c-16.012-9.545-20.184-31.021-10.797-46.673 11.003-18.346 35.656-23.109 53.602-12.284 20.937 12.63 26.356 40.817 13.926 61.312-14.439 23.808-46.546 29.95-69.866 15.735-26.978-16.445-33.917-52.887-17.722-79.327 18.663-30.469 59.886-38.284 89.764-19.899 34.305 21.109 43.08 67.591 22.28 101.25-3.987 6.4516-8.9211 12.309-14.585 17.352"
          transform="matrix(-.17479 0 0 .15235 -279.12 526.31)"
          sodipodi:argument="-61.313988"
          sodipodi:cy="609.77802"
          sodipodi:cx="-194.89233"
          sodipodi:expansion="4.6199999"
          sodipodi:type="spiral"
          sodipodi:t0="0.81865972"
      />
      <path
          id="path6831"
          style="fill-rule:evenodd;fill:#aeb185"
          sodipodi:type="star"
          d="m-254.71 258.59c4.1642 1.8948-69.302 59.548-66.332 63.028 3.0906 3.622 83.207-41.9 86.914-38.913 3.5622 2.8709-81.933 40.442-79.922 44.552 2.0927 4.2768 91.013-19.891 93.861-16.075 2.7363 3.6666-89.417 18.796-88.491 23.276 0.9634 4.6629 93.1 3.3676 94.91 7.7718 1.7385 4.2319-91.282-4.0318-91.5 0.53809-0.22648 4.756 89.338 26.415 89.995 31.131 0.63143 4.5313-87.412-26.606-88.759-22.234-1.4021 4.5502 79.962 47.802 79.426 52.534-0.51529 4.546-78.049-47.509-80.441-43.609-2.4897 4.0586 65.562 66.186 63.866 70.636-1.6296 4.275-63.782-65.426-67.069-62.244-3.4208 3.3119 47.042 80.412 44.293 84.299-2.6416 3.7354-45.507-79.232-49.482-76.967-4.137 2.3572 25.567 89.584 21.937 92.666-3.4876 2.9611-24.373-88.06-28.787-86.855-4.5932 1.2543 2.4848 93.128-1.7971 95.21-4.1144 2.0008-1.7078-91.355-6.2823-91.285-4.7608 0.0726-20.753 90.82-25.418 91.772-4.4827 0.9147 21.065-88.91 16.617-89.98-4.6293-1.1136-42.687 82.806-47.443 82.568-4.5693-0.22883 42.514-80.878 38.472-83.02-4.2069-2.2299-61.939 69.588-66.486 68.175-4.3689-1.358 61.292-67.764 57.909-70.845-3.5202-3.2061-77.299 51.999-81.352 49.499-3.8939-2.4018 76.219-50.392 73.708-54.217-2.6123-3.9808-87.802 31.141-91.106 27.712-3.1743-3.2947 86.356-29.854 84.876-34.184-1.5402-4.5054-92.788 8.3275-95.135 4.1848-2.2552-3.9806 91.068-7.4407 90.711-12.002-0.37139-4.7469-91.944-15.01-93.187-19.606-1.1944-4.4164 90.057 15.441 90.846 10.934 0.82077-4.6901-85.323-37.404-85.384-42.165-0.0585-4.5747 83.388 37.352 85.272 33.183 1.9614-4.3386-73.34-57.447-72.215-62.074 1.081-4.4455 71.479 56.916 74.341 53.347 2.9787-3.7146-56.75-73.882-54.509-78.083 2.1526-4.037 55.079 72.904 58.739 70.159 3.8089-2.8571-36.593-85.674-33.378-89.186 3.0889-3.3749 35.218 84.311 39.446 82.562 4.3998-1.8201-14.137-92.082-10.15-94.685 3.8312-2.5007 13.144 90.421 17.674 89.778 4.7142-0.66872 9.2068-92.705 13.716-94.234 4.3327-1.4693-9.7555 90.849-5.2083 91.353 4.7324 0.52466 31.972-87.503 36.72-87.863 4.562-0.34566-32.042 85.568-27.763 87.188 4.4532 1.6851 52.729-76.803 57.417-75.97 4.5046 0.79972-52.315 74.912-48.574 77.544 3.8942 2.7396 70.172-61.277 74.506-59.305z"
          sodipodi:r1="126.48091"
          inkscape:flatsided="false"
          transform="matrix(.34339 0 0 .29449 -200.43 538.7)"
          sodipodi:arg2="-1.0177158"
          sodipodi:arg1="-0.83217253"
          inkscape:randomized="0"
          sodipodi:cy="352.10675"
          sodipodi:cx="-339.86337"
          inkscape:rounded="0.05"
          sodipodi:r2="35.833881"
          sodipodi:sides="25"
      />
      <g
          id="g8610-3-0-9-8-0"
          style="fill:#65b2b9"
          transform="matrix(2.1127 -.35936 .30824 1.8122 -1177.6 -16.738)"
        >
        <path
            id="path8467-6-9-5-7-1-3-1-0"
            style="stroke-linejoin:round;fill-rule:evenodd;stroke:#000000;stroke-linecap:round;stroke-width:1.56;fill:#65b2b9"
            d="m372.97 435.97c-6.1174 1.6095-12.782-6.993-15.392-21.893-0.46129-2.6332 16.249-7.6864 17.117-5.0029 4.6365 14.341 4.4887 25.261-1.7247 26.896z"
            inkscape:transform-center-x="-0.17337431"
            inkscape:transform-center-y="0.37926447"
            inkscape:connector-curvature="0"
            sodipodi:nodetypes="ssss"
        />
      </g
      >
      <rect
          id="rect3449-0-4-6-4-68-0-0-7-5"
          ry="9.425"
          style="stroke-linejoin:round;fill-rule:evenodd;stroke:#060000;stroke-linecap:round;stroke-width:2.736;fill:#ddc7b4"
          rx="11.553"
          transform="matrix(-.98946 .14482 .14482 .98946 0 0)"
          height="19.458"
          width="26.147"
          y="534.93"
          x="353"
      />
      <g
          id="g8610-3-1-9-8"
          style="fill:#65b2b9"
          transform="matrix(-2.1127 -.35936 -.30824 1.8122 544.37 -18.103)"
        >
        <path
            id="path8467-6-9-5-7-5-5-3"
            style="stroke-linejoin:round;fill-rule:evenodd;stroke:#000000;stroke-linecap:round;stroke-width:1.56;fill:#65b2b9"
            d="m372.97 435.97c-6.1174 1.6095-12.782-6.993-15.392-21.893-0.46129-2.6332 16.249-7.6864 17.117-5.0029 4.6365 14.341 4.4887 25.261-1.7247 26.896z"
            inkscape:transform-center-x="-0.17337431"
            inkscape:transform-center-y="0.37926447"
            inkscape:connector-curvature="0"
            sodipodi:nodetypes="ssss"
        />
      </g
      >
      <rect
          id="rect3449-0-4-6-4-68-2-5-6"
          ry="9.425"
          style="stroke-linejoin:round;fill-rule:evenodd;stroke:#060000;stroke-linecap:round;stroke-width:2.7363;fill:#ddc7b4"
          rx="11.553"
          transform="rotate(8.3269)"
          height="19.458"
          width="26.147"
          y="625.29"
          x="-273.78"
      />
      <path
          id="path3831-2-0-3-22-6-5-8-5-7-71-6"
          d="m-317.08 576.76 10.699 0.3511"
          style="stroke-linejoin:round;stroke:#000000;stroke-linecap:round;stroke-width:2.8441;fill:#ddc7b4"
          inkscape:connector-curvature="0"
      />
      <path
          id="path458-3-6-8-8-1-7-5-2-3-4"
          style="fill:#000000"
          inkscape:connector-curvature="0"
          d="m-334.16 558.81c0 2.0306-1.6448 3.6761-3.6761 3.6761-2.0306 0-3.6768-1.6455-3.6768-3.6761 0-2.03 1.6462-3.6769 3.6768-3.6769 2.0313 0 3.6761 1.6468 3.6761 3.6769"
      />
      <path
          id="path458-9-9-9-1-08-3-2-8-9-0"
          style="fill:#000000"
          inkscape:connector-curvature="0"
          d="m-288.09 557.98c0 2.0306-1.6448 3.6761-3.6761 3.6761-2.0306 0-3.6768-1.6455-3.6768-3.6761 0-2.03 1.6462-3.6768 3.6768-3.6768 2.0313 0 3.6761 1.6468 3.6761 3.6768"
      />
    </g
    >
  </g
  >
  <metadata
    >
    <rdf:RDF
      >
      <cc:Work
        >
        <dc:format
          >image/svg+xml</dc:format
        >
        <dc:type
            rdf:resource="http://purl.org/dc/dcmitype/StillImage"
        />
        <cc:license
            rdf:resource="http://creativecommons.org/licenses/publicdomain/"
        />
        <dc:publisher
          >
          <cc:Agent
              rdf:about="http://openclipart.org/"
            >
            <dc:title
              >Openclipart</dc:title
            >
          </cc:Agent
          >
        </dc:publisher
        >
      </cc:Work
      >
      <cc:License
          rdf:about="http://creativecommons.org/licenses/publicdomain/"
        >
        <cc:permits
            rdf:resource="http://creativecommons.org/ns#Reproduction"
        />
        <cc:permits
            rdf:resource="http://creativecommons.org/ns#Distribution"
        />
        <cc:permits
            rdf:resource="http://creativecommons.org/ns#DerivativeWorks"
        />
      </cc:License
      >
    </rdf:RDF
    >
  </metadata
  >
</svg
>
