<?xml version="1.0" encoding="UTF-8" standalone="no"?>
<svg
   xmlns:dc="http://purl.org/dc/elements/1.1/"
   xmlns:cc="http://creativecommons.org/ns#"
   xmlns:rdf="http://www.w3.org/1999/02/22-rdf-syntax-ns#"
   xmlns:svg="http://www.w3.org/2000/svg"
   xmlns="http://www.w3.org/2000/svg"
   xmlns:sodipodi="http://sodipodi.sourceforge.net/DTD/sodipodi-0.dtd"
   xmlns:inkscape="http://www.inkscape.org/namespaces/inkscape"
   width="171.50964"
   height="259.47498"
   style="overflow:visible"
   version="1.1"
   id="svg359"
   sodipodi:docname="perso02.svg"
   inkscape:version="0.92.5 (2060ec1f9f, 2020-04-08)">
  <metadata
     id="metadata365">
    <rdf:RDF>
      <cc:Work
         rdf:about="">
        <dc:format>image/svg+xml</dc:format>
        <dc:type
           rdf:resource="http://purl.org/dc/dcmitype/StillImage" />
      </cc:Work>
    </rdf:RDF>
  </metadata>
  <defs
     id="defs363" />
  <sodipodi:namedview
     pagecolor="#ffffff"
     bordercolor="#666666"
     borderopacity="1"
     objecttolerance="10"
     gridtolerance="10"
     guidetolerance="10"
     inkscape:pageopacity="0"
     inkscape:pageshadow="2"
     inkscape:window-width="767"
     inkscape:window-height="480"
     id="namedview361"
     showgrid="false"
     inkscape:zoom="0.39333333"
     inkscape:cx="-105.93134"
     inkscape:cy="287.4538"
     inkscape:window-x="42"
     inkscape:window-y="25"
     inkscape:window-maximized="0"
     inkscape:current-layer="svg359" />
  <g
     id="g355"
     transform="translate(-177.96567,-163.98941)">
    <svg
       id="svg322"
       version="1.1"
       style="overflow:visible"
       height="600"
       width="500">
      <svg
         id="svg320"
         version="1.1"
         style="overflow:visible"
         height="600"
         width="500"
         preserveAspectRatio="xMidYMin slice"
         viewBox="0 0 500 600">
        <g
           id="g318">
          <svg
             height="100%"
             width="100%"
             id="svg316"
             version="1.1"
             viewBox="0 0 500 600">
            <path
               style="fill:#ffffff;fill-rule:evenodd"
               inkscape:connector-curvature="0"
               id="path176"
               d="M 185.5,242.9 302,241.5 c 1.7,57.3 9.8,144.8 -53,149 -65.7,-12.8 -72.1,-78.2 -63.5,-147.6 z" />
            <path
               style="fill-rule:evenodd"
               inkscape:connector-curvature="0"
               id="path178"
               d="m 310.5,265.7 c -0.7,-13 0.3,-29.3 -11.2,-37.9 -21.5,-13.9 -54.1,-16.2 -76.1,-2.3 79.9,-12.7 114.4,25.2 7.5,18.9 21.8,7.8 47.8,9.5 68.8,-1.3 6.6,37.5 0.5,76.5 -10,112.8 -2.9,16.3 -15.5,29 -32.5,29.2 26.2,11.4 36.9,-12.4 41.8,-33.9 a 291,291 0 0 0 11.4,-85.5 z" />
            <path
               style="fill-rule:evenodd"
               inkscape:connector-curvature="0"
               id="path180"
               d="m 236.4,367.3 0.2,0.3 c 0,-0.1 0.1,-0.2 0.1,-0.3 h -0.3" />
            <path
               style="fill-rule:evenodd"
               inkscape:connector-curvature="0"
               id="path182"
               d="m 226,244.2 -2.2,-0.2 a 71.6,71.6 0 0 0 -1.9,8 44.2,44.2 0 0 1 6.3,-0.1 49.8,49.8 0 0 1 1.8,-7.4 l -4,-0.3" />
            <path
               style="fill-rule:evenodd"
               inkscape:connector-curvature="0"
               id="path184"
               d="m 282.1,248.5 v 0 m 9.3,-20.5 a 26.6,26.6 0 0 1 10.1,3.9 c -6.1,1.8 2.9,6.2 -11.4,9.4 -10.7,4 -97.3,8.4 -93.7,-7.7 l -2.1,-0.8 C 225.2,222.5 260,219 291.4,228 m 18.5,3.8 c -14.2,-20.3 -112.3,-19.5 -126.5,0.3 -8.1,19.1 -4.6,41 -5.1,61.3 0.9,31.3 10.3,65.4 33.7,87.4 10.2,12.1 67.2,15 69.1,-2.3 -3.5,-1.7 -6.8,4.5 -10.7,4.9 -22,5.4 -51.7,3.1 -63.2,-19.5 -22.7,-36.7 -23.8,-82.2 -17.9,-123.8 15.1,12.4 36.8,9.8 55.2,9.7 a 218.2,218.2 0 0 0 31.3,-0.8 h 0.2 l 1.3,-0.2 h 1 l 1.7,-0.2 h 1 c 0.4,-0.1 0.8,-0.1 0.2,-0.1 h 0.4 c 10.6,-1.9 28.1,-2.7 28.3,-16.4" />
            <path
               style="fill-rule:evenodd"
               inkscape:connector-curvature="0"
               id="path186"
               d="m 282.8,248.4 v 0" />
            <path
               style="fill-rule:evenodd"
               inkscape:connector-curvature="0"
               id="path188"
               d="m 282.9,249 v 0 m -0.2,0 h -0.5 c 0.3,-0.1 0.2,0.2 0.5,0 v 0" />
            <path
               style="fill-rule:evenodd"
               inkscape:connector-curvature="0"
               id="path190"
               d="m 280.9,248.4 -0.8,0.2 0.9,-0.2 h -0.1" />
            <path
               style="fill-rule:evenodd"
               inkscape:connector-curvature="0"
               id="path192"
               d="m 205.6,236.6 -1.1,0.2 a 10.8,10.8 0 0 0 1.9,0.8 c 0.1,-0.1 0.1,-0.3 0.2,-0.4 l -1,-0.6" />
            <path
               style="fill-rule:evenodd"
               inkscape:connector-curvature="0"
               id="path194"
               d="m 304.7,263.1 a 2.4,2.4 0 0 0 -2.7,-1 v 0 l 0.3,4.9 c 1.6,-0.5 3.6,-2.1 2.4,-3.9" />
            <path
               style="fill-rule:evenodd"
               inkscape:connector-curvature="0"
               id="path196"
               d="m 289.3,267.3 v 0.4 h 0.2 c 0,-0.2 0.1,-0.4 0.1,-0.6 l -0.3,0.2" />
            <path
               style="fill:#bd8d46;fill-rule:evenodd"
               inkscape:connector-curvature="0"
               id="path198"
               d="m 300.3,234.2 c -1.5,-17.1 -86.6,-5.9 -100.2,-1.8 -20.2,3.6 -15.2,20.1 -2.5,14.4 12.7,7.7 30.2,1.6 44.5,3.2 15,-2 59.7,7.5 58.2,-15.8" />
            <path
               style="fill-rule:evenodd"
               inkscape:connector-curvature="0"
               id="path200"
               d="m 189,235.9 -0.2,0.2 0.2,-0.2 m 3.4,-2.2 c 24.5,-10.9 75.2,-8.7 100.3,-0.3 -17.4,9.2 -89.7,15.2 -103,2 l 2.7,-1.7 m 102.1,-2.3 v 0.3 c -0.1,-0.1 0,-0.2 0,-0.3 m 0.6,3.1 0.2,0.2 c -0.1,0 -0.1,-0.1 -0.2,-0.2 v 0 m 9,-0.2 a 2.8,2.8 0 0 0 -1.2,-0.4 c 3.8,-21.9 -128.7,-20.3 -118.2,4.3 -11.8,20.1 68.6,12.7 79.4,12.5 8.6,-0.3 49,-1.4 40,-16.4" />
            <path
               style="fill-rule:evenodd"
               inkscape:connector-curvature="0"
               id="path202"
               d="m 259,225.6 c -8.6,-15.8 -14.2,-8.4 -3,-27.8 0.3,-12.9 -9.5,-11 -2.6,-30.3 3.4,-4.2 -4.2,-6.5 -5.7,4.2 -3.8,9.1 1.9,16.7 4.4,24.7 -8.3,13.4 -8.7,17.9 3.2,29.2 -7.4,6.9 -17.3,11.2 -26.9,14.2 -6.7,10.1 31.8,-8.7 30.6,-14.2 v 0" />
            <path
               style="fill-rule:evenodd"
               inkscape:connector-curvature="0"
               id="path204"
               d="m 234.5,187.2 z m 0.2,-0.1 z m 0.2,-0.5 z m 0,0.4 z m 6.9,32.8 c -5.3,-10.4 -11.2,-20.4 -7,-32.5 v 0 c 3.1,0.7 3.9,-3.8 0.7,-4 -10.5,-0.5 -6.6,22.1 -2.7,27.8 13,16.8 -1.5,15.4 0.9,23.9 4.9,-0.1 9.2,-10.6 8.1,-15.2 z" />
            <path
               style="fill-rule:evenodd"
               inkscape:connector-curvature="0"
               id="path206"
               d="m 271.7,195.1 c -2.4,-3 -6.3,1.4 -8.4,2.9 -4.6,5.5 0.9,12.3 0.1,18.5 -0.8,6.2 -8.8,9.7 -7.8,14.9 3.5,1.9 5.7,-4.5 8,-6.3 5.6,-6.3 3.2,-14.5 2.1,-21.9 -0.3,-4.3 7.6,-3.9 6,-8.1" />
            <path
               inkscape:connector-curvature="0"
               id="path208"
               style="opacity:0.2;isolation:isolate;fill-rule:evenodd"
               d="m 209.9,292.5 v -0.3 a 0.2,0.2 0 0 0 0,0.3 m 27.5,77 C 226,336 219,300.6 215.3,265.4 c -0.4,-4.1 0.4,-24.3 -6.9,-15.4 -1.8,-8.4 -9.6,-6.2 -15.4,-3.4 -6.3,4.3 -5.1,13.1 -6.4,19.8 -3.5,20.9 2.4,41.2 8.5,61.1 6.1,19.9 12.4,36.8 24.6,52 12.8,18.7 24.9,9.5 17.7,-10" />
            <path
               style="fill-rule:evenodd"
               inkscape:connector-curvature="0"
               id="path210"
               d="m 225.7,244.4 c -5,0.9 -45,-6.9 -39.7,0.8 1.3,5.4 51.8,8.1 39.7,-0.8" />
            <path
               style="fill-rule:evenodd"
               inkscape:connector-curvature="0"
               id="path212"
               d="m 291.5,369.7 c -0.1,-2.8 -3.9,-2.8 -4.9,-0.4 -14.8,18.4 -47.3,23.4 -66.7,9.6 -4.5,-1.3 -7.8,3 -2.8,5.9 13.7,8.3 31.6,10.3 47.2,7.4 11.5,-3.1 21.2,-12.7 27.2,-22.5" />
            <path
               style="fill-rule:evenodd"
               inkscape:connector-curvature="0"
               id="path214"
               d="m 304.6,314.3 c -5.5,2.3 -2.6,8.3 1.7,10.1 0.1,-4.3 0.8,-8.7 1.1,-13 a 12.8,12.8 0 0 1 -2.8,2.9" />
            <path
               style="fill-rule:evenodd"
               inkscape:connector-curvature="0"
               id="path216"
               d="m 306.9,291.1 c -1.4,2.5 0.7,4.7 3,5.4 0.1,-2.3 0.4,-4.5 0.5,-6.8 a 2.8,2.8 0 0 0 -3.5,1.4" />
            <path
               style="fill-rule:evenodd"
               inkscape:connector-curvature="0"
               id="path218"
               d="m 223.5,339.1 c 0.5,3.2 0.9,6.5 1.4,9.7 -0.9,-3.8 -2.5,-7.5 -2.8,-11.3 0.4,0.7 1.5,0.8 1.4,1.6" />
            <path
               style="fill-rule:evenodd"
               inkscape:connector-curvature="0"
               id="path220"
               d="m 260.4,414.2 c -1.1,-6.9 0.6,-15.2 -2.5,-21.5 -2.6,-2.6 -7.4,-0.5 -7.3,3.2 0.4,6.3 0.9,12.7 1.2,19 -2.9,1.7 -3.2,6.3 -0.2,8 5.5,2.4 10.2,-3.3 8.8,-8.7" />
            <path
               style="fill-rule:evenodd"
               inkscape:connector-curvature="0"
               id="path222"
               d="m 278.4,412.8 v 0 m 7.2,-2.7 c -1.3,-2.6 -4.4,-3.3 -7.1,-3 -1.5,-6 3.9,-18.4 -4.1,-20.2 -7.9,1.7 -2.9,13.7 -4.3,19.6 0.3,3.4 -1.2,9 3.2,10.2 2.8,0.9 4.9,-2 7.5,-2.3 2.6,-0.3 6.6,-0.8 4.8,-4.3" />
            <path
               style="fill-rule:evenodd"
               inkscape:connector-curvature="0"
               id="path224"
               d="m 206.4,317.2 c -3.2,0.6 -7.2,-0.3 -9.9,1.5 -2.5,5.9 4.8,3.4 8,3.5 a 108.2,108.2 0 0 1 52,9.3 50.3,50.3 0 0 1 11.4,7.3 c 2.9,1.2 3.7,-3.7 1.9,-5.1 -17.9,-13.2 -41.4,-17.5 -63.4,-16.5" />
            <path
               style="fill-rule:evenodd"
               inkscape:connector-curvature="0"
               id="path226"
               d="m 344.6,318.7 v 0 m -16.1,-5.6 c -21,1.1 -45.3,5.3 -60.2,21.4 -1.2,7.1 3.9,1 6,-1.1 9.7,-7.9 22.4,-10.7 34.2,-14 11.8,-3.3 25.6,-1.7 38,-0.7 4.7,-7.5 -14.2,-5.3 -18,-5.6" />
            <path
               style="fill-rule:evenodd"
               inkscape:connector-curvature="0"
               id="path228"
               d="m 341.7,314.9 c -0.8,15.3 0.9,31.3 -0.9,46.8 0.5,6.3 -4.4,15.2 -0.1,20.3 6.4,4.4 7.9,-75.3 1,-67.1" />
            <path
               style="fill-rule:evenodd"
               inkscape:connector-curvature="0"
               id="path230"
               d="m 278,386.7 v 0 m 24.4,-9.8 v 0 m -0.9,-4.1 c -4.7,1.3 -32.5,7 -24.9,14.2 13,-6.3 27.5,-13.3 42.7,-10 4.6,-0.4 21.7,8.3 22.6,4.6 -4.4,-7.9 -31.2,-10.7 -40.4,-8.8" />
            <path
               style="fill-rule:evenodd"
               inkscape:connector-curvature="0"
               id="path232"
               d="m 268.5,333.1 c -1.3,0.6 -1.6,2.7 -1.4,4 1,10.3 1.5,20.7 1.8,31 0.3,5.6 -1.1,11.8 1.6,16.9 2.3,3 4.4,-1.8 3.3,-4 -1.8,-6.3 0.7,-48 -5.3,-47.9" />
            <path
               style="fill-rule:evenodd"
               inkscape:connector-curvature="0"
               id="path234"
               d="m 199.1,324.2 c -2.7,1.7 -0.5,50.4 3.9,38.5 A 213.1,213.1 0 0 1 200.2,327 c 1.6,-0.4 0.4,-3.9 -1.1,-2.8" />
            <path
               style="fill-rule:evenodd"
               inkscape:connector-curvature="0"
               id="path236"
               d="m 212.5,361 c -3.3,0.8 -10.5,-1.4 -11.4,2.7 -0.9,4.1 19,-0.1 23.7,2.2 a 102.5,102.5 0 0 1 45.8,16.4 c 2.5,0.6 5.8,6.2 7.9,4.1 1.9,-5.1 -5.9,-7.5 -9.1,-9.8 -17.2,-10.3 -36.9,-15.3 -56.9,-15.6" />
            <path
               style="fill-rule:evenodd"
               inkscape:connector-curvature="0"
               id="path238"
               d="m 202.7,372.1 v 0 m -4.4,-52.5 c -5.2,9.9 -2.4,20.3 0.1,30.5 1.5,7.8 0.3,16.1 2.8,23.6 26.8,-10 46.9,-0.3 72.9,7.9 4.7,-2.9 -10.8,-5.3 -12.8,-6.8 -18.4,-7.1 -40.1,-13.2 -58.7,-3.9 q -0.6,-5.5 -0.9,-11.1 v 0 c 0,-0.7 -0.2,-1.6 -0.2,-2.3 v 0.4 c 0,-9.4 -4.8,-17.9 -4.7,-27.2 -0.4,-1.9 5.6,-15.5 1.5,-11.2" />
            <path
               style="fill-rule:evenodd"
               inkscape:connector-curvature="0"
               id="path240"
               d="m 203,325 a 0.1,0.1 0 0 1 -0.1,0.1 0.1,0.1 0 0 1 0.1,-0.1 m 11.4,-5.9 c -3.7,2 -9.9,1.8 -11.6,6.1 -2.6,0.2 -7.3,2.2 -3.5,4.7 2.3,0.1 5.7,-0.7 5.9,-3.5 v 0 c 2.1,-1.9 15.1,-3.7 9.2,-7.3" />
            <path
               style="fill:#ffffff;fill-rule:evenodd"
               inkscape:connector-curvature="0"
               id="path242"
               d="m 213.4,322.2 c -0.9,0.3 -1.1,1.9 -1.1,2.9 0,1 -2.1,1.5 -2,2.9 -1.9,0.2 -4.4,-0.1 -5.8,1.4 -1.4,3.7 -0.2,6.8 4,6.6 -0.1,1.4 -0.3,4.7 1.6,4.8 0.3,1.8 1.9,1.6 3.3,1.5 4.7,1.4 11.7,-0.2 16.7,-1 2.3,-1.1 2.1,-6.6 0.3,-8.1 a 6.8,6.8 0 0 0 0.2,-2 v 0 c 3.7,0.7 6.1,1.4 5.4,-3.5 -0.7,-4.9 -5.3,-3.4 -8.1,-4 -3.2,-2.4 -10.3,-1.3 -14.5,-1.5" />
            <path
               style="fill:#ffffff;fill-rule:evenodd"
               inkscape:connector-curvature="0"
               id="path244"
               d="m 263.5,367.1 a 11.8,11.8 0 0 0 0.6,-2.7 c 0.2,1.6 0.7,3.3 1,4.9 l -1.9,-1.4 z m 0.6,-2.7 z m -0.2,-1.5 c 0,0.2 0.1,0.3 0.1,0.5 a 4.3,4.3 0 0 1 -0.1,-0.5 z M 207,334 a 22.8,22.8 0 0 1 6.9,0.1 c -9.4,2.3 -8.9,20.7 -5.2,27.5 l -2.7,0.7 c 0,-9.4 1.6,-19.1 -1,-28.2 z m -3.9,-7.2 c 0,0.4 0.2,0.9 0.2,1.3 0,0.4 -0.1,-0.9 -0.2,-1.3 z m 0.2,-4.7 c -10,2.2 1.5,25.7 -1.5,34.7 0.3,5.5 -3,20.2 6.4,15.1 18.7,-4.5 42.2,-4.1 58.1,7.6 6.4,-1.9 -0.4,-25.1 -1.4,-31 -0.4,-17.2 -19.9,-22.4 -33.9,-24.8 -4.6,-0.9 -9.6,-1.8 -14,0 -4.5,-2.2 -8.8,-2.2 -13.7,-1.6 z" />
            <path
               style="fill:#ffffff;fill-rule:evenodd"
               inkscape:connector-curvature="0"
               id="path246"
               d="m 213.2,347.1 v 0 m 10,-20.2 c -5,0.8 -7.7,4.5 -8.6,9 -7.6,4.7 -0.3,30.7 0.8,16.9 -1.7,-4.2 -4,-6.6 0.6,-10.3 8.2,5.3 19,5.5 28.5,6.8 0,1.7 0.1,6.7 2.5,5.7 3.9,-3 8.9,-6.1 9,-11.7 1.9,-16 -21.3,-18.2 -32.8,-16.4" />
            <path
               style="fill:#ffffff;fill-rule:evenodd"
               inkscape:connector-curvature="0"
               id="path248"
               d="m 330.9,314 c -18.9,1.2 -41.5,3.3 -55.7,16.8 -5.4,3 -2.5,23.8 -2.6,30.3 v 0 c 0.1,48 10.5,-2.3 59.4,15.1 10.3,1.7 5.8,-14.9 7.2,-21.2 -0.8,-10.1 6.9,-31.1 -0.2,-38.1 -1.7,-2.6 -5.3,-2.8 -8.1,-2.8" />
            <path
               style="fill-rule:evenodd"
               inkscape:connector-curvature="0"
               id="path250"
               d="m 339.4,318.8 v 0 m -13.7,-6.7 c -20.4,0.9 -43.8,6.2 -57.8,21.9 -0.2,5.5 3.9,1.8 5.9,-0.3 6.5,-5.1 14.4,-8 22.1,-10.8 14.5,-4.4 31,-6.2 45.9,-3.3 1.8,0.6 2.4,-2.4 2.2,-3.8 -2.9,-5.9 -12.8,-2.9 -18.3,-3.7" />
            <path
               style="fill-rule:evenodd"
               inkscape:connector-curvature="0"
               id="path252"
               d="m 275.9,382.1 v 0 m 0,-0.5 v 0 m -7.4,-48.9 c -1.1,7.2 1.3,14.9 1.3,22.3 1.6,5.7 -1.7,29.9 5.2,29.5 2.2,-12.3 -2.7,-26.6 -2.7,-39.5 v 0 c -1.1,-2.7 0.9,-14.9 -3.8,-12.4" />
            <path
               style="fill-rule:evenodd"
               inkscape:connector-curvature="0"
               id="path254"
               d="m 297.4,372.7 z m -6.3,6.3 z m 22.2,-7.6 a 90.7,90.7 0 0 0 -18,1.7 h 0.5 c -4.2,-0.9 -32.1,10.6 -20.8,13.6 7.7,-7 18.2,-8.2 28.1,-9.4 9.9,-1.2 21.1,-0.7 31,2.7 1.7,0.7 3.9,1.2 4.4,-1.3 -1,-7.5 -18.9,-6.3 -25.2,-7.2 z" />
            <path
               style="fill-rule:evenodd"
               inkscape:connector-curvature="0"
               id="path256"
               d="m 342.5,319.2 c -0.8,0.7 -0.5,2.1 0,2.9 1.3,3.2 1.3,6.5 1.4,10 0.1,3.5 -2.6,35.2 1.5,28.5 -0.8,-9.5 4.2,-36.3 -2.9,-41.4" />
            <path
               style="fill-rule:evenodd"
               inkscape:connector-curvature="0"
               id="path258"
               d="m 195.1,347.1 z m 6.2,-29 c -16.2,4.3 -3.5,33.5 -4.4,46 1.5,12.3 0.4,13.9 13.1,9.9 17.5,-2 36.3,-1.2 52.9,5.1 2,1 6.5,3.7 5.8,-0.7 -1.3,-2.7 -5.3,-3.4 -7.8,-4.8 a 107.7,107.7 0 0 0 -59.3,-0.8 h -0.1 c -1.4,-13.6 -3,-27.2 -5.7,-40.7 -1.1,-4.8 0.6,-10.4 5.9,-11.5 3,0.8 2.3,-4.1 -0.4,-2.5 z" />
            <path
               style="fill-rule:evenodd"
               inkscape:connector-curvature="0"
               id="path260"
               d="m 266.5,336.6 c -0.9,11.8 2.9,23.9 4,35.7 -0.1,1 0.3,2.3 1.3,2.4 3.7,-6.4 -1.6,-16.9 -1.5,-24.5 -1.3,-2.5 0.7,-17.2 -3.8,-13.6" />
            <path
               style="fill-rule:evenodd"
               inkscape:connector-curvature="0"
               id="path262"
               d="m 215.8,319 a 17.1,17.1 0 0 0 -9,4.7 c -1,1.4 -1.5,3.4 -3.1,4.4 -3.3,0.7 -7.1,1.4 -7.6,5.4 0,-0.1 0,-0.1 0.1,-0.2 0.1,-0.1 -0.4,1.3 0.1,1.5 0.5,0.2 1.2,-2.9 2.5,-3.4 6.6,-1.8 6.2,-1.1 9.8,-7.2 h -0.1 c 3.1,-2.3 7.2,-4.9 10.9,-2.5 2.9,-1.2 -2.3,-3.1 -3.6,-2.8" />
            <path
               style="fill-rule:evenodd"
               inkscape:connector-curvature="0"
               id="path264"
               d="m 210.7,323.4 a 0.1,0.1 0 0 1 -0.1,0.1 h 0.1 m 0.9,-4.3 c -3.3,0.3 -4,4.2 -5.8,6.3 -3.9,2.9 -11.3,8 -9.2,13.4 2.5,0.8 3.1,-4.6 5.1,-5.8 3.5,-3 7.3,-5.2 9.1,-9.7 a 4.6,4.6 0 0 1 3,-0.9 c 2.8,-1.3 0.5,-4.4 -2.2,-3.3" />
            <path
               style="fill-rule:evenodd"
               inkscape:connector-curvature="0"
               id="path266"
               d="m 198.6,369.8 v 0 m -1.3,-9.1 c 0,0.1 0,0.1 0.1,0.2 0.1,0.1 -0.1,-0.1 -0.1,-0.2 m 2.6,-30.7 c -3.9,0.6 -18.4,9.4 -12.2,13.2 8.7,6 9.5,19.3 11.4,28.9 8.8,2.9 -3.7,-31.6 -9.5,-32.4 0.5,-4 16.1,-8.1 10.3,-9.7" />
            <path
               style="fill-rule:evenodd"
               inkscape:connector-curvature="0"
               id="path268"
               d="m 216,321 c -8.5,-0.5 -31,12.7 -28.4,21.8 0.6,0.2 1.1,-0.3 1.3,-1 1.6,-4.4 6.2,-7.4 9.9,-10 7.1,-4.5 15.8,-7.3 24.2,-5.3 0.9,0.3 1.6,-0.5 1.8,-1.4 0.3,-4.2 -5.6,-3.3 -8.3,-3.8 -0.1,-0.3 -0.3,-0.3 -0.5,-0.3" />
            <path
               style="fill-rule:evenodd"
               inkscape:connector-curvature="0"
               id="path270"
               d="m 221.5,335.4 c -29.2,3.2 13.1,0.1 19.9,1.7 18.5,4 16.9,1.5 0,-1.5 a 101.8,101.8 0 0 0 -19.9,-0.2" />
            <path
               style="fill-rule:evenodd"
               inkscape:connector-curvature="0"
               id="path272"
               d="m 241,342 c -3.3,0 -35.3,0.6 -31.4,5 a 151.2,151.2 0 0 1 34.2,-3.1 c 19.9,2.7 6.7,-2.3 -2.8,-1.9" />
            <path
               style="fill-rule:evenodd"
               inkscape:connector-curvature="0"
               id="path274"
               d="m 227.6,347 c -3.1,1.2 -16.7,-0.5 -15.3,3.9 5.1,0.6 11.2,-1.5 16.6,-1.2 5.4,0.3 12,1.2 16,-0.6 -0.5,-3.6 -13.6,-1.4 -17,-2 0,-0.1 -0.2,-0.1 -0.3,-0.1" />
            <path
               style="fill-rule:evenodd"
               inkscape:connector-curvature="0"
               id="path276"
               d="m 223.1,351 c -2.8,-0.1 -5.6,0.2 -8.4,0.3 -4.1,3.6 10.9,0.6 12.7,1.6 2.3,-2 -3.1,-2 -4.3,-1.9" />
            <path
               style="fill-rule:evenodd"
               inkscape:connector-curvature="0"
               id="path278"
               d="m 214.8,354 c -4.5,2.2 8.9,3 5.7,0.8 -1.7,0 -3.4,-0.4 -5.1,-0.3 a 0.6,0.6 0 0 0 -0.6,-0.5" />
            <path
               style="fill-rule:evenodd"
               inkscape:connector-curvature="0"
               id="path280"
               d="m 228.5,358 -11.1,0.8 c -1.3,0.4 -3.8,-0.8 -4.5,0.5 -0.7,1.3 19.6,0.5 15.6,-1.3 v 0" />
            <path
               style="fill-rule:evenodd"
               inkscape:connector-curvature="0"
               id="path282"
               d="m 239,356.4 c 1.3,3.2 7.3,0.7 10.3,1.7 3,1 12.8,3 10.1,-1.1 -6.4,-1.6 -13,-1.8 -19.6,-2 -0.4,0 -0.8,0.6 -0.8,1.4" />
            <path
               style="fill-rule:evenodd"
               inkscape:connector-curvature="0"
               id="path284"
               d="m 240,361.1 c 2.5,2.9 9.1,1 13,1.9 -0.2,1.6 2.3,0.6 2.8,-0.1 0.5,-3.5 -12.1,-1.9 -15,-2.9 -0.5,0 -0.8,0.6 -0.8,1.1" />
            <path
               style="fill-rule:evenodd"
               inkscape:connector-curvature="0"
               id="path286"
               d="m 240.2,363.3 c -1,3.4 5.3,1.8 7.4,2.7 3.8,0 9.2,3 12.2,1.4 -3.9,-4.1 -13.4,-2.9 -19.2,-4.3 -0.1,-0.1 -0.3,0.1 -0.4,0.2" />
            <path
               style="fill-rule:evenodd"
               inkscape:connector-curvature="0"
               id="path288"
               d="m 280.3,340.5 v 0 M 301.2,328 a 121.4,121.4 0 0 0 -23.4,11.6 h -0.1 c -1.1,0.2 -0.9,2.9 0.4,2.1 3.5,-2.2 7.4,-4.3 11,-6.4 1.9,-1.8 14.9,-5 12.1,-7.5 0.1,0.1 0.1,0.1 0,0.1" />
            <path
               style="fill-rule:evenodd"
               inkscape:connector-curvature="0"
               id="path290"
               d="m 301.4,334.1 v 0 m 0.8,-0.1 c -3.1,0.4 -29,8.6 -23.1,12 2.6,-3 27.9,-9.6 23.1,-12 v 0" />
            <path
               style="fill-rule:evenodd"
               inkscape:connector-curvature="0"
               id="path292"
               d="m 307.3,337 c -10,4.2 -22.2,7.7 -30.3,14.3 0.6,2 10.9,-5.3 13.3,-5.7 2.3,-2 19.3,-6.2 17,-8.7 0.1,0.1 0.1,0.1 0,0.1" />
            <path
               style="fill-rule:evenodd"
               inkscape:connector-curvature="0"
               id="path294"
               d="m 300.4,343 c -7.6,3.3 -17.6,6.1 -23.5,11.3 4.9,0.3 11.6,-5.5 17.1,-7.1 1.4,-1.2 8.1,-2.2 6.4,-4.3 0.1,0.1 0.1,0.1 0,0.1" />
            <path
               style="fill-rule:evenodd"
               inkscape:connector-curvature="0"
               id="path296"
               d="m 301.2,347 c -7.8,3.8 -18.1,5.9 -24.3,11.3 4.3,0.9 10.8,-4.7 15.8,-5.8 1.7,-1.5 10.9,-2.9 8.6,-5.4 0,-0.1 0,-0.1 -0.1,-0.1" />
            <path
               style="fill-rule:evenodd"
               inkscape:connector-curvature="0"
               id="path298"
               d="m 316.5,327.9 z m 6.6,0.9 z m -0.2,0.1 z m -0.4,0 z m -2.3,0.5 z m -2.3,0.5 z m -0.3,0.1 h 0.1 c 0,-0.1 -0.1,-0.1 -0.1,0 z m -0.8,0.1 z m -0.1,0 z m -0.1,0.1 z m 0,0 z m 0.2,-0.1 z m 6.6,-1.4 z m 0.2,0 z m -7.2,-0.8 z m 7,-1.4 z m 8.5,-1.3 -8.6,1.3 h -0.4 l -6.5,1.3 h -0.3 c -1.3,0.6 -3.7,0.2 -4.3,1.5 -0.6,3 3,0.8 4.5,0.8 h 0.8 l 1.8,-0.4 h 0.1 c 0,0 0.5,-0.1 0.2,-0.1 h 0.2 l 2.2,-0.5 h 1 c 1.7,-0.9 14.5,-1.1 10.8,-3.8 z" />
            <path
               style="fill-rule:evenodd"
               inkscape:connector-curvature="0"
               id="path300"
               d="m 317,334.3 z m 18.5,-5.3 c -3.2,0.7 -25.5,0.6 -21.9,5.7 1.1,0.4 2.3,-0.4 3.4,-0.5 h 0.1 c 6.7,-1.2 13.5,-2.2 20.2,-2.9 0.4,0 0.8,-0.5 0.8,-1.2 0,-0.7 -1.7,-1.2 -2.6,-1.1 z" />
            <path
               style="fill-rule:evenodd"
               inkscape:connector-curvature="0"
               id="path302"
               d="m 331.7,335 c -4.4,0.8 -14.2,-0.7 -16.6,2.8 1.9,3.4 13,-0.8 17.1,-0.1 1.6,0 5.5,0.2 3.4,-2.2 -1.3,-0.5 -2.7,-0.1 -3.9,-0.5" />
            <path
               style="fill-rule:evenodd"
               inkscape:connector-curvature="0"
               id="path304"
               d="m 327.9,341.2 c -2.7,0.9 -15.7,-1 -12.2,3.9 5.6,-0.7 11.1,-1 16.7,-1.7 2.5,-3.1 -2.6,-2.4 -4.5,-2.2" />
            <path
               style="fill-rule:evenodd"
               inkscape:connector-curvature="0"
               id="path306"
               d="m 319,357.7 v 0 m 9.9,-3.7 c -15.8,2.5 -34.9,5.5 -47.8,14.1 2.8,1.9 10.7,-3.8 14.8,-4.1 a 181.8,181.8 0 0 1 32.3,-8.1 c 1,-0.4 2.8,0.4 2.9,-1.1 0.1,-1.5 -1.4,-1 -2.2,-0.8" />
            <path
               style="fill-rule:evenodd"
               inkscape:connector-curvature="0"
               id="path308"
               d="m 324.5,361 c -4.5,0.7 -43.7,2.2 -40,7.5 11.4,-0.2 23.7,-3.5 35.5,-4.2 3.4,-0.3 6.7,-0.3 10.1,-0.3 3.7,-3.1 -3.6,-2.9 -5.6,-3 v 0" />
            <path
               style="fill-rule:evenodd"
               inkscape:connector-curvature="0"
               id="path310"
               d="m 324,353 c -9.9,1 -35,1.6 -41.1,8 1,2.4 4.2,-0.5 6,-0.3 a 173.9,173.9 0 0 1 23.8,-4 148.6,148.6 0 0 1 16.3,-1 c 3.3,-2.8 -3.2,-2.9 -5,-2.7" />
            <path
               style="fill-rule:evenodd"
               inkscape:connector-curvature="0"
               id="path312"
               d="m 199,349.2 c -0.3,1.3 0.3,2.2 0.8,3.2 -0.8,-0.9 -1.9,-1.3 -2.4,-2.3 -0.5,-1 1.1,-0.6 1.6,-1 z m 6.2,-4.5 v 0 c 0,-0.1 0.1,-0.1 0.1,-0.2 a 0.3,0.3 0 0 1 -0.1,0.2 z m -7,-2.3 z m -1.7,-7.3 c 3,0.4 3.5,4.8 2,6.9 a 17,17 0 0 0 -1.5,4.5 c 4,-3.8 15.9,-5.4 9.3,3 a 4.8,4.8 0 0 1 0,5.6 v 0 c 1.7,3.6 -1.9,7.9 -5.7,6.9 a 6.7,6.7 0 0 1 -3.6,-3.6 8.8,8.8 0 0 1 -4.5,-4.6 c -2.4,-5.6 -2.3,-16 4,-18.7 z m 0.6,-60.2 9.4,46.1 -8.5,-2 -9.4,-40 z M 310,263 l 20,51 -7.7,3 -15.8,-45.2 z" />
            <path
               style="fill-rule:evenodd"
               inkscape:connector-curvature="0"
               id="path314"
               d="m 340.6,351.6 z m 2.7,-7.8 v 0 c 0.3,0.8 0.7,1.2 0.6,2 -0.1,0.8 -0.8,-1.3 -0.6,-2 z m -0.6,-8.1 c -4.5,-1.2 -6.9,0.8 -4.9,5.7 a 4.7,4.7 0 0 0 -0.4,5 c -4.3,7.2 4.9,13 10,6.7 3.1,-4.7 3.6,-19.4 -4.7,-17.4 z" />
          </svg>
        </g>
      </svg>
    </svg>
    <svg
       id="svg353"
       version="1.1"
       style="overflow:visible"
       height="600"
       width="500">
      <svg
         id="svg351"
         version="1.1"
         style="overflow:visible"
         height="600"
         width="500"
         preserveAspectRatio="xMidYMin slice"
         viewBox="0 0 500 600">
        <g
           id="g349">
          <svg
             height="100%"
             width="100%"
             id="svg347"
             version="1.1"
             viewBox="0 0 500 600">
            <defs
               id="defs327">
              <mask
                 maskUnits="userSpaceOnUse"
                 height="17.98"
                 width="17.39"
                 y="297.02"
                 x="267.34"
                 id="a">
                <polygon
                   style="fill:#ffffff;fill-rule:evenodd"
                   id="polygon324"
                   points="284.7,315 267.4,315 267.4,297.1 284.7,297.1 " />
              </mask>
            </defs>
            <g
               id="g333"
               mask="url(#a)">
              <path
                 style="fill-rule:evenodd"
                 inkscape:connector-curvature="0"
                 id="path329"
                 d="m 277.1,302.3 c 3.5,0.6 3.8,5.2 3,8 -2.9,-1.6 -5.9,-0.6 -8.7,0.6 0.4,-3.5 1.3,-8.6 5.7,-8.6 m -2.1,-4.8 c -7.4,1.3 -12.5,22.6 -0.4,16.3 v 0 c 1.3,-0.7 2.8,-0.2 4,0.4 h -0.2 c 10.4,4.8 7.1,-20.8 -3.4,-16.6" />
              <path
                 style="fill-rule:evenodd"
                 inkscape:connector-curvature="0"
                 id="path331"
                 d="m 274.9,305.6 c -2.3,0.2 -4.9,1.2 -5.5,3.8 -6.6,10.1 25.6,-3.4 5.5,-3.8" />
            </g>
            <path
               style="fill-rule:evenodd"
               inkscape:connector-curvature="0"
               id="path335"
               d="m 307.2,257.8 c -9.2,5.2 -19.8,8.7 -28.5,14.6 -4.7,12.5 29.4,-8.8 32.7,-10.3 v 0 a 3.0054118,3.0054118 0 0 0 -4.2,-4.3" />
            <path
               style="fill-rule:evenodd"
               inkscape:connector-curvature="0"
               id="path337"
               d="m 295.4,279.7 v 0 m 0,-0.2 v 0.2 c 0,-0.1 0.1,-0.1 0.1,-0.2 m -0.2,-0.2 v 0 m -0.7,-5.5 v 0 m 0.2,-0.3 a 2.4,2.4 0 0 0 0.1,-1.2 2.7,2.7 0 0 1 1.9,3.1 2.9,2.9 0 0 0 -2.7,0 10.7,10.7 0 0 1 0.7,-1.9 m -0.3,-5.3 c -7.1,2.8 -6.6,17.1 1.8,17.3 5.7,-2.3 6.6,-19.3 -1.8,-17.3" />
            <path
               style="fill-rule:evenodd"
               inkscape:connector-curvature="0"
               id="path339"
               d="m 298.7,280.6 a 10.9,10.9 0 0 0 -3.3,2.3 c -5.6,0.3 -6.6,7 0.8,3.1 3.5,1.6 7.7,-5.5 2.5,-5.4" />
            <path
               style="fill-rule:evenodd"
               inkscape:connector-curvature="0"
               id="path341"
               d="m 241.2,263.8 c -2.3,0.7 -0.9,5.1 1.5,4 8.8,1.9 17.8,4.2 26,7.7 11.7,-6.4 -23.7,-10.6 -27.5,-11.7" />
            <path
               style="fill-rule:evenodd"
               inkscape:connector-curvature="0"
               id="path343"
               d="m 258.1,274.5 v 0 m -0.5,-0.2 c 1,0.4 0.1,1.9 0.1,2.8 a 2.9,2.9 0 0 0 -1.6,-0.1 6.5,6.5 0 0 1 1.5,-2.7 m -0.2,-4.6 c -10.3,-0.4 -10.2,18.3 0.7,16.5 4.1,-2.4 7.2,-17.8 -0.7,-16.5" />
            <path
               style="fill-rule:evenodd"
               inkscape:connector-curvature="0"
               id="path345"
               d="m 250.7,284.9 v 0 m -1.8,0.9 c -0.1,3.4 11.7,4.1 13.5,3.6 1.9,-3.2 -3.6,-2.8 -5.4,-3.5 -1.8,-0.7 -6.5,-2.6 -8.1,-0.1" />
          </svg>
        </g>
      </svg>
    </svg>
  </g>
</svg>
