<?xml version="1.0" encoding="UTF-8" standalone="no"?>
<!-- Created with Inkscape (http://www.inkscape.org/) -->

<svg
   xmlns:dc="http://purl.org/dc/elements/1.1/"
   xmlns:cc="http://creativecommons.org/ns#"
   xmlns:rdf="http://www.w3.org/1999/02/22-rdf-syntax-ns#"
   xmlns:svg="http://www.w3.org/2000/svg"
   xmlns="http://www.w3.org/2000/svg"
   xmlns:sodipodi="http://sodipodi.sourceforge.net/DTD/sodipodi-0.dtd"
   xmlns:inkscape="http://www.inkscape.org/namespaces/inkscape"
   width="23.07107mm"
   height="33.742691mm"
   viewBox="0 0 81.747885 119.56071"
   id="svg5223"
   version="1.1"
   inkscape:version="0.91 r13725"
   sodipodi:docname="mix-and-match-characters61.svg">
  <defs
     id="defs5225" />
  <sodipodi:namedview
     id="base"
     pagecolor="#ffffff"
     bordercolor="#666666"
     borderopacity="1.0"
     inkscape:pageopacity="0.0"
     inkscape:pageshadow="2"
     inkscape:zoom="2.8"
     inkscape:cx="77.869643"
     inkscape:cy="40.071023"
     inkscape:document-units="px"
     inkscape:current-layer="g4184"
     showgrid="false"
     fit-margin-top="0"
     fit-margin-left="0"
     fit-margin-right="0"
     fit-margin-bottom="0"
     inkscape:window-width="1855"
     inkscape:window-height="1056"
     inkscape:window-x="65"
     inkscape:window-y="24"
     inkscape:window-maximized="1" />
  <metadata
     id="metadata5228">
    <rdf:RDF>
      <cc:Work
         rdf:about="">
        <dc:format>image/svg+xml</dc:format>
        <dc:type
           rdf:resource="http://purl.org/dc/dcmitype/StillImage" />
        <dc:title></dc:title>
      </cc:Work>
    </rdf:RDF>
  </metadata>
  <g
     inkscape:label="Layer 1"
     inkscape:groupmode="layer"
     id="layer1"
     transform="translate(-229.45533,-410.3589)">
    <path
       style="fill:#ab926c;fill-rule:evenodd;stroke:#000000;stroke-width:1.79010785;stroke-linecap:round;stroke-linejoin:round"
       inkscape:connector-curvature="0"
       d="m 307.13357,497.93504 c -1.30071,2.7247 -4.66812,4.35654 -7.52136,3.64482 -2.85324,-0.71172 -4.11181,-3.49748 -2.81111,-6.22219 1.30071,-2.7247 4.66812,-4.35654 7.52137,-3.64482 2.85324,0.71173 4.1118,3.49749 2.8111,6.22219 z"
       id="path3954-8-5-3-0-1-4-1-0-3-1" />
    <path
       style="fill:#e66fc0;stroke:#000000;stroke-width:1.42690003"
       inkscape:connector-curvature="0"
       d="m 290.2492,497.48667 c 0.85824,2.2748 17.268,-3.7223 16.446,-6.3368 -7.7437,-33.351 -15.305,-30.425 -18.197,-29.778 -4.3241,3.3368 -3.0496,14.849 1.7504,36.114 z"
       id="path4553-8-2-8-8-9-0-6-6" />
    <rect
       style="fill:#5a1e3f;fill-rule:evenodd;stroke:#000000;stroke-width:1.7112;stroke-linecap:round;stroke-linejoin:round"
       height="32.128033"
       x="249.6321"
       y="494.41666"
       width="50.813"
       transform="matrix(1,-7.6208e-5,0.0014447,0.99999896,0,0)"
       ry="8.8413095"
       rx="24.969999"
       id="rect3252-6-7-2-7-1-6-3-5-6-0" />
    <path
       style="fill:#ffffff;stroke:#000000;stroke-width:1.13510001;stroke-linecap:round;stroke-linejoin:round"
       inkscape:connector-curvature="0"
       d="m 286.6492,524.87667 -0.25902,-10.194"
       id="path3928-9-81-8-0-49-3-5-5-8" />
    <path
       style="fill:#dcb5c3;fill-rule:evenodd;stroke:#000000;stroke-width:1.71730006;stroke-linecap:round;stroke-linejoin:round"
       inkscape:connector-curvature="0"
       d="m 278.1592,456.12667 c -0.0888,0 -0.17801,8e-4 -0.26669,0 -0.0503,0 -0.10067,-0.009 -0.15103,-0.009 -0.0776,0 -0.1569,-0.009 -0.23473,-0.009 l 0,0.0205 c -5.9566,0.20864 -11.574,3.9179 -15.403,8.6784 -8.2054,10.135 -11.608,23.659 -12.244,36.7 0.11317,3.3513 -0.60802,7.3538 0.62033,10.287 4.6728,3.2567 13.055,3.9827 18.758,4.8535 1.517,0.1092 3.9292,0.18698 6.5483,0.26512 l 0,0.009 c 0.27498,0.009 0.53654,0.009 0.80764,0.0152 0.0269,0 0.0527,8e-4 0.0795,0 2.62,0.0465 5.0334,0.0832 6.5546,0.0465 5.7448,-0.59842 14.156,-0.92468 19.007,-3.9546 1.3926,-2.8705 0.8989,-6.9019 1.2015,-10.243 0.10293,-13.053 -2.5301,-26.721 -10.151,-37.233 -3.5546,-4.9362 -8.9548,-8.9078 -14.892,-9.3996 l 0,-0.0296 c -0.0777,0 -0.15697,-0.009 -0.23468,-0.009 z"
       id="path3932-5-3-3-6-1-5-5-0-2-2" />
    <path
       style="fill:#5a1e3f;stroke:#000000;stroke-width:1.79009998"
       inkscape:connector-curvature="0"
       d="m 310.0992,523.98667 c 0,0 -1.3827,-6.5415 -9.9894,-5.7741 -11.578,1.0323 -11.909,7.6247 -11.909,7.6247 -0.67865,2.0422 22.476,0.82265 21.898,-1.8506 z"
       id="path4010-7-3-7-4-8-5-4-5-9-7" />
    <path
       style="fill:#ab926c;fill-rule:evenodd;stroke:#000000;stroke-width:1.7901212;stroke-linecap:round;stroke-linejoin:round"
       inkscape:connector-curvature="0"
       d="m 247.2609,504.93471 c 1.74058,2.46701 5.33459,3.509 8.02747,2.32735 2.69288,-1.18165 3.46485,-4.13945 1.72427,-6.60646 -1.74058,-2.467 -5.33459,-3.50899 -8.02747,-2.32735 -2.69288,1.18165 -3.46485,4.13945 -1.72427,6.60646 z"
       id="path3954-8-5-7-3-4-8-9-1-7" />
    <g
       style="fill:none;stroke:#ca3f8a;stroke-width:39.40200043;stroke-linecap:round;stroke-linejoin:bevel"
       transform="matrix(0.85939,0,0,0.82427,-172.9708,64.88967)"
       id="g4879">
      <g
         transform="matrix(0.094188,-0.0082717,0.015285,0.17405,519.53,67.262)"
         id="g8444-11-0">
        <path
           inkscape:connector-curvature="0"
           d="m -560.32,2545.7 c 48.727,-11.127 48.922,-90.633 81.178,-98.636"
           id="path8424-98-7" />
        <path
           inkscape:connector-curvature="0"
           d="m -399.41,2545.7 c -48.727,-11.127 -48.922,-90.633 -81.178,-98.636"
           id="path8424-7-9-2" />
      </g>
      <g
         transform="matrix(0.094188,-0.0082717,0.015285,0.17405,534.58,65.94)"
         id="g8444-1-0-4">
        <path
           inkscape:connector-curvature="0"
           d="m -560.32,2545.7 c 48.727,-11.127 48.922,-90.633 81.178,-98.636"
           id="path8424-9-6-6" />
        <path
           inkscape:connector-curvature="0"
           d="m -399.41,2545.7 c -48.727,-11.127 -48.922,-90.633 -81.178,-98.636"
           id="path8424-7-6-9-9" />
      </g>
      <g
         transform="matrix(0.094188,-0.0082717,0.015285,0.17405,549.5,64.878)"
         id="g8444-7-1-8">
        <path
           inkscape:connector-curvature="0"
           d="m -560.32,2545.7 c 48.727,-11.127 48.922,-90.633 81.178,-98.636"
           id="path8424-97-1-0" />
        <path
           inkscape:connector-curvature="0"
           d="m -399.41,2545.7 c -48.727,-11.127 -48.922,-90.633 -81.178,-98.636"
           id="path8424-7-2-5-4" />
      </g>
    </g>
    <path
       style="fill:#e66fc0;stroke:#000000;stroke-width:1.5618"
       inkscape:connector-curvature="0"
       d="m 259.8892,501.14667 c -0.71096,2.4918 -19.905,-1.8054 -19.274,-4.6493 4.9625,-35.944 13.826,-33.794 17.161,-33.466 5.3904,1.1666 5.1215,15.213 2.1125,38.116 z"
       id="path4553-7-9-8-3-7-1-7" />
    <rect
       style="fill:#ab926c;fill-rule:evenodd;stroke:#000000;stroke-width:1.79009998;stroke-linecap:round;stroke-linejoin:bevel"
       x="242.21921"
       y="414.24667"
       width="62.653999"
       height="53.703999"
       ry="25.957001"
       rx="29.983999"
       id="rect4240-8-4-1-9-8" />
    <path
       style="fill:#5a1e3f;stroke:#000000;stroke-width:1.79009998"
       inkscape:connector-curvature="0"
       d="m 252.8492,526.13667 c 0,0 0.97137,-8.2011 13.324,-7.6465 16.617,0.74603 18.09,8.9309 18.09,8.9309 1.2752,2.5087 -31.829,2.0678 -31.414,-1.2844 z"
       id="path4010-1-9-2-6-6-6-8-1-7-3-0" />
    <path
       style="fill:none;stroke:#000000;stroke-width:1.38804758;stroke-linecap:round;stroke-linejoin:round"
       inkscape:connector-curvature="0"
       d="m 248.44419,451.30279 c -0.85995,0.77832 -2.38078,0.44354 -3.30959,-0.50511 -1.27961,-1.30693 -1.17494,-3.19821 -0.0738,-4.17106 0.64175,-0.56689 1.55885,-0.81254 2.51068,-0.71921"
       id="path4494-63-0-8" />
    <path
       style="opacity:0.98999999;fill:#69383d;fill-rule:evenodd;stroke:#000000;stroke-width:0.89506"
       inkscape:connector-curvature="0"
       d="m 291.8092,410.80667 c -0.73274,0.009 -1.3902,1.5116 -2.0978,1.6782 -0.7076,0.16665 -1.618,-0.77387 -2.2656,-0.44754 -0.6476,0.32634 -0.43976,1.9307 -0.97897,2.3775 -0.53923,0.44681 -2.1016,-0.348 -2.4894,0.22376 -0.18557,0.27372 0.0483,0.65482 0.30768,1.0629 -2.9269,-0.82167 -6.0347,-1.2866 -9.2862,-1.2866 l -2.6852,0 c -6.8886,0 -13.241,1.9864 -18.293,5.3424 0.53518,-0.94625 1.5984,-2.1058 1.2027,-2.6292 -0.55775,-0.73788 -3.504,0.70576 -4.2795,0.13982 -0.77555,-0.56586 0.47836,-2.8748 -0.44753,-3.2166 -0.9259,-0.34182 -2.5573,1.323 -3.5802,1.1748 -1.023,-0.14823 -1.5311,-2.2682 -2.6013,-2.1538 -1.0702,0.1144 -1.8635,2.4241 -2.9089,2.7132 -1.0454,0.2891 -2.3455,-1.6528 -3.3285,-1.1468 -0.98301,0.50606 -0.91185,2.7562 -1.7622,3.4404 -0.85029,0.68419 -2.657,0.16971 -3.3285,1.007 -0.67147,0.83715 0.59149,2.6707 0.13986,3.5802 -0.45163,0.90955 -3.0457,0.97176 -3.2166,1.9299 -0.17089,0.95825 2.3796,1.3561 2.4614,2.2936 0.0818,0.93757 -2.403,3.0207 -2.0418,3.888 0.36118,0.86721 3.0132,-0.0609 3.6082,0.67129 0.59501,0.73207 -0.66533,2.6582 0.0839,3.2446 0.74925,0.58634 2.7892,-0.51395 3.7201,-0.13991 0.93085,0.37413 0.96144,2.7152 1.9859,2.881 0.91553,0.14814 2.1338,-1.5845 3.1327,-2.0139 -0.35609,1.605 -0.53144,3.2532 -0.53144,4.9508 l 0,1.7901 c 0,2.1276 0.28648,4.1772 0.83912,6.1535 -0.38264,-3.9203 0.51829,-7.8418 2.5453,-11.44 0.003,0 0.0257,0.009 0.0279,0 0.062,0 0.1309,-0.009 0.1958,-0.0277 1.0385,-0.29985 1.4977,-2.5987 2.4614,-3.1048 0.96372,-0.50597 2.5118,0.94787 3.3285,0.22376 0.81673,-0.724 0.0857,-2.811 0.78317,-3.6362 0.69752,-0.82515 2.9304,-1.0746 3.3285,-2.0139 0.16174,-0.38156 -0.0815,-0.76321 -0.41956,-1.1468 1.7804,-1.0877 3.7302,-2.0677 5.8458,-2.881 l 2.5453,-0.97892 c 12.643,-4.8603 27.071,-2.8332 36.082,4.2794 l -1.8461,0 c 0.61782,0 1.3495,0.13999 1.874,0.0277 0.19513,0.15448 0.39743,0.3163 0.58737,0.47553 l 0.75522,-0.27969 c -0.91378,-1.4341 -1.9894,-2.777 -3.1887,-4.0278 -0.0149,-0.18554 -0.005,-0.34648 0.0839,-0.47554 0.39563,-0.57338 2.2625,-0.44484 2.4894,-1.0908 0.22686,-0.64606 -1.5014,-1.507 -1.4265,-2.1817 0.0749,-0.67469 2.067,-1.2328 1.958,-1.902 -0.10907,-0.66915 -2.284,-0.71399 -2.5733,-1.3426 -0.28934,-0.6286 1.1446,-1.7342 0.69927,-2.2657 -0.44531,-0.53148 -1.9008,0.0448 -2.4614,-0.39159 -0.56064,-0.4366 -0.22794,-2.0134 -0.89506,-2.2936 -0.66713,-0.28006 -1.8126,0.96846 -2.5174,0.8112 -0.70478,-0.15726 -0.88953,-1.8514 -1.6223,-1.8461 z"
       id="path5157-4" />
    <g
       id="g4184">
      <g
         transform="translate(23.366819,31.572615)"
         id="g4202">
        <g
           transform="matrix(0.46616,0.023985,0.023985,-0.46616,250.99065,411.90352)"
           id="g456-8-2-1-1-8-2-0">
          <path
             inkscape:connector-curvature="0"
             d="m 0,0 c 0,-2.958 -2.396,-5.355 -5.355,-5.355 -2.958,0 -5.356,2.397 -5.356,5.355 0,2.957 2.398,5.356 5.356,5.356 C -2.396,5.356 0,2.957 0,0"
             id="path458-3-6-8-7-6-4-3" />
        </g>
        <g
           transform="matrix(0.46616,0.023985,0.023985,-0.46616,276.97065,412.93352)"
           id="g456-1-7-8-4-8-6-8">
          <path
             inkscape:connector-curvature="0"
             d="m 0,0 c 0,-2.958 -2.396,-5.355 -5.355,-5.355 -2.958,0 -5.356,2.397 -5.356,5.355 0,2.957 2.398,5.356 5.356,5.356 C -2.396,5.356 0,2.957 0,0"
             id="path458-9-9-9-5-6-0-8" />
        </g>
        <path
           style="fill:#ffffff;stroke:#000000;stroke-width:0.83653998;stroke-linecap:round;stroke-linejoin:round"
           inkscape:connector-curvature="0"
           d="m 247.34065,415.32352 3.3001,-0.0181"
           id="path3831-2-0-3-22-6-5-2-9-9" />
        <path
           style="fill:#ffffff;stroke:#000000;stroke-width:0.83623999;stroke-linecap:round;stroke-linejoin:round"
           inkscape:connector-curvature="0"
           d="m 245.22065,410.77352 5.3388,-1.846"
           id="path3831-2-0-3-22-6-5-2-5-4-8" />
        <path
           style="fill:#ffffff;stroke:#000000;stroke-width:0.83653998;stroke-linecap:round;stroke-linejoin:round"
           inkscape:connector-curvature="0"
           d="m 275.80065,416.75352 -3.2458,-0.5965"
           id="path3831-2-0-3-22-6-5-2-9-6-7" />
        <path
           style="fill:#ffffff;stroke:#000000;stroke-width:0.83623999;stroke-linecap:round;stroke-linejoin:round"
           inkscape:connector-curvature="0"
           d="m 278.67065,411.91352 -5.3467,-1.8231"
           id="path3831-2-0-3-22-6-5-2-5-4-7-7" />
        <path
           style="fill:#ffffff;stroke:#000000;stroke-width:0.68259001;stroke-linecap:round;stroke-linejoin:round"
           inkscape:connector-curvature="0"
           d="m 261.81065,426.27352 6.929,-0.41901"
           id="path3831-2-0-3-22-6-5-2-9-7-3-5" />
      </g>
    </g>
  </g>
</svg>
