<?xml version="1.0" encoding="UTF-8" standalone="no"?>
<!-- Created with Inkscape (http://www.inkscape.org/) -->

<svg
   xmlns:dc="http://purl.org/dc/elements/1.1/"
   xmlns:cc="http://creativecommons.org/ns#"
   xmlns:rdf="http://www.w3.org/1999/02/22-rdf-syntax-ns#"
   xmlns:svg="http://www.w3.org/2000/svg"
   xmlns="http://www.w3.org/2000/svg"
   xmlns:sodipodi="http://sodipodi.sourceforge.net/DTD/sodipodi-0.dtd"
   xmlns:inkscape="http://www.inkscape.org/namespaces/inkscape"
   width="25.117779mm"
   height="36.736111mm"
   viewBox="0 0 89.000004 130.16733"
   id="svg5223"
   version="1.1"
   inkscape:version="0.91 r13725"
   sodipodi:docname="mix-and-match-characters52.svg">
  <defs
     id="defs5225">
    <filter
       style="color-interpolation-filters:sRGB"
       id="filter4468">
      <feGaussianBlur
         id="feGaussianBlur4470"
         stdDeviation="0.18874514" />
    </filter>
    <filter
       style="color-interpolation-filters:sRGB"
       id="filter4468-3">
      <feGaussianBlur
         id="feGaussianBlur4470-9"
         stdDeviation="0.18874514" />
    </filter>
    <filter
       style="color-interpolation-filters:sRGB"
       id="filter4468-9">
      <feGaussianBlur
         id="feGaussianBlur4470-1"
         stdDeviation="0.18874514" />
    </filter>
    <filter
       style="color-interpolation-filters:sRGB"
       id="filter4468-39">
      <feGaussianBlur
         id="feGaussianBlur4470-17"
         stdDeviation="0.18874514" />
    </filter>
    <filter
       style="color-interpolation-filters:sRGB"
       id="filter4468-2">
      <feGaussianBlur
         id="feGaussianBlur4470-2"
         stdDeviation="0.18874514" />
    </filter>
    <filter
       style="color-interpolation-filters:sRGB"
       id="filter4468-4">
      <feGaussianBlur
         id="feGaussianBlur4470-5"
         stdDeviation="0.18874514" />
    </filter>
    <filter
       style="color-interpolation-filters:sRGB"
       id="filter4468-0">
      <feGaussianBlur
         id="feGaussianBlur4470-55"
         stdDeviation="0.18874514" />
    </filter>
    <filter
       style="color-interpolation-filters:sRGB"
       id="filter4468-01">
      <feGaussianBlur
         id="feGaussianBlur4470-3"
         stdDeviation="0.18874514" />
    </filter>
    <filter
       style="color-interpolation-filters:sRGB"
       id="filter4468-1">
      <feGaussianBlur
         id="feGaussianBlur4470-4"
         stdDeviation="0.18874514" />
    </filter>
  </defs>
  <sodipodi:namedview
     id="base"
     pagecolor="#ffffff"
     bordercolor="#666666"
     borderopacity="1.0"
     inkscape:pageopacity="0.0"
     inkscape:pageshadow="2"
     inkscape:zoom="2.8"
     inkscape:cx="-30.334085"
     inkscape:cy="35.394685"
     inkscape:document-units="px"
     inkscape:current-layer="g4275"
     showgrid="false"
     fit-margin-top="0"
     fit-margin-left="0"
     fit-margin-right="0"
     fit-margin-bottom="0"
     inkscape:window-width="1855"
     inkscape:window-height="1056"
     inkscape:window-x="1985"
     inkscape:window-y="24"
     inkscape:window-maximized="1" />
  <metadata
     id="metadata5228">
    <rdf:RDF>
      <cc:Work
         rdf:about="">
        <dc:format>image/svg+xml</dc:format>
        <dc:type
           rdf:resource="http://purl.org/dc/dcmitype/StillImage" />
        <dc:title />
      </cc:Work>
    </rdf:RDF>
  </metadata>
  <g
     inkscape:label="Layer 1"
     inkscape:groupmode="layer"
     id="layer1"
     transform="translate(-168.69473,-349.57561)">
    <g
       transform="translate(247.3811,385.33246)"
       id="g4275">
      <path
         style="fill:#ab926c;fill-rule:evenodd;stroke:#000000;stroke-width:1.94891393;stroke-linecap:round;stroke-linejoin:round"
         inkscape:connector-curvature="0"
         d="m 5.8829552,59.588456 c -1.4161,2.96641 -5.08224997,4.743016 -8.1886,3.96815 -3.10636,-0.77486 -4.47658,-3.80775 -3.06049,-6.77416 1.41608,-2.96643 5.08224003,-4.74303 8.18861,-3.96818 3.10636,0.77487 4.47657,3.80777 3.06048,6.77419 z"
         id="path3954-8-5-3-0-1-4-1-0-3-1" />
      <path
         style="fill:#e66fc0;stroke:#000000;stroke-width:1.55348468"
         inkscape:connector-curvature="0"
         d="m -12.499275,59.100296 c 0.93437,2.47661 18.7998902,-4.05252 17.9049702,-6.89896 -8.43067,-36.30967 -16.6627502,-33.12408 -19.8113102,-32.4197 -4.70771,3.63282 -3.32014,16.16632 1.90568,39.31779 z"
         id="path4553-8-2-8-8-9-0-6-6" />
      <rect
         style="fill:#5a1e3f;fill-rule:evenodd;stroke:#000000;stroke-width:1.86300588;stroke-linecap:round;stroke-linejoin:round"
         height="34.978214"
         x="-56.022507"
         y="55.73246"
         width="55.320778"
         transform="matrix(1,-7.6208e-5,0.0014447,0.99999896,0,0)"
         ry="9.6256495"
         rx="27.185163"
         id="rect3252-6-7-2-7-1-6-3-5-6-0" />
      <path
         style="fill:#ffffff;stroke:#000000;stroke-width:1.23579824;stroke-linecap:round;stroke-linejoin:round"
         inkscape:connector-curvature="0"
         d="m -16.418645,88.920152 -0.28201,-11.09834"
         id="path3928-9-81-8-0-49-3-5-5-8" />
      <path
         style="fill:#dcb5c3;fill-rule:evenodd;stroke:#000000;stroke-width:1.86964715;stroke-linecap:round;stroke-linejoin:round"
         inkscape:connector-curvature="0"
         d="m -25.661835,14.071126 c -0.0967,0 -0.19379,8.7e-4 -0.29033,0 -0.0548,0 -0.10961,-0.009 -0.16443,-0.009 -0.0844,0 -0.17082,-0.009 -0.25556,-0.009 l 0,0.0223 c -6.48503,0.22715 -12.60077,4.26548 -16.76945,9.44829 -8.93332,11.03411 -12.63777,25.75786 -13.3302,39.95577 0.12321,3.648606 -0.66196,8.006166 0.67537,11.199586 5.08734,3.5456 14.21315,4.33602 20.42208,5.28407 1.65157,0.11889 4.27776,0.20357 7.1292,0.28864 l 0,0.009 c 0.29939,0.009 0.58416,0.009 0.8793,0.0165 0.0293,0 0.0573,8.7e-4 0.0866,0 2.85243,0.0507 5.47995,0.0906 7.13609,0.0507 6.25443,-0.65151 15.4118102,-1.0067 20.69318023,-4.30542 1.51612997,-3.12515 0.97861997,-7.51418 1.30807997,-11.15169 0.11206,-14.210966 -2.75456997,-29.091506 -11.05154,-40.536046 -3.8699402,-5.37412 -9.7492002,-9.69804 -16.2131102,-10.23347 l 0,-0.0322 c -0.0846,0 -0.17088,-0.009 -0.2555,-0.009 z"
         id="path3932-5-3-3-6-1-5-5-0-2-2" />
      <path
         style="fill:#5a1e3f;stroke:#000000;stroke-width:1.94890535"
         inkscape:connector-curvature="0"
         d="m 9.1116752,87.951192 c 0,0 -1.50536,-7.12181 -10.87559,-6.28634 -12.6051202,1.12389 -12.9654902,8.30111 -12.9654902,8.30111 -0.73885,2.22338 24.4699202,0.89563 23.8406402,-2.01477 z"
         id="path4010-7-3-7-4-8-5-4-5-9-7" />
      <path
         style="fill:#ab926c;fill-rule:evenodd;stroke:#000000;stroke-width:1.94892836;stroke-linecap:round;stroke-linejoin:round"
         inkscape:connector-curvature="0"
         d="m -59.301215,67.209082 c 1.895,2.68585 5.80785,3.82029 8.73962,2.5338 2.93177,-1.28646 3.77222,-4.50666 1.87724,-7.192536 -1.895,-2.68585 -5.80785,-3.82027 -8.73961,-2.53381 -2.93178,1.28647 -3.77223,4.506686 -1.87725,7.192546 z"
         id="path3954-8-5-7-3-4-8-9-1-7" />
      <g
         style="fill:none;stroke:#ca3f8a;stroke-width:39.40200043;stroke-linecap:round;stroke-linejoin:bevel"
         transform="matrix(0.93562915,0,0,0.89739356,-516.81295,-411.87373)"
         id="g4879">
        <g
           transform="matrix(0.094188,-0.0082717,0.015285,0.17405,519.53,67.262)"
           id="g8444-11-0">
          <path
             inkscape:connector-curvature="0"
             d="m -560.32,2545.7 c 48.727,-11.127 48.922,-90.633 81.178,-98.636"
             id="path8424-98-7" />
          <path
             inkscape:connector-curvature="0"
             d="m -399.41,2545.7 c -48.727,-11.127 -48.922,-90.633 -81.178,-98.636"
             id="path8424-7-9-2" />
        </g>
        <g
           transform="matrix(0.094188,-0.0082717,0.015285,0.17405,534.58,65.94)"
           id="g8444-1-0-4">
          <path
             inkscape:connector-curvature="0"
             d="m -560.32,2545.7 c 48.727,-11.127 48.922,-90.633 81.178,-98.636"
             id="path8424-9-6-6" />
          <path
             inkscape:connector-curvature="0"
             d="m -399.41,2545.7 c -48.727,-11.127 -48.922,-90.633 -81.178,-98.636"
             id="path8424-7-6-9-9" />
        </g>
        <g
           transform="matrix(0.094188,-0.0082717,0.015285,0.17405,549.5,64.878)"
           id="g8444-7-1-8">
          <path
             inkscape:connector-curvature="0"
             d="m -560.32,2545.7 c 48.727,-11.127 48.922,-90.633 81.178,-98.636"
             id="path8424-97-1-0" />
          <path
             inkscape:connector-curvature="0"
             d="m -399.41,2545.7 c -48.727,-11.127 -48.922,-90.633 -81.178,-98.636"
             id="path8424-7-2-5-4" />
        </g>
      </g>
      <path
         style="fill:#e66fc0;stroke:#000000;stroke-width:1.70035207"
         inkscape:connector-curvature="0"
         d="m -45.552615,63.084986 c -0.77404,2.712856 -21.67083,-1.96556 -20.98385,-5.06176 5.40274,-39.13269 15.05254,-36.79196 18.68341,-36.43486 5.86859,1.2701 5.57584,16.5626 2.29991,41.49739 z"
         id="path4553-7-9-8-3-7-1-7" />
      <path
         style="fill:#5a1e3f;stroke:#000000;stroke-width:1.94890535"
         inkscape:connector-curvature="0"
         d="m -53.217155,90.291922 c 0,0 1.05755,-8.92865 14.50601,-8.32484 18.09116,0.81221 19.69482,9.72319 19.69482,9.72319 1.38834,2.73126 -34.65264,2.25124 -34.20083,-1.39835 z"
         id="path4010-1-9-2-6-6-6-8-1-7-3-0" />
      <g
         id="g5723"
         transform="matrix(0.948748,0,0,0.948748,131.90541,-405.11634)">
        <rect
           x="-205.38206"
           y="394.60257"
           width="67.762001"
           height="59.168999"
           ry="29.584999"
           rx="42.571999"
           id="rect2993-2-9-2-0-1-7"
           style="fill:#ffffff;fill-rule:evenodd;stroke:#000000;stroke-width:1.9217;stroke-linecap:round;stroke-linejoin:round" />
        <path
           d="m -197.98392,431.86867 c -0.96077,0.86957 -2.65991,0.49553 -3.69763,-0.56434 -1.42964,-1.46016 -1.31271,-3.57318 -0.0824,-4.66009 0.71699,-0.63335 1.74161,-0.9078 2.80504,-0.80353"
           id="path4494-63-0-5"
           inkscape:connector-curvature="0"
           style="fill:none;stroke:#000000;stroke-width:1.55079043;stroke-linecap:round;stroke-linejoin:round" />
        <g
           transform="matrix(0.38208,-0.057286,-0.055343,-0.42676,-150.06207,429.59256)"
           id="g588-0-6-2-8-2-7-1"
           style="fill:#b66b6f;stroke:#000000;stroke-width:2.32189989;stroke-linecap:round;stroke-linejoin:round">
          <path
             d="m -9.6745,0.38698 c 0,0 -2.0344,-24.631 -15.497,-25.231 -11.323,-0.504 -14.454,24.844 -14.454,24.844 z"
             id="path590-4-20-9-2-9-8-5"
             inkscape:connector-curvature="0"
             style="fill:#b66b6f;stroke:#000000;stroke-width:2.32189989;stroke-linecap:round;stroke-linejoin:round" />
        </g>
        <path
           d="m -179.96207,425.53256 c 1.0274,-6.4261 9.0789,-6.9355 10.825,-1.1012"
           id="path4738-0-4-3-9"
           inkscape:connector-curvature="0"
           style="fill:none;stroke:#000000;stroke-width:1.91390002;stroke-linecap:round;stroke-linejoin:round" />
        <path
           d="m -155.55207,422.74256 c 1.0274,-6.426 9.0789,-6.9354 10.825,-1.1013"
           id="path4738-0-9-5-7-7"
           inkscape:connector-curvature="0"
           style="fill:none;stroke:#000000;stroke-width:1.91390002;stroke-linecap:round;stroke-linejoin:round" />
        <path
           transform="translate(281.97911,326.40604)"
           inkscape:connector-curvature="0"
           id="path5351"
           d="m -456.16425,126.12688 c -4.83863,-0.28327 -8.92074,-1.37745 -13.51079,-3.62144 -7.42144,-3.62822 -12.77523,-9.49707 -15.30876,-16.78157 -0.58233,-1.67433 -0.6124,-2.4726 -0.0502,-1.33166 0.62286,1.26395 1.90683,2.12119 3.39072,2.26377 1.6365,0.15725 2.55229,-0.2897 2.44693,-1.19423 -0.0723,-0.62098 -0.13123,-0.64233 -1.55869,-0.5651 -1.33092,0.072 -1.55823,0.009 -2.20971,-0.61546 -0.54384,-0.52102 -0.72619,-0.93049 -0.72619,-1.63065 0,-1.36781 0.67876,-2.0663 2.17487,-2.2381 1.1717,-0.13454 1.2344,-0.18023 1.2344,-0.899358 0,-0.678626 -0.0904,-0.766224 -0.86692,-0.840192 -2.19529,-0.209114 -3.77702,0.796164 -4.32988,2.75188 l -0.31626,1.11877 -0.225,-1.13642 c -0.38221,-1.930378 -0.067,-7.695627 0.54531,-9.975259 0.69571,-2.58996 2.91342,-7.102014 4.54731,-9.251741 3.68152,-4.843842 9.44867,-8.907249 15.5702,-10.970425 6.81545,-2.29705 15.303,-2.472944 22.2652,-0.46142 9.84969,2.845776 17.97808,10.060707 20.91132,18.561345 2.00304,5.804849 1.86013,12.57286 -0.37904,17.95158 -3.78864,9.10073 -12.25278,15.80849 -22.87731,18.13006 -3.04153,0.66461 -7.14001,0.94566 -10.72754,0.73562 z m 17.122,-10.6799 c 1.61372,-0.83962 2.90548,-3.22315 3.47365,-6.40951 0.45049,-2.52643 0.47775,-5.83717 0.0493,-5.994 -0.46641,-0.17074 -11.78695,1.77896 -12.09025,2.08227 -0.52965,0.52964 2.12343,7.16273 3.5126,8.78202 1.14081,1.32979 2.10696,1.89403 3.24314,1.89403 0.62127,0 1.43645,-0.15966 1.81152,-0.35481 z m -21.7525,-16.516004 c 0.76338,-2.648698 2.43513,-3.9772 4.76199,-3.784238 1.68647,0.139855 2.80406,0.942659 3.66234,2.630796 0.66685,1.311622 1.42541,1.687803 2.00214,0.992889 0.46351,-0.558506 0.1413,-1.907817 -0.74911,-3.136999 -2.90287,-4.007294 -8.84493,-3.473111 -11.07812,0.99591 -1.15695,2.315257 -0.98023,3.634206 0.46398,3.462816 0.49487,-0.0587 0.68806,-0.298203 0.93678,-1.161174 z m 24.01585,-1.880141 c 0.13987,-0.17362 0.33183,-0.678429 0.42659,-1.121797 0.25208,-1.179527 1.45644,-2.704473 2.54318,-3.220167 1.24475,-0.590672 3.28341,-0.440509 4.35226,0.320577 0.42676,0.303882 1.01865,1.053913 1.31532,1.666737 0.66222,1.367973 1.09617,1.749925 1.75176,1.541848 0.86072,-0.273183 0.89514,-1.080774 0.11136,-2.613318 -2.32443,-4.545075 -8.53642,-4.684119 -11.27634,-0.252399 -0.72428,1.171492 -1.12411,2.876279 -0.8451,3.603349 0.17984,0.468667 1.2635,0.51892 1.62097,0.07517 z"
           style="fill:#ab926c;fill-opacity:1" />
      </g>
      <path
         style="opacity:0.98999999;fill:#69383d;fill-rule:evenodd;stroke:#000000;stroke-width:0.97446352"
         inkscape:connector-curvature="0"
         d="m -10.800885,-35.269344 c -0.79775,0.009 -1.51354,1.64569 -2.2839,1.82707 -0.77038,0.18144 -1.76154,-0.84252 -2.4666,-0.48725 -0.70505,0.35531 -0.47876,2.10199 -1.06581,2.58843 -0.58707,0.48645 -2.28804,-0.37887 -2.71025,0.24361 -0.20203,0.298 0.0525,0.71291 0.33498,1.15719 -3.18656,-0.89457 -6.57005,-1.40074 -10.11001,-1.40074 l -2.92342,0 c -7.4997,0 -14.41564,2.16262 -19.91582,5.81634 0.58266,-1.03019 1.7402,-2.29261 1.3094,-2.86245 -0.60723,-0.80333 -3.81485,0.76837 -4.65915,0.15223 -0.84436,-0.61607 0.5208,-3.12984 -0.48723,-3.50196 -1.00804,-0.37214 -2.78417,1.44037 -3.89782,1.27902 -1.11375,-0.16137 -1.66692,-2.46941 -2.83206,-2.34486 -1.16515,0.12454 -2.02883,2.63915 -3.16696,2.95389 -1.13814,0.31475 -2.55358,-1.79943 -3.62378,-1.24853 -1.07022,0.55096 -0.99274,3.00071 -1.91853,3.74561 -0.92573,0.74489 -2.89271,0.18475 -3.62379,1.09634 -0.73103,0.91141 0.64397,2.90762 0.15228,3.8978 -0.4917,0.99024 -3.3159,1.05796 -3.50197,2.10111 -0.18604,1.04326 2.59071,1.4764 2.67977,2.49708 0.089,1.02073 -2.61617,3.28866 -2.22293,4.2329 0.39322,0.94415 3.28051,-0.0663 3.92828,0.73085 0.64781,0.79701 -0.72435,2.8940197 0.0914,3.5324297 0.81572,0.63837 3.03664,-0.55953 4.05012,-0.15231 1.01343,0.40731 1.04673,2.95607 2.16208,3.13657 0.99675,0.16128 2.3231,-1.72506 3.41061,-2.19255 -0.38768,1.74738 -0.57858,3.5418 -0.57858,5.39 l 0,1.94891 c 0,2.31634 0.31189,4.54777 0.91356,6.69939 -0.4166,-4.26808 0.56426,-8.53747 2.7711,-12.45488 0.003,0 0.0279,0.009 0.0304,0 0.0674,0 0.14251,-0.009 0.21317,-0.0302 1.13063,-0.32645 1.63056,-2.82924 2.67976,-3.3802397 1.04921,-0.55087 2.73462,1.0319597 3.62378,0.24362 0.88919,-0.78824 0.0933,-3.06038 0.85266,-3.95879 0.75938,-0.89836 3.19035,-1.16993 3.62377,-2.19256 0.17609,-0.41541 -0.0887,-0.83093 -0.45679,-1.24854 1.93837,-1.18419 4.06112,-2.25113 6.36442,-3.13658 l 2.77109,-1.06576 c 13.76461,-5.29147 29.47256,-3.08455 39.2829502,4.65904 l -2.00988,0 c 0.67262,0 1.46922,0.15241 2.04026,0.0302 0.21243,0.1682 0.43268,0.34436 0.63946,0.51773 l 0.82223003,-0.30452 c -0.99485003,-1.56131 -2.16589003,-3.02335 -3.47159003,-4.38511 -0.0161,-0.202 -0.005,-0.37722 0.0913,-0.51773 0.43071,-0.62425 2.4632,-0.48429 2.71023,-1.18757 0.24699003,-0.70338 -1.63459,-1.64068 -1.55304,-2.37523 0.0816,-0.73455 2.25037003,-1.34218 2.13168003,-2.07074 -0.11874,-0.72852 -2.48660003,-0.77733 -2.80158003,-1.46171 -0.315,-0.68436 1.24615,-1.88805 0.76131,-2.4667 -0.48482,-0.57863 -2.06942,0.0489 -2.67976,-0.42632 -0.61037,-0.47534 -0.24815,-2.19203 -0.97446,-2.49709 -0.72632,-0.30489 -1.9734,1.05439 -2.74073,0.88318 -0.7673,-0.17121 -0.9684402,-2.01565 -1.7662202,-2.00988 z"
         id="path5157-4" />
    </g>
  </g>
</svg>
