<?xml version="1.0" encoding="UTF-8" standalone="no"?>
<!-- Created with Inkscape (http://www.inkscape.org/) -->

<svg
   xmlns:dc="http://purl.org/dc/elements/1.1/"
   xmlns:cc="http://creativecommons.org/ns#"
   xmlns:rdf="http://www.w3.org/1999/02/22-rdf-syntax-ns#"
   xmlns:svg="http://www.w3.org/2000/svg"
   xmlns="http://www.w3.org/2000/svg"
   xmlns:sodipodi="http://sodipodi.sourceforge.net/DTD/sodipodi-0.dtd"
   xmlns:inkscape="http://www.inkscape.org/namespaces/inkscape"
   width="25.117781mm"
   height="36.736107mm"
   viewBox="0 0 89.000011 130.16731"
   id="svg5223"
   version="1.1"
   inkscape:version="0.91 r13725"
   sodipodi:docname="mix-and-match-characters48.svg">
  <defs
     id="defs5225">
    <filter
       style="color-interpolation-filters:sRGB"
       id="filter4468">
      <feGaussianBlur
         id="feGaussianBlur4470"
         stdDeviation="0.18874514" />
    </filter>
    <filter
       style="color-interpolation-filters:sRGB"
       id="filter4468-3">
      <feGaussianBlur
         id="feGaussianBlur4470-9"
         stdDeviation="0.18874514" />
    </filter>
    <filter
       style="color-interpolation-filters:sRGB"
       id="filter4468-9">
      <feGaussianBlur
         id="feGaussianBlur4470-1"
         stdDeviation="0.18874514" />
    </filter>
    <filter
       style="color-interpolation-filters:sRGB"
       id="filter4468-39">
      <feGaussianBlur
         id="feGaussianBlur4470-17"
         stdDeviation="0.18874514" />
    </filter>
    <filter
       style="color-interpolation-filters:sRGB"
       id="filter4468-2">
      <feGaussianBlur
         id="feGaussianBlur4470-2"
         stdDeviation="0.18874514" />
    </filter>
    <filter
       style="color-interpolation-filters:sRGB"
       id="filter4468-4">
      <feGaussianBlur
         id="feGaussianBlur4470-5"
         stdDeviation="0.18874514" />
    </filter>
    <filter
       style="color-interpolation-filters:sRGB"
       id="filter4468-0">
      <feGaussianBlur
         id="feGaussianBlur4470-55"
         stdDeviation="0.18874514" />
    </filter>
    <filter
       style="color-interpolation-filters:sRGB"
       id="filter4468-01">
      <feGaussianBlur
         id="feGaussianBlur4470-3"
         stdDeviation="0.18874514" />
    </filter>
    <filter
       style="color-interpolation-filters:sRGB"
       id="filter4468-1">
      <feGaussianBlur
         id="feGaussianBlur4470-4"
         stdDeviation="0.18874514" />
    </filter>
  </defs>
  <sodipodi:namedview
     id="base"
     pagecolor="#ffffff"
     bordercolor="#666666"
     borderopacity="1.0"
     inkscape:pageopacity="0.0"
     inkscape:pageshadow="2"
     inkscape:zoom="2.8"
     inkscape:cx="29.738143"
     inkscape:cy="123.42601"
     inkscape:document-units="px"
     inkscape:current-layer="g4275"
     showgrid="false"
     fit-margin-top="0"
     fit-margin-left="0"
     fit-margin-right="0"
     fit-margin-bottom="0"
     inkscape:window-width="1855"
     inkscape:window-height="1056"
     inkscape:window-x="1985"
     inkscape:window-y="24"
     inkscape:window-maximized="1" />
  <metadata
     id="metadata5228">
    <rdf:RDF>
      <cc:Work
         rdf:about="">
        <dc:format>image/svg+xml</dc:format>
        <dc:type
           rdf:resource="http://purl.org/dc/dcmitype/StillImage" />
        <dc:title />
      </cc:Work>
    </rdf:RDF>
  </metadata>
  <g
     inkscape:label="Layer 1"
     inkscape:groupmode="layer"
     id="layer1"
     transform="translate(-108.6225,-437.60696)">
    <g
       transform="translate(247.3811,385.33246)"
       id="g4275">
      <path
         style="fill:#ab926c;fill-rule:evenodd;stroke:#000000;stroke-width:1.94891393;stroke-linecap:round;stroke-linejoin:round"
         inkscape:connector-curvature="0"
         d="m -54.189266,147.6198 c -1.4161,2.96641 -5.08225,4.74302 -8.1886,3.96815 -3.10636,-0.77486 -4.47658,-3.80775 -3.06049,-6.77416 1.41608,-2.96643 5.08224,-4.74303 8.18861,-3.96818 3.10636,0.77487 4.47657,3.80777 3.06048,6.77419 z"
         id="path3954-8-5-3-0-1-4-1-0-3-1" />
      <path
         style="fill:#e66fc0;stroke:#000000;stroke-width:1.55348468"
         inkscape:connector-curvature="0"
         d="m -72.571496,147.13164 c 0.93437,2.47661 18.79989,-4.05252 17.90497,-6.89896 -8.43067,-36.30967 -16.66275,-33.12408 -19.81131,-32.4197 -4.70771,3.63282 -3.32014,16.16632 1.90568,39.31779 z"
         id="path4553-8-2-8-8-9-0-6-6" />
      <rect
         style="fill:#5a1e3f;fill-rule:evenodd;stroke:#000000;stroke-width:1.86300588;stroke-linecap:round;stroke-linejoin:round"
         height="34.978214"
         x="-116.22191"
         y="143.75931"
         width="55.320778"
         transform="matrix(1,-7.6208e-5,0.0014447,0.99999896,0,0)"
         ry="9.6256495"
         rx="27.185163"
         id="rect3252-6-7-2-7-1-6-3-5-6-0" />
      <path
         style="fill:#ffffff;stroke:#000000;stroke-width:1.23579824;stroke-linecap:round;stroke-linejoin:round"
         inkscape:connector-curvature="0"
         d="m -76.490866,176.9515 -0.28201,-11.09834"
         id="path3928-9-81-8-0-49-3-5-5-8" />
      <path
         style="fill:#dcb5c3;fill-rule:evenodd;stroke:#000000;stroke-width:1.86964715;stroke-linecap:round;stroke-linejoin:round"
         inkscape:connector-curvature="0"
         d="m -85.734056,102.10247 c -0.0967,0 -0.19379,8.7e-4 -0.29033,0 -0.0548,0 -0.10961,-0.009 -0.16443,-0.009 -0.0844,0 -0.17082,-0.009 -0.25556,-0.009 l 0,0.0223 c -6.48503,0.22715 -12.60077,4.26548 -16.769454,9.44829 -8.93332,11.03411 -12.63777,25.75786 -13.3302,39.95577 0.12321,3.64861 -0.66196,8.00617 0.67537,11.19959 5.08734,3.5456 14.21315,4.33602 20.422084,5.28407 1.65157,0.11889 4.27776,0.20357 7.1292,0.28864 l 0,0.009 c 0.29939,0.009 0.58416,0.009 0.8793,0.0165 0.0293,0 0.0573,8.7e-4 0.0866,0 2.85243,0.0507 5.47995,0.0906 7.13609,0.0507 6.25443,-0.65151 15.41181,-1.0067 20.69318,-4.30542 1.51613,-3.12515 0.97862,-7.51418 1.30808,-11.15169 0.11206,-14.21097 -2.75457,-29.09151 -11.05154,-40.53605 -3.86994,-5.37412 -9.7492,-9.69804 -16.21311,-10.23347 l 0,-0.0322 c -0.0846,0 -0.17088,-0.009 -0.2555,-0.009 z"
         id="path3932-5-3-3-6-1-5-5-0-2-2" />
      <path
         style="fill:#5a1e3f;stroke:#000000;stroke-width:1.94890535"
         inkscape:connector-curvature="0"
         d="m -50.960546,175.98254 c 0,0 -1.50536,-7.12181 -10.87559,-6.28634 -12.60512,1.12389 -12.96549,8.30111 -12.96549,8.30111 -0.73885,2.22338 24.46992,0.89563 23.84064,-2.01477 z"
         id="path4010-7-3-7-4-8-5-4-5-9-7" />
      <path
         style="fill:#ab926c;fill-rule:evenodd;stroke:#000000;stroke-width:1.94892836;stroke-linecap:round;stroke-linejoin:round"
         inkscape:connector-curvature="0"
         d="m -119.37344,155.24043 c 1.895,2.68585 5.80785,3.82029 8.73962,2.5338 2.93177,-1.28646 3.77222,-4.50666 1.87724,-7.19254 -1.895,-2.68585 -5.80785,-3.82027 -8.73961,-2.53381 -2.93178,1.28647 -3.77223,4.50669 -1.87725,7.19255 z"
         id="path3954-8-5-7-3-4-8-9-1-7" />
      <g
         style="fill:none;stroke:#ca3f8a;stroke-width:39.40200043;stroke-linecap:round;stroke-linejoin:bevel"
         transform="matrix(0.93562915,0,0,0.89739356,-576.88517,-323.84238)"
         id="g4879">
        <g
           transform="matrix(0.094188,-0.0082717,0.015285,0.17405,519.53,67.262)"
           id="g8444-11-0">
          <path
             inkscape:connector-curvature="0"
             d="m -560.32,2545.7 c 48.727,-11.127 48.922,-90.633 81.178,-98.636"
             id="path8424-98-7" />
          <path
             inkscape:connector-curvature="0"
             d="m -399.41,2545.7 c -48.727,-11.127 -48.922,-90.633 -81.178,-98.636"
             id="path8424-7-9-2" />
        </g>
        <g
           transform="matrix(0.094188,-0.0082717,0.015285,0.17405,534.58,65.94)"
           id="g8444-1-0-4">
          <path
             inkscape:connector-curvature="0"
             d="m -560.32,2545.7 c 48.727,-11.127 48.922,-90.633 81.178,-98.636"
             id="path8424-9-6-6" />
          <path
             inkscape:connector-curvature="0"
             d="m -399.41,2545.7 c -48.727,-11.127 -48.922,-90.633 -81.178,-98.636"
             id="path8424-7-6-9-9" />
        </g>
        <g
           transform="matrix(0.094188,-0.0082717,0.015285,0.17405,549.5,64.878)"
           id="g8444-7-1-8">
          <path
             inkscape:connector-curvature="0"
             d="m -560.32,2545.7 c 48.727,-11.127 48.922,-90.633 81.178,-98.636"
             id="path8424-97-1-0" />
          <path
             inkscape:connector-curvature="0"
             d="m -399.41,2545.7 c -48.727,-11.127 -48.922,-90.633 -81.178,-98.636"
             id="path8424-7-2-5-4" />
        </g>
      </g>
      <path
         style="fill:#e66fc0;stroke:#000000;stroke-width:1.70035207"
         inkscape:connector-curvature="0"
         d="m -105.62484,151.11633 c -0.77404,2.71286 -21.67083,-1.96556 -20.98385,-5.06176 5.40274,-39.13269 15.05254,-36.79196 18.68341,-36.43486 5.86859,1.2701 5.57584,16.5626 2.29991,41.49739 z"
         id="path4553-7-9-8-3-7-1-7" />
      <path
         style="fill:#5a1e3f;stroke:#000000;stroke-width:1.94890535"
         inkscape:connector-curvature="0"
         d="m -113.28938,178.32327 c 0,0 1.05755,-8.92865 14.506014,-8.32484 18.09116,0.81221 19.69482,9.72319 19.69482,9.72319 1.38834,2.73126 -34.652644,2.25124 -34.200834,-1.39835 z"
         id="path4010-1-9-2-6-6-6-8-1-7-3-0" />
      <g
         id="g5683"
         transform="matrix(0.94738502,0,0,0.94738502,72.266822,-239.54524)">
        <rect
           x="-206.63206"
           y="314.64255"
           width="67.762001"
           height="59.168999"
           ry="29.584999"
           rx="42.571999"
           id="rect2993-2-9-2-0-1"
           style="fill:#ffffff;fill-rule:evenodd;stroke:#000000;stroke-width:1.9217;stroke-linecap:round;stroke-linejoin:round" />
        <g
           transform="matrix(0.15734,-0.021532,0.021532,0.15734,49.66793,263.68256)"
           id="g4886-4"
           style="fill:#ffffff;stroke:#000000;stroke-linecap:round;stroke-linejoin:round">
          <path
             transform="matrix(-0.25733,0.076323,0.082807,0.33342,-1465.1,46.234)"
             d="m 333.1,704.51 c 0,48.458 -48.669,87.74 -108.7,87.74 -60.036,0 -108.7,-39.283 -108.7,-87.74"
             id="path3864-0-2-3-9-8-7-7-5"
             inkscape:connector-curvature="0"
             style="stroke-width:35.51800156" />
          <path
             transform="matrix(-0.2034,-0.0039634,-0.017762,0.27647,-1240.6,97.346)"
             d="m 333.1,704.51 c 0,48.458 -48.669,87.74 -108.7,87.74 -60.036,0 -108.7,-39.283 -108.7,-87.74"
             id="path3864-0-0-1-4-7-4-8-7-7"
             inkscape:connector-curvature="0"
             style="stroke-width:35.51800156" />
          <path
             d="m -1331.6,387.59 -55.105,-5"
             id="path4540-0-9-5"
             inkscape:connector-curvature="0"
             style="stroke-width:11.44200039" />
        </g>
        <path
           d="m -199.23392,351.90867 c -0.96077,0.86957 -2.65991,0.49553 -3.69763,-0.56434 -1.42964,-1.46016 -1.31271,-3.57318 -0.0824,-4.66009 0.71699,-0.63335 1.74161,-0.9078 2.80504,-0.80353"
           id="path4494-63-0"
           inkscape:connector-curvature="0"
           style="fill:#ffffff;stroke:#000000;stroke-width:1.55079043;stroke-linecap:round;stroke-linejoin:round" />
        <path
           transform="translate(281.97911,326.40604)"
           inkscape:connector-curvature="0"
           id="path5353"
           d="m -459.17188,46.089394 c -12.68976,-1.593766 -23.07725,-9.278307 -26.88683,-19.890558 -0.78089,-2.175318 -0.84454,-2.748569 -0.18512,-1.667181 0.94567,1.550796 2.90929,2.570606 4.38236,2.27599 1.02682,-0.205364 1.45356,-0.591232 1.45356,-1.314347 0,-0.709256 -1.04978,-1.096319 -1.6415,-0.605236 -0.21802,0.180944 -0.64419,0.240687 -1.02862,0.1442 -1.91172,-0.479813 -2.54779,-2.816662 -1.09858,-4.036093 0.48422,-0.407437 1.08372,-0.653793 1.59099,-0.653793 0.94824,0 1.44401,-0.394316 1.22938,-0.977793 -0.21816,-0.593063 -0.58344,-0.781729 -1.52203,-0.786108 -1.76158,-0.0082 -3.84309,1.56509 -3.84309,2.904795 0,0.328385 -0.10449,0.66164 -0.23219,0.740565 -0.36316,0.224441 -0.60727,-2.955092 -0.45298,-5.899993 0.62954,-12.0162396 9.96982,-22.3404229 23.33379,-25.7917657 18.06332,-4.6649823 36.85826,4.8021241 41.23971,20.7726447 1.08445,3.952835 1.08445,9.071712 0,13.024548 -2.09473,7.635364 -7.76456,14.270697 -15.52929,18.173725 -4.7158,2.370454 -9.66302,3.566662 -15.40282,3.724309 -1.94454,0.05341 -4.37757,-0.0087 -5.40674,-0.137909 z m 24.57285,-18.134319 c 1.91776,-0.17936 2.55214,-0.648228 2.01414,-1.488649 -0.252,-0.393649 -0.69339,-0.434616 -4.03932,-0.374901 -2.06602,0.03687 -4.35291,0.130267 -5.08197,0.207544 -1.16244,0.12321 -1.34572,0.220801 -1.48933,0.793 -0.28103,1.119703 0.30539,1.298919 3.77669,1.154192 1.69335,-0.0706 3.86225,-0.201634 4.81979,-0.291186 z m -19.26896,-6.932614 c 1.37094,-0.717622 2.66237,-2.544928 2.89501,-4.09628 0.33782,-2.252726 -0.34707,-4.30401 -1.37072,-4.105363 -0.33938,0.06586 -0.41128,0.43548 -0.41128,2.114201 0,1.82677 -0.0704,2.126881 -0.69014,2.940711 -0.95214,1.250404 -2.54023,1.844672 -3.92973,1.470519 -0.59747,-0.160882 -1.25728,-0.56885 -1.56381,-0.966915 -0.29165,-0.378734 -0.74555,-0.972714 -1.00868,-1.319954 -0.39192,-0.517201 -0.56118,-0.581025 -0.93618,-0.353015 -0.71957,0.437514 -0.66759,1.150429 0.17685,2.42529 1.50554,2.272949 4.51764,3.105757 6.83868,1.890806 z m 25.35595,-5.805768 c 1.67331,-0.947673 2.89056,-3.957431 2.05962,-5.092579 -0.30861,-0.4215818 -0.42337,-0.4452358 -0.76888,-0.1584818 -0.22338,0.1853838 -0.40614,0.6749498 -0.40614,1.0879248 0,1.557183 -1.44218,2.975365 -3.02571,2.975365 -0.98436,0 -2.21434,-1.135842 -2.43733,-2.250789 -0.35986,-1.7993332 -1.4744,-1.601012 -1.29837,0.231033 0.29241,3.043132 3.28402,4.675937 5.87681,3.207527 z"
           style="fill:#ab926c;fill-opacity:1" />
      </g>
      <path
         style="opacity:0.98999999;fill:#69383d;fill-rule:evenodd;stroke:#000000;stroke-width:0.97446352"
         inkscape:connector-curvature="0"
         d="m -70.873106,52.762005 c -0.79775,0.009 -1.51354,1.64569 -2.2839,1.82707 -0.77038,0.18144 -1.76154,-0.84252 -2.4666,-0.48725 -0.70505,0.35531 -0.47876,2.10199 -1.06581,2.58843 -0.58707,0.48645 -2.28804,-0.37887 -2.71025,0.24361 -0.20203,0.298 0.0525,0.71291 0.33498,1.15719 -3.18656,-0.89457 -6.57005,-1.40074 -10.11001,-1.40074 l -2.92342,0 c -7.4997,0 -14.415644,2.16262 -19.915824,5.81634 0.58266,-1.03019 1.7402,-2.29261 1.3094,-2.86245 -0.60723,-0.80333 -3.81485,0.76837 -4.65915,0.15223 -0.84436,-0.61607 0.5208,-3.12984 -0.48723,-3.50196 -1.00804,-0.37214 -2.78417,1.44037 -3.89782,1.27902 -1.11375,-0.16137 -1.66692,-2.46941 -2.83206,-2.34486 -1.16515,0.12454 -2.02883,2.63915 -3.16696,2.95389 -1.13814,0.31475 -2.55358,-1.79943 -3.62378,-1.24853 -1.07022,0.55096 -0.99274,3.00071 -1.91853,3.74561 -0.92573,0.74489 -2.89271,0.18475 -3.62379,1.09634 -0.73103,0.91141 0.64397,2.90762 0.15228,3.8978 -0.4917,0.99024 -3.3159,1.05796 -3.50197,2.10111 -0.18604,1.04326 2.59071,1.4764 2.67977,2.49708 0.089,1.02073 -2.61617,3.28866 -2.22293,4.2329 0.39322,0.94415 3.28051,-0.0663 3.92828,0.73085 0.64781,0.79701 -0.72435,2.89402 0.0914,3.53243 0.81572,0.63837 3.03664,-0.55953 4.05012,-0.15231 1.01343,0.40731 1.04673,2.95607 2.16208,3.13657 0.99675,0.16128 2.3231,-1.72506 3.41061,-2.19255 -0.38768,1.74738 -0.57858,3.5418 -0.57858,5.39 l 0,1.94891 c 0,2.31634 0.31189,4.54777 0.91356,6.69939 -0.4166,-4.26808 0.56426,-8.53747 2.7711,-12.45488 0.003,0 0.0279,0.009 0.0304,0 0.0674,0 0.14251,-0.009 0.21317,-0.0302 1.13063,-0.32645 1.63056,-2.82924 2.67976,-3.38024 1.04921,-0.55087 2.73462,1.03196 3.62378,0.24362 0.88919,-0.78824 0.0933,-3.06038 0.85266,-3.95879 0.75938,-0.89836 3.19035,-1.16993 3.62377,-2.19256 0.17609,-0.41541 -0.0887,-0.83093 -0.45679,-1.24854 1.93837,-1.18419 4.06112,-2.25113 6.36442,-3.13658 l 2.77109,-1.06576 c 13.764614,-5.29147 29.472564,-3.08455 39.282954,4.65904 l -2.00988,0 c 0.67262,0 1.46922,0.15241 2.04026,0.0302 0.21243,0.1682 0.43268,0.34436 0.63946,0.51773 l 0.82223,-0.30452 c -0.99485,-1.56131 -2.16589,-3.02335 -3.47159,-4.38511 -0.0161,-0.202 -0.005,-0.37722 0.0913,-0.51773 0.43071,-0.62425 2.4632,-0.48429 2.71023,-1.18757 0.24699,-0.70338 -1.63459,-1.64068 -1.55304,-2.37523 0.0816,-0.73455 2.25037,-1.34218 2.13168,-2.07074 -0.11874,-0.72852 -2.4866,-0.77733 -2.80158,-1.46171 -0.315,-0.68436 1.24615,-1.88805 0.76131,-2.4667 -0.48482,-0.57863 -2.06942,0.0489 -2.67976,-0.42632 -0.61037,-0.47534 -0.24815,-2.19203 -0.97446,-2.49709 -0.72632,-0.30489 -1.9734,1.05439 -2.74073,0.88318 -0.7673,-0.17121 -0.96844,-2.01565 -1.76622,-2.00988 z"
         id="path5157-4" />
    </g>
  </g>
</svg>
