<?xml version="1.0" encoding="UTF-8" standalone="no"?>
<svg
   xmlns:dc="http://purl.org/dc/elements/1.1/"
   xmlns:cc="http://creativecommons.org/ns#"
   xmlns:rdf="http://www.w3.org/1999/02/22-rdf-syntax-ns#"
   xmlns:svg="http://www.w3.org/2000/svg"
   xmlns="http://www.w3.org/2000/svg"
   xmlns:sodipodi="http://sodipodi.sourceforge.net/DTD/sodipodi-0.dtd"
   xmlns:inkscape="http://www.inkscape.org/namespaces/inkscape"
   width="126.18884"
   height="461.64319"
   style="overflow:visible"
   version="1.1"
   id="svg960"
   sodipodi:docname="perso05.svg"
   inkscape:version="0.92.5 (2060ec1f9f, 2020-04-08)">
  <metadata
     id="metadata966">
    <rdf:RDF>
      <cc:Work
         rdf:about="">
        <dc:format>image/svg+xml</dc:format>
        <dc:type
           rdf:resource="http://purl.org/dc/dcmitype/StillImage" />
      </cc:Work>
    </rdf:RDF>
  </metadata>
  <defs
     id="defs964" />
  <sodipodi:namedview
     pagecolor="#ffffff"
     bordercolor="#666666"
     borderopacity="1"
     objecttolerance="10"
     gridtolerance="10"
     guidetolerance="10"
     inkscape:pageopacity="0"
     inkscape:pageshadow="2"
     inkscape:window-width="1878"
     inkscape:window-height="1031"
     id="namedview962"
     showgrid="false"
     inkscape:zoom="0.39333333"
     inkscape:cx="-341.83689"
     inkscape:cy="545.21578"
     inkscape:window-x="42"
     inkscape:window-y="25"
     inkscape:window-maximized="1"
     inkscape:current-layer="svg960" />
  <g
     id="g956"
     transform="translate(-200.6688,-127.85755)">
    <svg
       id="svg844"
       version="1.1"
       style="overflow:visible"
       height="600"
       width="500">
      <svg
         id="svg842"
         version="1.1"
         style="overflow:visible"
         height="600"
         width="500"
         viewBox="0 0 500 600">
        <g
           id="g840">
          <svg
             height="100%"
             width="100%"
             id="svg838"
             version="1.1"
             viewBox="0 0 496.8 597.6">
            <path
               style="fill:#cdab8f;fill-rule:evenodd"
               inkscape:connector-curvature="0"
               id="path782"
               d="m 232.4,161.8 c 14.4,-5.1 16.1,-5.7 25.4,-17.3 7.4,9.6 11.8,11.3 24.2,16.1 8.5,14 -4.4,49.5 -25,49.9 -25.4,-3 -33.9,-29.6 -24.6,-48.7 z" />
            <path
               style="fill:#ffffff;fill-rule:evenodd"
               inkscape:connector-curvature="0"
               id="path784"
               d="m 238.6,176.4 c 6.5,-3.7 8.1,-4.9 13.3,0.4 1.4,4.1 -13.9,3.7 -13.3,-0.4 z" />
            <path
               style="fill:#ffffff;fill-rule:evenodd"
               inkscape:connector-curvature="0"
               id="path786"
               d="m 262.4,177.4 c 6.5,-3.7 8.2,-5 13.3,0.4 1.4,4.1 -13.9,3.7 -13.3,-0.4 z" />
            <path
               inkscape:connector-curvature="0"
               id="path788"
               d="m 252,191.4 a 0.9,0.9 0 0 0 0.3,1.1 v 0 c 0.7,0.6 7.9,0.2 8.8,0.3 a 2.2,2.2 0 0 0 0.1,-0.8 v -0.2 H 261 c 0,-0.2 0,-0.3 -0.1,-0.4 -1.7,0.3 -6.1,1.4 -6.9,-0.6 a 1.3,1.3 0 0 0 -1.8,0.3 l -0.2,0.3" />
            <path
               inkscape:connector-curvature="0"
               id="path790"
               d="m 243.2,172.5 a 16.6,16.6 0 0 0 -6.5,4.2 c 0,1.8 3.2,-1 3.9,-1.3 a 8.9,8.9 0 0 1 5.5,-1.4 8.3,8.3 0 0 1 3.2,2 c 0.8,0.4 1.1,2.1 2.2,1.7 1.1,-0.4 -0.1,-2 -0.5,-2.8 a 7.2,7.2 0 0 0 -7.8,-2.5" />
            <path
               inkscape:connector-curvature="0"
               id="path792"
               d="m 244.8,176.5 h 0.6 l -0.3,0.3 c -0.1,0 -0.5,0.1 -0.5,-0.1 0,-0.2 -0.1,-0.2 -0.1,-0.3 v 0 -0.2 h 0.3 m -0.9,-3.7 c -4.9,2.5 -2,8.7 3.1,6.8 5.1,-1.9 1,-8.6 -3.1,-6.7" />
            <path
               inkscape:connector-curvature="0"
               id="path794"
               d="m 248.6,178.2 h -0.4 c 0,0.1 -0.1,0.1 -0.2,0.1 a 3.8,3.8 0 0 1 -2.3,0.6 18.3,18.3 0 0 1 -3.3,0.2 c -0.6,-0.9 -2.1,-0.3 -1.2,0.7 l 1.5,0.6 a 24.2,24.2 0 0 0 3.8,-0.2 c 0.9,-0.1 4.3,-1.2 2.1,-2.1" />
            <path
               inkscape:connector-curvature="0"
               id="path796"
               d="m 269.1,172.6 a 10.7,10.7 0 0 0 -6.7,3.1 6.7,6.7 0 0 0 -1.4,1.5 c -0.4,0.9 0.9,1.7 1.4,0.8 h 0.1 c 2.4,-2.5 5.8,-4.1 9.2,-2.7 a 9.5,9.5 0 0 1 2.7,1.7 c 0.5,0.2 0.9,0.7 1.4,0.8 a 0.8,0.8 0 0 0 1,-0.3 0.8,0.8 0 0 0 -0.4,-1 h -0.1 c -1.9,-1.9 -4.4,-3.6 -7.2,-3.7" />
            <path
               inkscape:connector-curvature="0"
               id="path798"
               d="m 269.4,176.7 h 0.1 c 0,0.2 -0.1,0.6 -0.1,0.8 h -0.8 v -0.2 h 0.1 v -0.2 l 0.2,-0.2 h 0.4 m -1.1,-3.5 c -2.9,0.2 -4.9,4.1 -2.5,6.2 h 0.1 c 2.6,3.7 8.8,-0.5 6.5,-4.3 h -0.1 c -0.6,-1.7 -2.4,-2.1 -4,-1.9" />
            <path
               inkscape:connector-curvature="0"
               id="path800"
               d="m 264.7,179.8 c -0.5,1.1 2,1.3 2.7,1.7 0.7,0.4 5.1,0.2 6.1,-1.2 1,-1.4 -2.6,-0.2 -3.4,-0.1 a 20.6,20.6 0 0 1 -3.5,-0.2 c -0.5,-0.2 -1.6,-1 -1.9,-0.2" />
            <path
               inkscape:connector-curvature="0"
               id="path802"
               d="m 253.6,173.4 c 0.5,3.7 1,6.4 0.1,10.7 0,2.5 -1.6,5 -1.5,7.4 l 0.4,0.4 c 2.1,0.3 0.8,-2.3 2,-3.1 0.6,-3.4 2.7,-14.1 -0.9,-15.6" />
            <path
               inkscape:connector-curvature="0"
               id="path804"
               d="m 267.6,209 1.5,-1 h 0.2 a 3.7,3.7 0 0 0 0.5,1.1 h -2.7 l 0.5,-0.3 m 12.8,-27.2 c 0,-2.5 0.6,-5 0.3,-7.4 h 0.8 c 0.7,2.9 -1,6 -1.3,8.8 v 0 a 7.7,7.7 0 0 1 0.2,-1.5 m -48.9,2.8 c -3.5,-0.6 -2.6,-8.2 -0.9,-10.3 l 0.4,-0.4 h 0.4 c -0.1,3.4 0.3,7.5 0.4,10.8 h -0.3 m 4.5,-20.3 a 45.5,45.5 0 0 0 5.1,-2.1 c 0.6,0 1.3,-0.6 1.7,-0.7 a 45.2,45.2 0 0 0 6,-3.5 8.2,8.2 0 0 0 2,-1.2 h 0.4 c 0.1,-0.1 0.5,-0.3 0.6,-0.5 h 0.1 l 3,-2.7 h 0.1 a 28.5,28.5 0 0 0 2.3,-2.6 h 0.2 v -0.2 c 0.1,0.2 0.2,0.3 0.2,0.5 h 0.1 v 0.2 a 12.4,12.4 0 0 0 3.6,3.6 c 1.4,0.8 3,2.6 4.6,2.6 l 8.3,3.7 c 4.3,2.1 4.1,7.9 4.3,12 -0.3,0.4 -0.5,1.1 0.1,1.3 0.6,0.2 -0.1,3.8 -0.1,5.1 h -0.1 a 32,32 0 0 1 -1.4,8.1 H 277 c -0.7,1.9 -1.4,5 -2.3,7.1 h -0.1 a 29.7,29.7 0 0 1 -7.4,11.1 v 0 c -0.9,0.5 -1.8,1.3 -2.6,1.8 h -0.3 l -0.5,0.3 a 30.2,30.2 0 0 1 -4.5,1.8 20.3,20.3 0 0 1 -12,-1.5 9.1,9.1 0 0 1 -3.7,-2.4 v -0.2 h -0.2 l -1,-1.1 h -0.1 l -0.5,-0.5 h -0.1 c -2.1,-2.4 -4.7,-5.3 -5.6,-8.4 H 236 a 2.9,2.9 0 0 0 -0.2,-0.9 h -0.1 a 50.7,50.7 0 0 1 -0.9,-5.4 h -0.1 c -1.1,-7.5 -0.8,-15.2 -0.5,-22.6 v 0 c 0,-0.5 0.3,-1.2 0,-1.5 l 1.9,-0.6 m 24.5,-36.2 c -10.4,-0.3 -18.1,0.9 -26.1,8 v 0 a 42.7,42.7 0 0 0 -7.1,8.2 h -0.1 a 22.6,22.6 0 0 1 -1.6,2.6 v 0.3 c -5.3,9.5 -4.8,21.3 -4.6,32.1 v 0 c -0.1,1.3 0.3,4.9 0.3,6.2 h 0.1 c 1.4,6 3.2,12.2 6.5,17.3 a 75.7,75.7 0 0 0 9.8,11.8 h 0.1 l 0.8,0.6 c 0.5,0 1,-0.3 1.6,-0.2 0.8,-2.6 1.7,-5.7 1.2,-8.5 a 13,13 0 0 0 3.9,3.1 h 0.1 a 20.9,20.9 0 0 0 14.3,2.3 4,4 0 0 1 2.4,-0.4 l 1.1,-0.5 a 1.8,1.8 0 0 0 0.8,1.5 h 0.2 a 5.7,5.7 0 0 0 1.2,2.3 v 0.3 a 10.6,10.6 0 0 0 2.9,2.7 h 0.2 c 0.4,0.5 1.1,0.7 1.6,1.1 h 0.2 c 2.8,1.2 2.9,4.2 2.8,7 v 0 c -0.1,2.2 -0.1,4.9 -0.1,7.4 v 0 a 11.9,11.9 0 0 0 5.6,10.1 c 2.9,0.8 7,2.4 7.1,6 v 0 c 0.3,3.3 3.5,4.4 5.8,6 4.3,5.8 9.5,5.8 16.1,5.5 6.6,-0.3 4.2,-16.1 4.6,-20.6 0.4,-4.5 2.3,-9.3 1.7,-13.7 -0.6,-4.4 -4.2,-5.7 -5.5,-9 H 308 c -1.2,-4.8 1.8,-10.1 0.3,-15.2 -1.5,-5.1 -4,-8.2 -6.5,-11.6 V 191 a 31.2,31.2 0 0 1 -3.4,-4.7 h -0.1 l -1.3,-1.7 c 0.4,-11.7 -1.3,-23.5 -6.1,-34.3 v 0 c -0.1,-1 -1.2,-2.6 -1.4,-3.5 v 0 c -0.4,-1.5 -1.7,-3.2 -2.4,-4.6 H 287 a 19.4,19.4 0 0 0 -2.1,-2.9 h -0.7 a 24,24 0 0 0 -4,-3.8 H 280 c -5.6,-4.1 -12.3,-8.1 -19.5,-7.6" />
            <path
               inkscape:connector-curvature="0"
               id="path806"
               d="m 235.5,217.2 v 0 -0.2 a 0.4,0.4 0 0 0 0.1,0.3" />
            <path
               inkscape:connector-curvature="0"
               id="path808"
               d="m 286.2,150.2 c 0.6,1.4 1.7,3.5 2.2,4.9 h -0.1 c 2,4.5 3.2,9.5 5,13.9 1.8,4.4 2,10.7 4.1,15.7 5.2,12.2 9,14.7 5.9,28.9 v -0.2 c -0.4,2.4 -0.9,4.7 -1.5,7 0.8,4.1 3.5,-1.5 3.5,-3.3 1.3,-6 2.5,-12.5 1.1,-18.7 a 15.2,15.2 0 0 0 -1.6,-4 87.1,87.1 0 0 1 -6.6,-14.6 c -1.3,-3.8 -1.8,-8.2 -3.4,-11.9 -2.8,-6 -5,-12.5 -8.4,-18.1 -0.2,0 -0.5,0.2 -0.3,0.5" />
            <path
               inkscape:connector-curvature="0"
               id="path810"
               d="m 293.4,181.4 c -0.6,0.9 1,2.3 1.3,3.3 a 29.2,29.2 0 0 0 1.7,3.6 v 0 c 0.5,0.7 0.6,2.6 1.6,2.7 l 0.3,-0.3 h 0.5 a 0.8,0.8 0 0 0 0.4,-1 23.5,23.5 0 0 0 -0.5,-3.7 l -0.4,-0.4 v 0 a 7.7,7.7 0 0 0 -0.7,-1.6 c 0,-0.3 -0.4,-0.5 -0.5,-0.8 -0.1,-0.3 -1.2,-0.3 -1.1,0.3 h -0.1 c 0,0.4 0.1,1 0.1,1.3 l -1.7,-3.2 c -0.1,-0.1 -0.4,-0.3 -0.6,-0.2" />
            <path
               inkscape:connector-curvature="0"
               id="path812"
               d="m 272.6,205.7 h -0.3 L 272,206 h -0.2 l -0.6,0.6 -0.7,-0.2 a 3.3,3.3 0 0 0 -1.9,0.6 c -1.2,0.4 -2.6,1.3 -2,2.8 -1.1,0.5 -0.2,1.7 0.7,1.1 0.9,-0.6 2.3,-2 3.4,-2.7 1.1,-0.7 0.8,-0.6 1,-0.9 0.2,-0.3 -2.1,4.3 -1.2,4.9 0.9,0.6 0.7,-2.2 1.3,-3 0.6,-0.8 2.3,-3.7 0.7,-3.7" />
            <path
               inkscape:connector-curvature="0"
               id="path814"
               d="m 294,191 c -0.2,7.5 1.2,14.9 1.6,22.4 -1.6,-6.8 -3,-12.2 -5.1,-19.6 v 0 c -0.1,-0.3 -0.3,-0.5 -0.6,-0.4 -0.3,0.1 -0.5,0.3 -0.4,0.6 l 0.3,1.1 c 2,6.7 3.8,14.8 5.3,21.9 3.4,4.9 2,-8.6 1.8,-9.9 -0.4,-3.5 -0.8,-7.4 -1,-10.9 -0.2,-0.6 0.5,-8.3 -2,-5" />
            <path
               inkscape:connector-curvature="0"
               id="path816"
               d="m 222,170.8 a 0.7,0.7 0 0 0 0.3,1 0.8,0.8 0 0 0 0.9,-0.3 0.9,0.9 0 0 0 0.1,-0.5 c 0.2,-0.9 -1.3,-1.1 -1.3,-0.2" />
            <path
               inkscape:connector-curvature="0"
               id="path818"
               d="m 221.9,176.2 c -0.2,11.6 2,24 9.7,33.2 3.6,3.8 8,7.3 9.9,12.3 h 0.1 c 1.4,2.2 3.7,0.2 3.1,-1.9 h 0.1 c 3.2,-5.3 1.4,-10.7 -2.9,-14.7 -2.3,-2 -3.9,1.1 -1.8,2.9 h 0.1 a 8.8,8.8 0 0 1 0.7,2.3 1.6,1.6 0 0 0 -1.9,1.2 v 0 a 41.3,41.3 0 0 1 -9.6,-15.6 c -0.9,-1.4 -1.5,-7.2 -4.2,-5 h -0.1 c -0.6,-2.8 -1.6,-6.1 -1.9,-8.9 a 19.4,19.4 0 0 1 -0.3,-5.9 0.6,0.6 0 0 0 -0.5,-0.6 0.5,0.5 0 0 0 -0.5,0.5 z" />
            <path
               inkscape:connector-curvature="0"
               id="path820"
               d="m 265,211.9 v 0 m -1.2,-1.5 c -2,2.6 -0.5,7 1.3,9.3 a 8,8 0 0 0 4.9,1.8 c 0.7,0.9 0.7,2.5 1.8,3.2 1.1,0.7 3.6,0.8 4,-0.8 a 1.6,1.6 0 0 0 -1.1,-2.1 h -0.5 c -0.3,-2.9 -3.2,-4.5 -5.9,-4.1 l -1.3,-0.4 c -1.1,-1.5 -2.6,-3.3 -2,-5.2 h 0.1 a 1,1 0 0 0 -0.4,-1.4 h -0.9" />
            <path
               inkscape:connector-curvature="0"
               id="path822"
               d="m 259.5,165.6 h 0.3 l -0.4,-0.2 h 0.1" />
            <path
               inkscape:connector-curvature="0"
               id="path824"
               d="m 253.7,187.9 -0.3,2.2 v 0 0.4 c -0.1,0.1 -0.1,0.2 -0.1,0.4 v 0 c 0,0.2 0.2,0.3 0.4,0.3 h -0.9 c -2.6,2.8 4.4,2.2 5.7,1.9 1.3,-0.3 3.3,-0.1 3.2,-1.6 l -0.2,-0.3 h -0.1 V 191 h -6.9 c 0,-0.1 -0.1,-0.2 -0.1,-0.3 v -0.5 c 0.2,-0.5 0.7,-1.8 0.2,-2.1 l -0.3,-0.2 c -0.2,0 -0.5,0.1 -0.5,0.3" />
            <path
               inkscape:connector-curvature="0"
               id="path826"
               d="m 236.7,167 c -0.7,0.4 -0.4,1.1 0.1,1.4 4.5,0.4 8.7,2.8 13.1,3.7 l 0.3,0.2 h 0.6 c 0,-0.1 0.1,-0.1 0.1,-0.2 0,-0.1 2.7,-4.3 0.4,-3.6 h -0.2 a 7.7,7.7 0 0 0 -0.7,1.6 c -2.9,-0.8 -6.2,-1.9 -9.1,-2.9 a 10.6,10.6 0 0 0 -2.5,-0.2 l -2.1,-0.2" />
            <path
               inkscape:connector-curvature="0"
               id="path828"
               d="m 274,164.6 c -3.9,1.7 -8.2,3.4 -11.8,5.8 H 262 c -0.5,-1.3 -2.9,-1 -1.9,0.5 1,1.5 1.8,2.1 2.9,1.1 3,-1.6 6.2,-3.3 9.3,-4.6 h -0.2 l 2.6,-1.1 c 1.5,-0.8 0.8,-2.1 -0.7,-1.8" />
            <path
               inkscape:connector-curvature="0"
               id="path830"
               d="m 251.8,167.8 c -0.4,0.5 -0.8,1.4 -1.2,1.9 -0.4,0.5 0.8,0.9 1,0.2 h 0.6 a 2.6,2.6 0 0 0 0.5,-1.7 l -0.3,-0.4 h -0.6" />
            <path
               inkscape:connector-curvature="0"
               id="path832"
               d="m 259.4,168.3 h -0.2 c -0.8,0.9 0.4,1.8 0.9,2.3 0.5,0.5 0.9,0 1.1,0.2 0.2,0.2 -0.1,-1.8 -0.6,-2.4 a 1,1 0 0 0 -1.2,-0.4" />
            <path
               style="fill:#571010"
               inkscape:connector-curvature="0"
               id="path834"
               d="m 258.5,194.5 c 1.3,0.1 2.3,1.6 2.8,2.7 0.5,1.1 2.1,2.6 2,4 h -0.1 c 0.2,2.2 -1,4.7 -2.3,6.4 -1.3,1.7 -2.3,0.7 -3.2,0.7 -4.3,-0.2 -3.9,0 -6.6,-3.5 a 1.3,1.3 0 0 1 -0.6,-1.7 v 0 a 26.9,26.9 0 0 1 2.5,-7.4 l -0.4,0.7 c -0.1,-0.6 0.3,-1.2 0.8,-1.1 0.5,0.1 4.5,-0.9 5.1,-0.8 z m -0.4,9.7 a 7,7 0 0 0 -3.4,1.2 h 4.9 c 0.3,-0.5 0.5,-1.2 0.8,-1.7 l -0.2,0.3 c -0.6,-0.1 -1.5,0.6 -2,-0.2 z m 0.4,-7.3 a 19.7,19.7 0 0 0 -4.2,0.2 3.9,3.9 0 0 0 -0.2,1.5 v -0.7 a 12.3,12.3 0 0 0 5.4,0 h -0.1 v -0.2 l -0.3,-0.4 h -0.2 z" />
            <path
               style="fill:#571010"
               inkscape:connector-curvature="0"
               id="path836"
               d="m 257.8,204.1 -3.6,0.4 c -0.4,0.1 -0.6,0.5 -0.8,0.7 v 1 c 0,0.4 0.7,0.4 0.7,0 v 0 -0.7 h 5 c 0.4,-0.3 0.2,-0.7 -0.1,-1 -0.3,-0.3 -0.8,-0.2 -1.2,-0.2" />
          </svg>
        </g>
      </svg>
    </svg>
    <svg
       id="svg954"
       version="1.1"
       style="overflow:visible"
       height="600"
       width="500">
      <svg
         id="svg952"
         version="1.1"
         style="overflow:visible"
         height="600"
         width="500"
         viewBox="0 0 500 600">
        <g
           id="g950">
          <svg
             height="100%"
             width="100%"
             id="svg948"
             version="1.1"
             viewBox="0 0 496.8 597.6">
            <path
               style="fill:#dc8add;fill-rule:evenodd"
               inkscape:connector-curvature="0"
               id="path846"
               d="m 238.1,227.3 -19,10.5 c -1.6,3.3 -2.3,5.8 -2,7.4 5.1,17.6 3.3,26.5 4.9,50.4 l 14,2.5 c 2.4,40.5 -0.6,49.8 -12.4,92.3 3.4,2.5 10.6,3.5 21.4,3.1 14.3,0.1 48,1.7 72,-6.7 -0.4,-14.5 -1.2,-25 -2.5,-31.5 -2.6,-13.2 -9.1,-25.7 -9.9,-34 0.3,-13.6 1.8,-21.2 2.8,-35.5 l 16.9,-6.2 c -9.8,-47.2 -7.7,-48.2 -44,-51.7 -9.4,-10.1 -15.8,-1.2 -25.1,-0.9 z" />
            <path
               style="fill:#3584e4;fill-rule:evenodd"
               inkscape:connector-curvature="0"
               id="path848"
               d="m 230,394.4 c 7.6,42.3 8.7,144.4 8.9,145.8 6.5,3.3 19.5,3.1 33.3,0 h 16.6 c 13.2,-61.7 13.5,-78.1 23.6,-150.4 z" />
            <path
               style="fill:#cdab8f;fill-rule:evenodd"
               inkscape:connector-curvature="0"
               id="path850"
               d="m 247.7,546.2 14.6,1.4 v 24.1 c -4.2,12.1 -49.5,18.5 -14.6,-12.3 v 0 z m 37.5,-5 v 10.5 c 16.5,4.1 26.1,8.7 11.6,15.2 -10.3,0.4 -28.8,-6.2 -30.1,-8.5 -1.3,-2.3 3.6,-5.8 5.3,-5.9 1.7,-0.1 1.8,-3.8 1.7,-11.3 z M 219.4,210.3 c 5.2,2.7 -0.1,14 0.6,15.6 0.9,0 7.8,-0.8 10.9,1.4 3.1,2.2 -0.9,6.5 -1.1,8.3 -0.2,1.8 -1.8,8.3 -1.8,9.6 0,1.3 -1.4,-0.2 -1.9,0.2 -2.3,2.2 -8.9,-3.4 -8.6,1.1 0.4,6.5 4.1,23 11.2,49.7 5.4,-0.1 8.1,0.8 8.2,2.4 0.1,1.6 2.9,30 -5,43.3 -32.1,17.2 -28.7,-70.7 -28.6,-110 9.3,-5.1 11.9,-9.9 16.1,-21.6 z m 103.8,69.6 c -6.8,23.9 -7.3,29.7 -15.3,46.7 -4.2,-14.7 -2,-21.9 -0.4,-40.5 z m -58.7,-69.2 c 1.2,6 1.4,8.9 6.4,10.6 -9.7,9.6 -13.9,4.8 -30.4,2 5.8,-0.9 4.5,-5.2 5.6,-12.6 6.6,2.2 11.1,3.3 18.4,0 z" />
            <path
               inkscape:connector-curvature="0"
               id="path852"
               d="m 239.4,368.7 0.3,-0.3 h -0.2 c 0,0.1 -0.1,0.2 -0.1,0.3" />
            <path
               inkscape:connector-curvature="0"
               id="path854"
               d="m 239.4,368.7 0.3,-0.3 h -0.1 l -0.2,0.3" />
            <path
               inkscape:connector-curvature="0"
               id="path856"
               d="m 315,378.8 -0.8,1.2 v 0 0.4 a 3.4,3.4 0 0 0 0.9,-1.9 z" />
            <path
               inkscape:connector-curvature="0"
               id="path858"
               d="m 232,384.2 -0.3,0.3 h 0.7 l -0.4,-0.4 v 0" />
            <path
               inkscape:connector-curvature="0"
               id="path860"
               d="m 315,378.8 -0.9,1.3 v 0 c 0,-0.1 0.1,-0.1 0.2,-0.2 l -0.3,0.6 a 3.1,3.1 0 0 0 1.1,-2 c 0,0.1 -0.1,0.2 -0.1,0.3" />
            <path
               inkscape:connector-curvature="0"
               id="path862"
               d="m 262.1,228.8 c 2.7,-0.6 5.2,-2.2 7.5,-3.6 2.3,-1.4 1.2,-1.4 2.5,-0.3 1.3,1.1 -0.1,1 0.3,1.4 -3.6,4.6 -8.2,3.8 -8.9,10.9 v 0 c -0.1,0.9 -0.5,1.8 -0.6,2.7 a 29.2,29.2 0 0 0 -2.4,-3.7 c -1.1,-1.7 -2.2,-3.8 -4.1,-4.9 -3.8,-1.9 -22.5,3 -18,-6.1 h 0.9 c 0.5,1 1.8,0.4 2.5,1 a 9.9,9.9 0 0 0 4.9,1.1 88.1,88.1 0 0 0 15.4,1.3 m -16.6,-18.5 c 0,0.3 0.1,0.5 0.1,0.7 0,0.2 -0.5,0.3 -0.5,0.7 a 16.8,16.8 0 0 1 -0.8,6.3 h -0.1 a 7.9,7.9 0 0 1 -2.4,4.6 c -0.1,0.2 -0.4,0.3 -0.4,0.6 -2.5,-2.5 -6.1,0.5 -5.7,3.6 l -5,3.4 v 1.6 c 1.7,-0.9 3.6,-2.6 5.3,-3.6 1.7,4.8 8.2,4.2 12.4,4.6 4.2,0.4 7.1,-1.6 9.4,3.5 v 0 c 0.8,1.2 1.7,2.9 2.5,4.1 v 0 a 0.8,0.8 0 0 0 0.2,0.5 v 0 c 0.1,0.1 0.4,0.6 0.3,0.8 v 0 l 0.3,0.5 v 0 -0.2 h 0.1 v -0.2 c 5.9,11.9 4.2,-3 5.7,-7.5 v 1.1 h 0.1 l 0.5,-1 v 0 c 0.3,-0.4 0.8,-1.4 1.3,-1.6 1.6,-2.2 4.4,-3.6 6,-5.9 6.1,2.8 13.7,4.2 20.3,5.3 l 3.1,1.2 a 40.7,40.7 0 0 1 7,1 43.1,43.1 0 0 0 -10.4,-4.9 c -6.9,-0.4 -14.3,-1.6 -20.4,-4.6 0.1,-2.4 -2.2,-3.6 -4.3,-3.2 -0.3,-0.2 -0.7,-0.7 -1,-0.6 -0.3,0.1 -0.5,-0.7 -0.8,-0.6 a 9.3,9.3 0 0 1 -1.8,-4.6 c 0,-0.6 0.1,-4.2 -1.1,-2.2 a 10.8,10.8 0 0 0 3.8,9.5 0.6,0.6 0 0 0 -0.2,0.7 c -0.6,-0.2 -1.2,0.8 -1.7,0.8 -0.5,0 -3.6,2.3 -5.5,2.6 -6,0 -13.4,0 -19.2,-1.8 1.9,-1.7 2.4,-4.4 2.7,-6.8 v 0 a 0.7,0.7 0 0 0 0.1,-0.5 h 0.1 a 1.3,1.3 0 0 1 0.1,-0.6 v 0 a 5.9,5.9 0 0 0 0.2,-1.3 v 0 c 0,-1.1 0.9,-3.6 -0.4,-4.1 a 1.9,1.9 0 0 0 -0.2,-0.7 v 0" />
            <path
               inkscape:connector-curvature="0"
               id="path864"
               d="m 201.7,257.8 h 0.9 c 0.3,-0.6 -0.3,-1.8 -0.3,-2.4 l -0.6,2.3" />
            <path
               inkscape:connector-curvature="0"
               id="path866"
               d="m 309.8,241.1 h 0.1 l 0.5,0.7 h 0.2 l -1,-1.1 z" />
            <path
               inkscape:connector-curvature="0"
               id="path868"
               d="m 320.6,256.9 v -0.4 c 0.9,5.7 1.6,11.7 2.8,17.5 1.2,5.8 -2.2,4.7 -5.9,6.4 h 0.2 l -2.7,1.1 c 0,-0.1 0.1,-0.1 0.2,-0.1 h -0.8 l -0.3,0.4 a 5.4,5.4 0 0 0 2.1,-0.5 20.1,20.1 0 0 1 -3.3,1.6 c -0.8,0.5 -2.1,1.1 -2.8,1.6 a 5.9,5.9 0 0 0 -0.2,-3.5 c -0.3,-5.9 -1.1,-10.7 -2,-16.9 h -0.1 v -0.2 a 93.5,93.5 0 0 1 -1.1,10.5 c 2.2,2.5 0.3,9.7 0,13 h -0.3 c 0,1.1 -0.1,2.2 -0.2,3.4 h 1.6 a 3.2,3.2 0 0 1 1.4,-1.4 c 3.1,-4.5 12.2,-6.8 17.4,-8.1 0.5,-0.6 0.1,-1.6 0.2,-2.4 a 30.7,30.7 0 0 0 -0.7,-4.2 9.2,9.2 0 0 0 -0.4,-2.9 c -1,-3.7 -3.1,-8 -2.2,-11.8 -0.8,-2.5 -2.4,-5.4 -3.3,-7.7 0.3,1.6 0.6,3.1 0.8,4.7" />
            <path
               inkscape:connector-curvature="0"
               id="path870"
               d="m 311.6,244.5 c 0.1,-0.1 0.5,0.3 0.6,0.3 l -0.6,-1 v 0.6" />
            <path
               inkscape:connector-curvature="0"
               id="path872"
               d="m 307.9,264.1 v 0 c 0,-0.1 -0.2,-0.3 0,-0.1" />
            <path
               inkscape:connector-curvature="0"
               id="path874"
               d="m 239.6,578 -0.7,-0.2 v 0 c -1.6,-7.1 4.4,-13.8 10.1,-17.1 2,-3.7 -0.7,-9.3 0.8,-13.5 a 85.2,85.2 0 0 0 10.1,0.3 c -0.3,4 -0.5,8.1 -1,12 0.1,1.4 1.6,2.5 0.5,4 -2.1,4.1 -3.9,8.1 -7.3,11 -1.6,0.3 -4.1,2.1 -5.7,2.1 l -2.9,1 h -3.9 z m 24.3,-19.8 c 0,-3.5 0.4,-7.2 0.5,-10.7 q 3.5,-0.3 6.9,-0.9 a 27.5,27.5 0 0 1 -1.1,4.1 c -3.5,1 -5.7,4.6 -6.3,8 z m 6.3,-0.9 c -2.7,-4.3 2.8,-2.1 2.9,-5.6 v 0 c 0.7,-2.8 0.7,-6 1.2,-8.8 h 0.1 l 0.4,-0.8 a 0.7,0.7 0 0 0 0.8,-0.5 35.5,35.5 0 0 0 7.2,1.5 40.3,40.3 0 0 0 -0.4,6 v 0 c -0.8,6.4 1.5,4.2 6.2,5 a 47,47 0 0 1 11.4,4.6 c -3.2,4.6 -1,5.8 -8.4,5.5 -3.4,-0.4 -7.6,-0.5 -10.9,-1.5 -3.3,-1 -6.8,-2.2 -8.9,-3.9 a 5.7,5.7 0 0 1 -1.6,-1.5 z m 36,-245.1 -2,0.2 c -0.2,0.7 -0.2,1.6 -0.4,2.3 h 0.4 c 0.5,10.9 3.5,21.7 7.5,31.8 h 0.1 c 3.5,9.3 6,19.5 6.1,29.4 0.5,4.3 -1.8,7.6 -6.1,8.2 h 0.2 c -5,0.4 -10.5,1.8 -15.4,2.4 -2.8,0.5 -6.9,0.3 -9.7,0.5 -5.7,0.3 -12.4,1.6 -17.2,-2.2 a 21.1,21.1 0 0 1 -7.3,2.5 c -2,1.9 -5.5,2.4 -8.1,2.8 a 90.9,90.9 0 0 1 -26,-2.1 c -4.4,-0.9 -1.4,-6 -0.7,-8.7 0.7,-2.7 2.8,-8.6 4,-12.7 h 0.1 v -0.5 h 0.1 v -0.4 h 0.1 a 28,28 0 0 0 1.3,-4.1 h 0.1 c 1.1,-8.2 2,-17.6 3,-25.8 h 0.1 c 0.1,-1.6 0.3,-3.9 0.3,-5.9 v 0 -0.2 0 c 0,-0.3 -0.1,-0.5 -0.1,-0.8 v 0 a 15.5,15.5 0 0 1 0.1,-4.3 h -0.1 v -0.5 l -0.6,0.5 c 0,0.1 0,0.3 -0.1,0.3 v 0 a 1.6,1.6 0 0 1 -1.1,1.5 c -0.2,3.4 -0.3,6.9 -0.4,10.2 v 0 c -0.4,17.2 -6.7,32.8 -11.5,49 v 0 c -1.3,4.4 3.5,7.9 7.5,7.9 5.4,1.5 11.7,1.3 17.4,1.1 a 48,48 0 0 0 14.8,-2.9 l 2.3,-0.8 c 0.9,-0.8 2.6,-1.2 3.1,0.3 h 0.1 c 0,-0.4 -0.1,-0.7 -0.1,-1.1 3.6,2.6 8.7,1.9 12.9,2.5 9.8,0.7 20.6,-1.1 30.3,-2 -6.1,26.4 -7.4,54.5 -11,81.5 -3.1,21.2 -7.9,42.6 -11.4,63.8 v 1.4 l -0.4,0.5 c -0.1,0.6 -1.1,0.8 -1.6,0.9 -3.6,0.1 -7.7,-0.6 -11.3,-0.6 0.3,-11 0.9,-22.6 1.6,-34 v 0 c 1,-17.5 1.4,-41.3 1.9,-58.7 -0.1,-8.8 -0.3,-17.2 0.8,-25.8 -0.4,-2 3.1,-11.3 -2.1,-8.7 -4.1,18.4 -2.1,38.4 -3.3,57.3 -0.7,23.4 -3.2,47.3 -3.3,70.3 -0.5,0.6 -1.9,1.8 -2,2.5 a 177.2,177.2 0 0 1 -20.6,0.6 c -1.8,0 -6.6,-0.1 -8.1,-1.2 0.3,-1.2 1.4,-2.8 0.1,-3.7 v 0 c -1.8,-35.6 -1.1,-71.2 -4.3,-106.7 -1,-9 -2.3,-18.7 -3.3,-27.7 l -0.6,-5 c -0.4,-1.3 0.6,-3.6 -1.2,-3.8 -1.8,-0.2 0,10.6 -0.1,13 0.8,10.6 2.1,21.1 2.9,31.6 1.7,33.1 1.3,66.5 2.9,99.6 v 0 a 1.7,1.7 0 0 0 0.2,1.2 h 0.1 c 0.1,0.8 -0.8,2 -0.4,3 0.9,2.5 3.9,4 6.4,4.1 0.6,3.7 0.5,7.7 1.2,11.2 -4,3.4 -8.1,7.4 -10.8,12 -4.4,7.8 -10.5,20.4 4,20.3 11,0.1 26.8,-10.2 29.8,-21.1 43.8,20.6 59.1,-10.6 18.8,-17.4 0.2,-0.2 0,-0.6 0.3,-0.9 v 0 c 0.2,-2.3 0.4,-3.9 0.7,-6.7 2.6,0.2 6.5,-1.7 5.4,-4.9 a 2.7,2.7 0 0 0 0.5,-2.1 22.3,22.3 0 0 0 0.5,-3.6 l -0.2,0.5 c 4.1,-24.2 9.3,-46.2 11.6,-70.4 h 0.1 c 3.3,-23.9 3.6,-48.6 8.9,-72.1 a 12.9,12.9 0 0 1 2.8,-0.8 v -0.6 c 3.3,-2.1 4.2,-6.1 4.7,-9.7 h 0.1 c 1.3,-4.4 0.7,-8.7 -0.3,-13.2 -0.1,-6.5 -2.3,-13 -4.2,-19 v 0 c -1.6,-6.6 -4.8,-12.5 -6.7,-18.9 -2.1,-4.4 -1.7,-8.8 -3.1,-13.2 v 0 -0.9 h 0.6 l -0.3,-2.3 z" />
            <path
               inkscape:connector-curvature="0"
               id="path876"
               d="m 229.6,253.6 c -0.7,0.3 -0.3,1 -0.3,1.6 l 2.3,5.7 c 4.1,6.3 4.1,15.2 7,22.2 0,-5.6 -1.8,-10.7 -3,-16.1 a 102.2,102.2 0 0 0 -4.7,-13.1 c -0.1,-0.5 -0.9,-0.5 -1.2,-0.2" />
            <path
               inkscape:connector-curvature="0"
               id="path878"
               d="m 238.7,316.9 -0.9,1.1 v 2.9 a 1,1 0 0 1 0.9,-0.3 v -0.3 l 0.3,0.2 c -0.5,-0.7 0,-1.4 0.1,-2 l -0.9,-0.6 c 0.3,-0.4 1.1,-1.1 0.9,-1.6 l -0.4,0.6" />
            <path
               inkscape:connector-curvature="0"
               id="path880"
               d="m 265.3,249 c -0.5,0.4 -1,0.3 -0.8,1.1 v 0 c 0.9,7.5 4.1,14.3 7.2,21.1 a 137.3,137.3 0 0 1 5.6,28.4 c 2.4,-10.3 -0.5,-21.3 -4.3,-31.1 a 142.8,142.8 0 0 1 -6.1,-13.9 c -0.4,-1.1 -2,-3.2 -0.4,-4.1 -0.2,-0.6 -0.3,-1.7 -1.2,-1.5" />
            <path
               inkscape:connector-curvature="0"
               id="path882"
               d="m 277.4,300 a 2.2,2.2 0 0 1 0.1,0.8 c 0.3,-0.1 0.2,-0.6 0.2,-0.8 h -0.3" />
            <path
               inkscape:connector-curvature="0"
               id="path884"
               d="m 278.2,317.1 c 0.1,1.4 0.1,2.9 0.1,4.4 v 0 l 2.2,-1.5 c -0.7,-0.4 -0.8,-1.1 -1,-1.8 a 1.9,1.9 0 0 1 -1,-1.3 l -0.4,0.2" />
            <path
               inkscape:connector-curvature="0"
               id="path886"
               d="m 271.1,322.1 v 0 c 0,0.3 -0.1,0.7 -0.1,1 0,0.3 0.1,-0.5 0.3,-1.1 h -0.2" />
            <path
               inkscape:connector-curvature="0"
               id="path888"
               d="m 272.3,387.2 -6,0.8 c -0.2,-1.2 -2.1,-0.2 -2.7,-0.1 l -2.8,0.4 c -3.5,0.1 -9.6,0.8 -13.1,1 -3.5,0.2 -16.6,-1.8 -17.1,2.4 1.4,5.2 16.5,2.8 21.2,3.1 4.7,0.3 25.9,-0.2 22.7,-6.1 v 0 a 2.6,2.6 0 0 0 -2.2,-1.3" />
            <path
               inkscape:connector-curvature="0"
               id="path890"
               d="m 277.7,378.9 v 0 m 0.6,-58.1 c -0.6,6.9 1.7,15.2 -1,21.5 -0.8,14.5 -0.2,30.1 -6,43.4 -2.3,1.6 0.2,5.2 2.5,3.8 2.3,-1.4 3,-7.3 4,-10.9 3.1,-19 5.1,-40.3 0.5,-58.6 v 0.8" />
            <path
               inkscape:connector-curvature="0"
               id="path892"
               d="m 235.4,271.1 v 0 m -5.5,-15.8 c -0.8,1.6 1.7,3.5 2.1,5.1 a 35.5,35.5 0 0 1 3.4,10.6 v 0 c 2.8,21.4 1.7,43.6 -1.8,64.8 a 0.4,0.4 0 0 0 0.1,-0.3 c -1.5,12.8 -4.8,25 -7.9,37.3 -1.4,6.5 -4.1,11.4 -1.8,17.6 2.3,6.2 9.4,-2.4 2.9,-1.8 -1.5,-4.7 0.5,-9.6 1.6,-14.3 2.1,-9.7 5,-22.1 6.6,-32.1 2.2,-16.7 4.4,-33.6 3.5,-50.6 -0.8,-8.9 -0.4,-22 -4.8,-30.5 -0.8,-1.2 -2.2,-5.8 -3.9,-5.7" />
            <path
               inkscape:connector-curvature="0"
               id="path894"
               d="m 238.2,325.5 v 0 m -8.9,-71.4 c -2,0.8 2.3,5 2.5,5.9 a 41.9,41.9 0 0 1 4.5,12.7 c 0.4,9.4 0.6,18.9 0.5,28.3 -1.1,7.2 -1.2,15.7 -2.2,23.1 -0.5,4.1 -1.7,7.4 -2.2,11.4 -0.5,4 -1.4,10.2 -2.4,15.4 0.1,1.4 -3.2,8.4 -0.2,8.9 5.1,-1.6 5,-16.8 6.5,-22 3.4,-17.7 4.3,-36.1 3.7,-54.1 0.2,-8.7 -1.6,-17.4 -6.3,-24.7 -1.2,-1.5 -2.2,-5.1 -4.4,-5" />
            <path
               inkscape:connector-curvature="0"
               id="path896"
               d="m 306.6,275.8 c 0.2,17.7 -4.6,36 -1.1,53.6 a 176,176 0 0 0 6.5,24.7 c 2.5,8.7 2.8,16.3 2.8,25.2 -1,5.5 3.8,5.9 3.5,0.3 1.8,-19.7 -7.1,-38.4 -9.5,-57.6 -1.8,-3.4 4.1,-57.1 -2.2,-46.2" />
            <path
               inkscape:connector-curvature="0"
               id="path898"
               d="m 230.4,351.5 c -1.1,10.4 -9.5,33.7 -4.5,41.9 1.3,2.2 8.1,2.6 5.3,-0.9 -2.7,-0.4 -3.8,-1.2 -4.3,-4 -0.2,-6.9 1.2,-14.6 2.2,-21.8 v 0.3 c 0.1,-0.6 0.1,-1.1 0.2,-1.6 v 0 c 0.5,-2.9 0.9,-7.4 1.7,-9.9 0.2,-0.8 1.6,-6.2 -0.6,-4" />
            <path
               inkscape:connector-curvature="0"
               id="path900"
               d="m 234.6,324.1 a 2.2,2.2 0 0 0 -0.1,0.8 c 1.6,-0.7 0.7,-2.8 0.4,-4.1 l -0.3,3.3" />
            <path
               inkscape:connector-curvature="0"
               id="path902"
               d="m 323.4,280.3 a 1.5,1.5 0 0 0 -1.6,1.4 v 0.3 0 a 178.4,178.4 0 0 1 -9.2,32.1 c -0.3,2.7 -7.3,14 -3.1,14.2 2.6,2 20.8,-56.1 13.9,-47.9" />
            <path
               inkscape:connector-curvature="0"
               id="path904"
               d="m 235.6,226.7 a 39,39 0 0 1 -5.1,4 c 0.1,0.8 -0.1,2.8 0.1,3.5 2.9,-1.8 6,-3.8 8.1,-6.4 v 0 c 0.3,-1.9 -2.1,-2.2 -3.1,-1" />
            <path
               inkscape:connector-curvature="0"
               id="path906"
               d="m 202.5,256.6 a 5,5 0 0 0 -0.2,1.2 h 0.3 a 2.2,2.2 0 0 0 -0.1,-1.4 v 0" />
            <path
               inkscape:connector-curvature="0"
               id="path908"
               d="m 236.6,288.3 c 0.6,1.1 0,2.7 0.2,3.8 v 0 c 0.4,-0.6 2,-2.1 2,-2.9 a 1.3,1.3 0 0 0 -1.5,-1.2 l -0.7,0.2" />
            <path
               inkscape:connector-curvature="0"
               id="path910"
               d="m 266.7,257.1 c 0.1,1.8 0.6,3.9 0.7,5.7 0.1,1.8 0.5,1.3 0.7,1.5 10.3,16.9 12.2,58.8 9.1,78 0.8,2.4 -4.2,29.1 1.5,24.4 2.8,-14.6 1.9,-30.3 1.9,-45.3 0.2,-10.4 0.4,-20.4 -2.6,-30.2 -1.2,-7.6 -2.6,-16.8 -5.8,-24.2 -0.2,3.3 1.4,7.2 1.9,10.6 -1.1,-4.2 -2.3,-9.3 -3.1,-13.3 -1,-2.5 -2.9,-5.9 -3.7,-8.5 a 1.7,1.7 0 0 0 -0.7,1.3" />
            <path
               inkscape:connector-curvature="0"
               id="path912"
               d="m 280.7,226.8 v 0 m -6.4,-2.4 c -0.6,4.4 16.6,7.5 20.3,8.3 3.7,0.8 8.7,0.6 12.4,2.1 10,3.8 12.2,12.4 13.6,22.1 v -0.4 c 1,4.6 1,8.8 2.1,13.6 0.2,2.9 3.1,8.1 -1.1,8.9 0.1,3 4.7,4.4 4.5,0.7 -1.5,-5.8 -1.7,-12 -2.3,-18.1 -0.9,-8.4 -1.9,-17.8 -8,-24.3 -2.6,-4.1 -7.8,-5.3 -12.4,-5.7 L 288.7,229 a 32.5,32.5 0 0 1 -10.5,-3.5 c -0.8,-0.4 -3,-2.8 -3.9,-1.2" />
            <path
               inkscape:connector-curvature="0"
               id="path914"
               d="m 320.1,268.6 a 0.4,0.4 0 0 1 0.1,0.5 0.4,0.4 0 0 0 -0.1,-0.5 m -0.6,-6.7 v 0 m -21.8,-32.3 v 0 m -23.1,-4.8 c -3.1,2.6 9.2,4.7 10.7,5.5 5.8,1.8 12.6,2 18.6,3.1 16.2,3.7 14.6,28.3 16.9,41.3 v -0.2 c 0.6,2.2 0.1,5.2 2.2,6.7 h -0.1 c 5.3,1.8 1.8,-6 1.9,-8.6 -0.7,-5.6 -0.9,-11.8 -2.2,-17.4 -2.3,-7.5 -3.7,-16.2 -10.3,-21.3 l 0.4,0.3 c -6.3,-4.9 -15.3,-4.2 -22.9,-5.2 -3.2,-0.6 -6.8,-1.7 -10,-2.6 -0.6,-0.2 -4.6,-2.2 -5.2,-1.5" />
            <path
               inkscape:connector-curvature="0"
               id="path916"
               d="m 309.1,328.1 v 0 m -4.4,-71.9 c -2.8,2.4 2.3,12.3 1.1,16.7 a 198.1,198.1 0 0 1 -1,28.8 c 0,9.6 -4.2,24.7 3.8,32 a 1.7,1.7 0 0 0 2.1,-1.4 1.4,1.4 0 0 0 -0.1,-1.1 c -4.8,-8.3 -1.7,-18.7 -1.6,-27.8 0.1,-9.1 2.5,-42.3 -4.3,-47.2" />
            <path
               inkscape:connector-curvature="0"
               id="path918"
               d="m 236.9,295.4 v 3.4 l 1.9,-1.5 c 1.3,-1.2 -0.6,-3.1 -1.9,-1.9" />
            <path
               inkscape:connector-curvature="0"
               id="path920"
               d="m 236.4,228.7 c -2.1,0.3 -4,1.5 -5.9,2.4 v 1.7 l 4.1,-2.3 c 1,-0.3 4.5,-1.1 1.8,-1.9" />
            <path
               inkscape:connector-curvature="0"
               id="path922"
               d="M 230.3,296 H 228 c 0.1,1.5 0.1,3 0.2,4.4 a 48.5,48.5 0 0 1 6.6,0.2 c 2.5,0.1 3,-3.7 0.6,-4.3 a 21.9,21.9 0 0 0 -5.1,-0.3" />
            <path
               inkscape:connector-curvature="0"
               id="path924"
               d="m 233,299.1 a 0.4,0.4 0 0 0 0.4,0.4 0.5,0.5 0 0 0 0.5,-0.4 c 0,-0.5 -0.8,-0.5 -0.9,0" />
            <path
               inkscape:connector-curvature="0"
               id="path926"
               d="m 235.5,299.4 c -0.4,10.2 -1,20.6 -1.8,30.8 V 330 c -0.1,0.3 -0.1,0.7 -0.2,1 h 0.1 c -0.6,3.1 -0.7,6.4 -2.6,9 a 12.5,12.5 0 0 1 -4,2.4 c -0.5,-0.2 -1.3,0.6 -0.5,0.7 h 1.2 c 5.9,-1.6 6,-6.1 7.2,-11.2 1.2,-7.6 1.1,-15.2 1.5,-22.9 -0.2,-1.2 1.6,-12.9 -0.9,-9.4 v 0" />
            <path
               inkscape:connector-curvature="0"
               id="path928"
               d="m 222.8,343.2 v 0 M 212.5,334 v 0 m -11.4,-88 c -1.4,29.1 0.4,58.9 8.5,86.9 1.7,6.1 6.9,11.4 13.2,12.5 2.9,0.5 5.1,-1.9 7.2,-3.6 2.1,-1.7 0.2,-1.8 -0.7,-1.8 -0.9,0 -2.6,2 -3.1,2.3 l 0.2,-0.2 c -2.2,2.1 -5.5,0.7 -7.7,-0.9 -11.6,-5.9 -14.2,-46.2 -15.6,-59.3 -1.5,-10.4 -1.5,-21.3 -1,-31.7 0,-1.7 0.8,-6.3 -1,-4.2" />
            <path
               inkscape:connector-curvature="0"
               id="path930"
               d="m 202.7,245.9 c -4.3,20.9 -0.7,43 1.6,64.2 v -0.6 a 87.8,87.8 0 0 0 5.6,24.2 c 1,2.2 2.5,6.8 4.5,8.9 2,2.1 5.3,5.5 9,4.2 8.3,-1.7 8.6,-13.3 3.7,-8.3 a 4.9,4.9 0 0 1 -2.4,3.2 h 0.1 c -1.9,1.2 -4.8,2.1 -6.1,-0.2 v 0 c -9.8,-14.4 -10.4,-33 -12.7,-50 -1.2,-14.1 -4.2,-29.1 -1.4,-43.2 v 0 c -0.5,-0.8 -0.7,-3.8 -1.8,-2" />
            <path
               inkscape:connector-curvature="0"
               id="path932"
               d="m 202.2,236.2 v 0 c 0,0.2 0.1,0.4 0.1,0.6 v 0 l -0.3,-2.1 a 9.9,9.9 0 0 1 0.2,1.7" />
            <path
               inkscape:connector-curvature="0"
               id="path934"
               d="m 229.2,223.1 h 0.1 l -0.2,-0.4 c 0,0.1 0.1,0.2 0.1,0.3" />
            <path
               inkscape:connector-curvature="0"
               id="path936"
               d="m 217.3,249.5 a 2,2 0 0 0 -0.4,0.8 v 0 0.3 0 0.2 0 a 3.4,3.4 0 0 1 0.1,1 v 0 a 19.7,19.7 0 0 1 0.6,3.5 v 0 c 2.6,6.3 3.2,13.5 4.2,20.4 v -0.4 c 1,7 2.4,14 3.3,20.9 0.1,-0.2 0,-0.3 0,-0.5 1.5,14 4.2,28.5 2.3,42.5 0,1.7 -2,5.2 0.5,6 11.7,-3 -3.8,-84 -9.6,-94.4 -0.4,0.1 -0.7,-0.4 -0.8,-0.7 -0.1,-0.3 -0.2,0.3 -0.2,0.5" />
            <path
               inkscape:connector-curvature="0"
               id="path938"
               d="m 224.1,224.1 0.3,0.2 0.4,0.2 a 0.5,0.5 0 0 0 -0.7,-0.3" />
            <path
               inkscape:connector-curvature="0"
               id="path940"
               d="m 232.1,337 c -1.6,1.4 -2.3,4.1 -4.4,5.3 l -2,1.4 c -0.4,0.3 -2,0.7 -1.8,1.4 -1.3,0 -1.9,1.7 -0.4,1.9 a 8.6,8.6 0 0 0 4.1,-1.6 c 2.2,-0.8 8.7,-7.3 4.5,-8.4" />
            <path
               style="fill:none;stroke:#000000;stroke-width:2.48000002;stroke-miterlimit:3.97000003"
               inkscape:connector-curvature="0"
               id="path942"
               stroke-miterlimit="3.97"
               d="m 202.7,251.1 c 0.4,-2.8 -1.3,-23.2 2,-20.9 14.1,-7.5 11.7,-12.3 14.9,-20.8 4.4,1.5 3.5,11 0,17.9 17.1,-1.8 14.6,3.2 0.5,2.9 q 11.4,0 11.4,3 c 0,2 -9.9,1 -9.9,2 0,1 9.9,1 8.9,3 -1,2 -4.3,2.7 -10.9,4 20.4,-2.1 1.7,7.5 -7,2" />
            <path
               style="fill-rule:evenodd"
               inkscape:connector-curvature="0"
               id="path944"
               d="m 239,223.9 c -10.5,8 6.1,8 16.2,8.8 l 9.1,12.2 c 2,-7.8 3,-12 3,-12.7 0,-0.7 8.9,-8.3 7.4,-8.3 a 7.6,7.6 0 0 1 -3.8,-1.6 c -12.4,8.6 -15.8,5.9 -31.9,1.6 z" />
            <path
               style="fill:#3584e4;fill-rule:evenodd"
               inkscape:connector-curvature="0"
               id="path946"
               d="m 239.9,224.5 c -11.5,7.4 10.9,7.3 15.5,7.7 l 8.7,10.8 c 1.9,-6.9 2.8,-10.6 2.8,-11.2 0,-0.6 8.6,-7.3 7.1,-7.3 a 9.3,9.3 0 0 1 -3.6,-1.4 c -12,7.5 -15,5.2 -30.5,1.4 z" />
          </svg>
        </g>
      </svg>
    </svg>
  </g>
</svg>
