<?xml version="1.0" encoding="UTF-8" standalone="no"?>
<!-- Created with Inkscape (http://www.inkscape.org/) -->

<svg
   xmlns:dc="http://purl.org/dc/elements/1.1/"
   xmlns:cc="http://creativecommons.org/ns#"
   xmlns:rdf="http://www.w3.org/1999/02/22-rdf-syntax-ns#"
   xmlns:svg="http://www.w3.org/2000/svg"
   xmlns="http://www.w3.org/2000/svg"
   xmlns:sodipodi="http://sodipodi.sourceforge.net/DTD/sodipodi-0.dtd"
   xmlns:inkscape="http://www.inkscape.org/namespaces/inkscape"
   width="24.553106mm"
   height="35.584576mm"
   viewBox="0 0 86.999196 126.08708"
   id="svg5223"
   version="1.1"
   inkscape:version="0.91 r13725"
   sodipodi:docname="mix-and-match-characters43.svg">
  <defs
     id="defs5225">
    <filter
       style="color-interpolation-filters:sRGB"
       id="filter4468">
      <feGaussianBlur
         id="feGaussianBlur4470"
         stdDeviation="0.18874514" />
    </filter>
    <filter
       style="color-interpolation-filters:sRGB"
       id="filter4468-3">
      <feGaussianBlur
         id="feGaussianBlur4470-9"
         stdDeviation="0.18874514" />
    </filter>
    <filter
       style="color-interpolation-filters:sRGB"
       id="filter4468-9">
      <feGaussianBlur
         id="feGaussianBlur4470-1"
         stdDeviation="0.18874514" />
    </filter>
    <filter
       style="color-interpolation-filters:sRGB"
       id="filter4468-39">
      <feGaussianBlur
         id="feGaussianBlur4470-17"
         stdDeviation="0.18874514" />
    </filter>
    <filter
       style="color-interpolation-filters:sRGB"
       id="filter4468-2">
      <feGaussianBlur
         id="feGaussianBlur4470-2"
         stdDeviation="0.18874514" />
    </filter>
    <filter
       style="color-interpolation-filters:sRGB"
       id="filter4468-4">
      <feGaussianBlur
         id="feGaussianBlur4470-5"
         stdDeviation="0.18874514" />
    </filter>
    <filter
       style="color-interpolation-filters:sRGB"
       id="filter4468-0">
      <feGaussianBlur
         id="feGaussianBlur4470-55"
         stdDeviation="0.18874514" />
    </filter>
    <filter
       style="color-interpolation-filters:sRGB"
       id="filter4468-01">
      <feGaussianBlur
         id="feGaussianBlur4470-3"
         stdDeviation="0.18874514" />
    </filter>
    <filter
       style="color-interpolation-filters:sRGB"
       id="filter4468-1">
      <feGaussianBlur
         id="feGaussianBlur4470-4"
         stdDeviation="0.18874514" />
    </filter>
  </defs>
  <sodipodi:namedview
     id="base"
     pagecolor="#ffffff"
     bordercolor="#666666"
     borderopacity="1.0"
     inkscape:pageopacity="0.0"
     inkscape:pageshadow="2"
     inkscape:zoom="2.8"
     inkscape:cx="-33.261059"
     inkscape:cy="46.373686"
     inkscape:document-units="px"
     inkscape:current-layer="g4275"
     showgrid="false"
     fit-margin-top="0"
     fit-margin-left="0"
     fit-margin-right="0"
     fit-margin-bottom="0"
     inkscape:window-width="1855"
     inkscape:window-height="1056"
     inkscape:window-x="1985"
     inkscape:window-y="24"
     inkscape:window-maximized="1" />
  <metadata
     id="metadata5228">
    <rdf:RDF>
      <cc:Work
         rdf:about="">
        <dc:format>image/svg+xml</dc:format>
        <dc:type
           rdf:resource="http://purl.org/dc/dcmitype/StillImage" />
        <dc:title />
      </cc:Work>
    </rdf:RDF>
  </metadata>
  <g
     inkscape:label="Layer 1"
     inkscape:groupmode="layer"
     id="layer1"
     transform="translate(-171.62171,-364.63489)">
    <g
       transform="translate(247.3811,385.33246)"
       id="g4275">
      <path
         style="fill:#ab926c;fill-rule:evenodd;stroke:#000000;stroke-width:1.84176505;stroke-linecap:round;stroke-linejoin:round"
         inkscape:connector-curvature="0"
         d="m -73.882722,79.546951 c 1.7908,2.53818 5.48849,3.61023 8.25906,2.39449 2.770571,-1.21574 3.564811,-4.258872 1.774011,-6.797052 -1.790791,-2.53817 -5.488491,-3.610221 -8.259051,-2.39449 -2.770571,1.21574 -3.564811,4.25887 -1.77402,6.797052 z"
         id="path3954-8-5-7-3-4-8-9-1-7-1" />
      <rect
         style="fill:#e66fc0;fill-rule:evenodd;stroke:#000000;stroke-width:1.61230981;stroke-linecap:round;stroke-linejoin:round"
         height="40.453293"
         x="12.540258"
         y="57.558712"
         width="25.209873"
         transform="matrix(-0.8993009,-0.43733041,-0.43733045,0.89930088,0,0)"
         ry="18.028513"
         rx="6.1559091"
         id="rect3252-4-6-2-2-4-1-2-9" />
      <path
         style="fill:#ab926c;fill-rule:evenodd;stroke:#000000;stroke-width:1.84176505;stroke-linecap:round;stroke-linejoin:round"
         inkscape:connector-curvature="0"
         d="m 9.3631368,78.620979 c -1.7907902,2.538192 -5.4884906,3.610242 -8.2590609,2.394502 -2.7705704,-1.21574 -3.5648105,-4.258872 -1.77401028,-6.797062 1.79079028,-2.53817 5.48849068,-3.610221 8.25906098,-2.39449 2.7705504,1.21574 3.5648014,4.25887 1.7740102,6.79705 z"
         id="path3954-8-5-7-3-4-8-9-1-7-1-4" />
      <rect
         style="fill:#e66fc0;fill-rule:evenodd;stroke:#000000;stroke-width:1.61230981;stroke-linecap:round;stroke-linejoin:round"
         height="40.453331"
         x="-44.211899"
         y="29.624712"
         width="25.209898"
         transform="matrix(0.89929843,-0.4373355,0.43733554,0.89929841,0,0)"
         ry="18.02853"
         rx="6.1559153"
         id="rect3252-71-0-6-0-2-7-2" />
      <rect
         style="fill:#5a1e3f;fill-rule:evenodd;stroke:#000000;stroke-width:1.82569313;stroke-linecap:round;stroke-linejoin:round"
         height="49.693436"
         x="-60.40871"
         y="53.792671"
         width="56.590839"
         transform="matrix(0.99999998,-1.8157999e-4,6.0633992e-4,0.99999982,0,0)"
         ry="7.764214"
         rx="18.714771"
         id="rect3252-6-7-2-7-0-8-8-6" />
      <path
         style="fill:none;stroke:#000000;stroke-width:1.16784692;stroke-linecap:round;stroke-linejoin:round"
         inkscape:connector-curvature="0"
         d="m -30.865187,104.20021 -0.26647,-10.483985"
         id="path3928-9-81-8-0-8-6-6-5" />
      <path
         style="fill:#5a1e3f;stroke:#000000;stroke-width:1.55500293"
         inkscape:connector-curvature="0"
         d="m -28.217957,102.88328 c 0,0 0.20714,-8.311975 9.418711,-8.763535 12.391461,-0.6075 13.9995511,7.488685 13.9995511,7.488685 1.1047802,2.4143 -23.5164121,4.67376 -23.4176421,1.27485 z"
         id="path4010-7-1-8-9-3-9-0-7" />
      <path
         style="fill:#5a1e3f;stroke:#000000;stroke-width:1.55500293"
         inkscape:connector-curvature="0"
         d="m -33.557688,102.89357 c 0,0 -0.20879,-7.933875 -9.495971,-8.364965 -12.493321,-0.57987 -14.113752,7.148035 -14.113752,7.148035 -1.11373,2.30452 23.708803,4.4612 23.610033,1.21682 z"
         id="path4010-1-9-1-1-1-7-7-0-9" />
      <path
         style="fill:#dcb5c3;fill-rule:evenodd;stroke:#000000;stroke-width:1.89894724;stroke-linecap:round;stroke-linejoin:round"
         inkscape:connector-curvature="0"
         d="m -31.606988,27.911016 c -0.10227,0 -0.20481,0.009 -0.30688,0.009 -0.058,0 -0.11606,0 -0.17405,-0.009 l -0.27024,0 0,0.0221 c -6.84741,0.37212 -13.190881,4.45275 -17.442082,9.60441 -9.111701,10.968561 -12.586951,25.415662 -12.893551,39.278383 0.23939,3.555602 -0.46007,7.823882 1.04892,10.906836 5.483041,3.33996 15.151862,3.89893 21.742672,4.67952 1.749151,0.0774 4.527351,0.0992 7.543731,0.11592 l 0,0.009 c 0.3165,0 0.61765,0 0.92979,-0.009 0.0308,-1.9e-4 0.0609,1.8e-4 0.0917,0 3.016381,-0.0166 5.794581,-0.0387 7.543731,-0.11592 6.591021,-0.78064 16.2599418,-1.33956 21.7426725,-4.67952 1.50902022,-3.083154 0.8095101,-7.351444 1.0489201,-10.906836 -0.30674,-13.862721 -3.7817505,-28.309822 -12.8935406,-39.278383 -4.251001,-5.15155 -10.594072,-9.23218 -17.442093,-9.60431 l 0,-0.0313 c -0.0896,-8e-5 -0.18077,0 -0.27023,0 z"
         id="path3932-5-3-8-0-8-6-6-0-8" />
      <g
         id="g5578"
         transform="matrix(0.95391705,0,0,0.95391705,223.3819,-234.35311)">
        <rect
           x="-302.41006"
           y="230.63556"
           width="70"
           height="60"
           ry="29"
           rx="33.5"
           id="rect4240-8-9-5-9"
           style="fill:#ffffff;fill-rule:evenodd;stroke:#000000;stroke-width:2;stroke-linecap:round;stroke-linejoin:bevel" />
        <path
           d="m -271.01807,276.15256 6.506,0"
           id="path3831-2-0-3-22-6-5-6"
           inkscape:connector-curvature="0"
           style="fill:#ffffff;stroke:#000000;stroke-width:1.72860003;stroke-linecap:round;stroke-linejoin:round" />
        <g
           transform="matrix(0.65353,0,0,-0.65353,-277.93307,263.99256)"
           id="g456-8-2-1-4-8-8">
          <path
             d="m 0,0 c 0,-2.958 -2.396,-5.355 -5.355,-5.355 -2.958,0 -5.356,2.397 -5.356,5.355 0,2.957 2.398,5.356 5.356,5.356 C -2.396,5.356 0,2.957 0,0"
             id="path458-3-6-8-8-1-0"
             inkscape:connector-curvature="0" />
        </g>
        <g
           transform="matrix(0.65353,0,0,-0.65353,-249.93207,263.49256)"
           id="g456-1-7-8-0-9-1">
          <path
             d="m 0,0 c 0,-2.958 -2.396,-5.355 -5.355,-5.355 -2.958,0 -5.356,2.397 -5.356,5.355 0,2.957 2.398,5.356 5.356,5.356 C -2.396,5.356 0,2.957 0,0"
             id="path458-9-9-9-1-08-7"
             inkscape:connector-curvature="0" />
        </g>
        <g
           id="g5456">
          <g
             id="g5453">
            <path
               transform="translate(281.97911,326.40604)"
               inkscape:connector-curvature="0"
               id="path5325"
               d="m -560.34256,-38.340565 c -5.5463,-1.491486 -10.61751,-4.417588 -14.75294,-8.512488 -10.72146,-10.616398 -10.72146,-27.240744 0,-37.857143 6.60071,-6.536025 14.70387,-9.642857 25.15026,-9.642857 7.36761,0 12.21958,0.995682 17.9009,3.673477 5.98132,2.819198 11.13626,7.974494 13.91803,13.919003 1.9636,4.196108 2.23282,5.519912 2.23282,10.978949 0,5.459037 -0.26922,6.782841 -2.23282,10.978949 -3.76647,8.048773 -11.28318,14.088989 -20.53024,16.497545 -5.26821,1.372193 -16.51991,1.353807 -21.68601,-0.03544 z m 14.92526,-12.083916 c 0,-0.833334 -0.95238,-1.071429 -4.28571,-1.071429 -3.33333,0 -4.28571,0.238095 -4.28571,1.071429 0,0.833333 0.95238,1.071428 4.28571,1.071428 3.33333,0 4.28571,-0.238095 4.28571,-1.071428 z m -15.40816,-9.336735 c 2.889,-2.889001 -0.27816,-7.524678 -4.13828,-6.057064 -1.76705,0.671831 -2.25908,1.791813 -1.89888,4.32237 0.4056,2.849585 3.91414,3.857715 6.03716,1.734694 z m 28.12245,-0.448979 c 0.47143,-0.471429 0.85714,-1.692858 0.85714,-2.714286 0,-2.360542 -1.21088,-3.571429 -3.57143,-3.571429 -2.36054,0 -3.57142,1.210887 -3.57142,3.571429 0,2.360541 1.21088,3.571428 3.57142,3.571428 1.02143,0 2.24286,-0.385714 2.71429,-0.857142 z"
               style="fill:#ab926c;fill-opacity:1" />
          </g>
        </g>
      </g>
      <path
         style="fill:#69383d;fill-rule:evenodd;stroke:#000002;stroke-width:0.92088193;stroke-linecap:round;stroke-linejoin:bevel"
         inkscape:connector-curvature="0"
         d="m -54.76536,-20.228857 c -1.11126,0.095 -2.542491,2.08466 -3.597161,2.15832 -1.12495,0.0783 -1.90224,-2.30575 -2.99282,-1.98557 -1.09058,0.31992 -1.30778,3.38594 -2.27345,3.97125 -0.96566,0.5854 -2.703201,-0.71083 -3.539661,0.058 -0.83648,0.76791 -0.0408,2.68231 -0.6331,3.65468 -0.59234,0.97236 -3.02708,1.13811 -3.39572,2.215941 -0.36861,1.0776099 1.96428,2.21984 1.87055,3.3382 -0.0937,1.1180501 -2.35565,2.1008102 -2.15832,3.2230802 0.19733,1.12196 2.52532,1.45469 2.96412,2.5036 0.4388,1.04891005 -1.40675,2.91247 -0.71943,3.79861 0.6873,0.88617 3.67834,-0.33778 4.575601,0.37415 0.0906,0.0719 0.17843,0.14366 0.23022,0.25897 -1.389971,3.048371 -2.195561,6.350051 -2.302151,9.8130608 0.16985,-0.0221 0.34722,-0.0378 0.518,-0.0571 3.973311,-10.2504308 16.861812,-17.6982708 32.230764,-17.6982708 l 2.992821,0 c 15.222851,0 28.0124824,7.31028 32.1155329,17.4101908 l 1.3237201,0 c -0.0641,-1.4406 -0.24845,-2.8524898 -0.5467701,-4.2302198 0.1834901,0.009 0.3466801,-0.0359 0.4892201,-0.11508 0.9811901,-0.54371 0.26194,-3.39171 1.0935601,-4.144001 0.8316001,-0.75227 3.1616504,0.457041 3.7411005,-0.51799 0.5794,-0.97504 -1.3348302,-2.92583995 -0.9784301,-4.00015995 0.35634,-1.07412005 3.4585804,-1.09542005 3.5684604,-2.21584005 0.10979,-1.12041 -2.6688403,-2.3978301 -2.8201804,-3.5108401 -0.15142,-1.1130101 1.6995503,-2.7244002 1.2662002,-3.7698102 -0.4333501,-1.0455209 -3.0647304,-0.2806901 -3.7698004,-1.1798809 -0.7051501,-0.89924 0.60267,-3.61034 -0.2590001,-4.34535 -0.8616701,-0.73513 -2.5050403,1.28308 -3.53965038,0.83451 -1.0346101,-0.44857 -1.3118902,-3.61322 -2.44609032,-3.79861 -1.1342001,-0.18548 -2.7023703,2.07971 -3.8274204,2.15832 -1.1249502,0.0783 -1.9022403,-2.30576 -2.9928204,-1.98568 -1.0905802,0.32009 -1.3077702,3.38594 -2.2734497,3.97125 -0.96566,0.5854 -2.7032,-0.7099 -3.53965,0.0571 -0.609951,0.56001 -0.330421,1.73938 -0.374111,2.70505 -4.71275,-2.22715 -10.115651,-3.51084 -15.885441,-3.51084 l -2.992821,0 c -4.69556,0 -9.143071,0.84703 -13.180591,2.35977 -0.6236,-0.0452 -1.190681,-0.13596 -1.467651,-0.48918 -0.70514,-0.89934 0.573901,-3.63914 -0.28777,-4.37415 -0.86167,-0.73514 -2.47623,1.31199 -3.51084,0.86323 -1.03462,-0.44847 -1.31189,-3.61311 -2.44609,-3.79861 -0.0709,-0.011 -0.15614,-0.009 -0.23022,0 z"
         id="rect4240-2-3-3-6-6" />
      <g
         style="fill:none;stroke:#ca3f8a;stroke-width:39.40200043;stroke-linecap:round;stroke-linejoin:bevel"
         transform="matrix(0.38048912,0,0,0.4984261,154.63431,-1203.9922)"
         id="g8516-4">
        <g
           transform="matrix(0.22884,0,0,0.32281,-434.24,1726.1)"
           id="g8472-0">
          <g
             id="g8444-11">
            <path
               inkscape:connector-curvature="0"
               d="m -560.32,2545.7 c 48.727,-11.127 48.922,-90.633 81.178,-98.636"
               id="path8424-98" />
            <path
               inkscape:connector-curvature="0"
               d="m -399.41,2545.7 c -48.727,-11.127 -48.922,-90.633 -81.178,-98.636"
               id="path8424-7-9" />
          </g>
          <g
             transform="translate(159.86,-1.7e-5)"
             id="g8444-1-0">
            <path
               inkscape:connector-curvature="0"
               d="m -560.32,2545.7 c 48.727,-11.127 48.922,-90.633 81.178,-98.636"
               id="path8424-9-6" />
            <path
               inkscape:connector-curvature="0"
               d="m -399.41,2545.7 c -48.727,-11.127 -48.922,-90.633 -81.178,-98.636"
               id="path8424-7-6-9" />
          </g>
        </g>
        <g
           transform="matrix(0.22884,0,0,0.32281,-361.48,1726.5)"
           id="g8472-7-5">
          <g
             id="g8444-7-1">
            <path
               inkscape:connector-curvature="0"
               d="m -560.32,2545.7 c 48.727,-11.127 48.922,-90.633 81.178,-98.636"
               id="path8424-97-1" />
            <path
               inkscape:connector-curvature="0"
               d="m -399.41,2545.7 c -48.727,-11.127 -48.922,-90.633 -81.178,-98.636"
               id="path8424-7-2-5" />
          </g>
          <g
             transform="translate(159.86,-1.7e-5)"
             id="g8444-1-7-6">
            <path
               inkscape:connector-curvature="0"
               d="m -560.32,2545.7 c 48.727,-11.127 48.922,-90.633 81.178,-98.636"
               id="path8424-9-3-0" />
            <path
               inkscape:connector-curvature="0"
               d="m -399.41,2545.7 c -48.727,-11.127 -48.922,-90.633 -81.178,-98.636"
               id="path8424-7-6-5-3" />
          </g>
        </g>
      </g>
    </g>
  </g>
</svg>
